,id,ocb_id,time_instant,counter1,area_served,controlled_asset,Mes,Dia,Consumo
2250,1533674,device-watermeter-facultad-psicologia,2021-08-01 23:52:03+02:00,9302.0,B1.0.016,building-facultad-psicologia,8,1,0
2295,1533780,device-watermeter-facultad-psicologia,2021-08-02 23:52:10+02:00,9302.0,B1.0.016,building-facultad-psicologia,8,2,0
2412,1534019,device-watermeter-facultad-psicologia,2021-08-03 23:52:18+02:00,9302.0,B1.0.016,building-facultad-psicologia,8,3,0
2937,1534084,device-watermeter-facultad-psicologia,2021-08-04 23:52:25+02:00,9302.0,B1.0.016,building-facultad-psicologia,8,4,0
2523,1534252,device-watermeter-facultad-psicologia,2021-08-05 23:52:32+02:00,9302.0,B1.0.016,building-facultad-psicologia,8,5,0
3068,1534337,device-watermeter-facultad-psicologia,2021-08-06 23:52:40+02:00,9302.0,B1.0.016,building-facultad-psicologia,8,6,0
4451,1534587,device-watermeter-facultad-psicologia,2021-08-07 23:52:47+02:00,9302.0,B1.0.016,building-facultad-psicologia,8,7,0
3435,1534731,device-watermeter-facultad-psicologia,2021-08-08 23:52:54+02:00,9302.0,B1.0.016,building-facultad-psicologia,8,8,0
3548,1534844,device-watermeter-facultad-psicologia,2021-08-09 23:53:01+02:00,9302.0,B1.0.016,building-facultad-psicologia,8,9,0
3725,1535021,device-watermeter-facultad-psicologia,2021-08-10 23:53:09+02:00,9302.0,B1.0.016,building-facultad-psicologia,8,10,0
3816,1535098,device-watermeter-facultad-psicologia,2021-08-11 23:53:16+02:00,9302.0,B1.0.016,building-facultad-psicologia,8,11,0
4030,1535312,device-watermeter-facultad-psicologia,2021-08-12 23:53:23+02:00,9302.0,B1.0.016,building-facultad-psicologia,8,12,0
4118,1535400,device-watermeter-facultad-psicologia,2021-08-13 23:53:30+02:00,9302.0,B1.0.016,building-facultad-psicologia,8,13,0
4279,1535561,device-watermeter-facultad-psicologia,2021-08-14 23:53:38+02:00,9302.0,B1.0.016,building-facultad-psicologia,8,14,0
948,1515743,device-watermeter-facultad-psicologia,2021-08-15 23:53:45+02:00,9302.0,B1.0.016,building-facultad-psicologia,8,15,0
1062,1515857,device-watermeter-facultad-psicologia,2021-08-16 23:53:52+02:00,9302.0,B1.0.016,building-facultad-psicologia,8,16,0
1116,1515911,device-watermeter-facultad-psicologia,2021-08-17 23:53:59+02:00,9302.0,B1.0.016,building-facultad-psicologia,8,17,0
1302,1516097,device-watermeter-facultad-psicologia,2021-08-18 23:54:06+02:00,9302.0,B1.0.016,building-facultad-psicologia,8,18,0
78,1516194,device-watermeter-facultad-psicologia,2021-08-19 23:54:14+02:00,9302.0,B1.0.016,building-facultad-psicologia,8,19,0
233,1516349,device-watermeter-facultad-psicologia,2021-08-20 23:54:21+02:00,9302.0,B1.0.016,building-facultad-psicologia,8,20,0
406,1516522,device-watermeter-facultad-psicologia,2021-08-21 23:54:28+02:00,9302.0,B1.0.016,building-facultad-psicologia,8,21,0
1394,1516677,device-watermeter-facultad-psicologia,2021-08-22 23:54:35+02:00,9302.0,B1.0.016,building-facultad-psicologia,8,22,0
574,1516873,device-watermeter-facultad-psicologia,2021-08-23 23:54:43+02:00,9302.0,B1.0.016,building-facultad-psicologia,8,23,0
728,1517027,device-watermeter-facultad-psicologia,2021-08-24 23:54:50+02:00,9302.0,B1.0.016,building-facultad-psicologia,8,24,0
820,1517119,device-watermeter-facultad-psicologia,2021-08-25 23:54:57+02:00,9302.0,B1.0.016,building-facultad-psicologia,8,25,0
1541,1517238,device-watermeter-facultad-psicologia,2021-08-26 23:55:05+02:00,9302.0,B1.0.016,building-facultad-psicologia,8,26,0
1601,1517420,device-watermeter-facultad-psicologia,2021-08-27 23:55:12+02:00,9302.0,B1.0.016,building-facultad-psicologia,8,27,0
1691,1517510,device-watermeter-facultad-psicologia,2021-08-28 23:55:19+02:00,9302.0,B1.0.016,building-facultad-psicologia,8,28,0
1851,1517670,device-watermeter-facultad-psicologia,2021-08-29 23:55:26+02:00,9302.0,B1.0.016,building-facultad-psicologia,8,29,0
1994,1517813,device-watermeter-facultad-psicologia,2021-08-30 23:55:34+02:00,9302.0,B1.0.016,building-facultad-psicologia,8,30,0
2155,1518028,device-watermeter-facultad-psicologia,2021-08-31 23:55:41+02:00,9302.0,B1.0.016,building-facultad-psicologia,8,31,0
