,id,ocb_id,time_instant,counter1,area_served,controlled_asset,Mes,Dia,Consumo
85,1547988,device-watermeter-facultad-psicologia,2021-02-01 23:58:38+01:00,9193.0,B1.0.016,building-facultad-psicologia,2,1,0.0
305,1548208,device-watermeter-facultad-psicologia,2021-02-02 23:58:46+01:00,9193.0,B1.0.016,building-facultad-psicologia,2,2,0.0
400,1548307,device-watermeter-facultad-psicologia,2021-02-03 09:38:49+01:00,9193.0,B1.0.016,building-facultad-psicologia,2,3,0.0
415,1548322,device-watermeter-facultad-psicologia,2021-02-03 23:58:54+01:00,9194.0,B1.0.016,building-facultad-psicologia,2,3,1.0
597,1548504,device-watermeter-facultad-psicologia,2021-02-04 23:59:02+01:00,9194.0,B1.0.016,building-facultad-psicologia,2,4,0.0
677,1548584,device-watermeter-facultad-psicologia,2021-02-05 10:09:05+01:00,9194.0,B1.0.016,building-facultad-psicologia,2,5,0.0
1489,1548673,device-watermeter-facultad-psicologia,2021-02-05 23:59:10+01:00,9195.0,B1.0.016,building-facultad-psicologia,2,5,1.0
846,1548789,device-watermeter-facultad-psicologia,2021-02-06 23:59:18+01:00,9195.0,B1.0.016,building-facultad-psicologia,2,6,0.0
980,1548923,device-watermeter-facultad-psicologia,2021-02-07 23:59:26+01:00,9195.0,B1.0.016,building-facultad-psicologia,2,7,0.0
1063,1549006,device-watermeter-facultad-psicologia,2021-02-08 17:39:32+01:00,9195.0,B1.0.016,building-facultad-psicologia,2,8,0.0
1085,1549028,device-watermeter-facultad-psicologia,2021-02-08 23:59:34+01:00,9196.0,B1.0.016,building-facultad-psicologia,2,8,1.0
1274,1549217,device-watermeter-facultad-psicologia,2021-02-09 14:39:39+01:00,9196.0,B1.0.016,building-facultad-psicologia,2,9,0.0
1195,1549138,device-watermeter-facultad-psicologia,2021-02-09 23:59:42+01:00,9197.0,B1.0.016,building-facultad-psicologia,2,9,1.0
1325,1549268,device-watermeter-facultad-psicologia,2021-02-10 10:49:46+01:00,9197.0,B1.0.016,building-facultad-psicologia,2,10,0.0
1370,1549313,device-watermeter-facultad-psicologia,2021-02-10 23:59:50+01:00,9198.0,B1.0.016,building-facultad-psicologia,2,10,1.0
1577,1549493,device-watermeter-facultad-psicologia,2021-02-11 23:59:58+01:00,9198.0,B1.0.016,building-facultad-psicologia,2,11,0.0
1638,1549554,device-watermeter-facultad-psicologia,2021-02-12 23:50:06+01:00,9198.0,B1.0.016,building-facultad-psicologia,2,12,0.0
1900,1549816,device-watermeter-facultad-psicologia,2021-02-13 23:50:14+01:00,9198.0,B1.0.016,building-facultad-psicologia,2,13,0.0
1985,1549890,device-watermeter-facultad-psicologia,2021-02-14 23:50:22+01:00,9198.0,B1.0.016,building-facultad-psicologia,2,14,0.0
2132,1550037,device-watermeter-facultad-psicologia,2021-02-15 23:50:30+01:00,9198.0,B1.0.016,building-facultad-psicologia,2,15,0.0
2343,1550248,device-watermeter-facultad-psicologia,2021-02-16 23:50:38+01:00,9198.0,B1.0.016,building-facultad-psicologia,2,16,0.0
2429,1550352,device-watermeter-facultad-psicologia,2021-02-17 23:50:47+01:00,9198.0,B1.0.016,building-facultad-psicologia,2,17,0.0
2563,1550508,device-watermeter-facultad-psicologia,2021-02-18 11:30:50+01:00,9198.0,B1.0.016,building-facultad-psicologia,2,18,0.0
2516,1550461,device-watermeter-facultad-psicologia,2021-02-18 23:50:55+01:00,9199.0,B1.0.016,building-facultad-psicologia,2,18,1.0
2660,1550605,device-watermeter-facultad-psicologia,2021-02-19 23:51:03+01:00,9199.0,B1.0.016,building-facultad-psicologia,2,19,0.0
2773,1550718,device-watermeter-facultad-psicologia,2021-02-20 23:51:11+01:00,9199.0,B1.0.016,building-facultad-psicologia,2,20,0.0
3024,1550954,device-watermeter-facultad-psicologia,2021-02-21 23:51:19+01:00,9199.0,B1.0.016,building-facultad-psicologia,2,21,0.0
3094,1551024,device-watermeter-facultad-psicologia,2021-02-22 23:51:27+01:00,9199.0,B1.0.016,building-facultad-psicologia,2,22,0.0
3255,1551185,device-watermeter-facultad-psicologia,2021-02-23 23:51:35+01:00,9199.0,B1.0.016,building-facultad-psicologia,2,23,0.0
3455,1551394,device-watermeter-facultad-psicologia,2021-02-24 23:51:43+01:00,9199.0,B1.0.016,building-facultad-psicologia,2,24,0.0
3589,1551528,device-watermeter-facultad-psicologia,2021-02-25 23:51:51+01:00,9199.0,B1.0.016,building-facultad-psicologia,2,25,0.0
3728,1551667,device-watermeter-facultad-psicologia,2021-02-26 23:51:59+01:00,9199.0,B1.0.016,building-facultad-psicologia,2,26,0.0
4015,1551844,device-watermeter-facultad-psicologia,2021-02-27 23:52:07+01:00,9199.0,B1.0.016,building-facultad-psicologia,2,27,0.0
3950,1551915,device-watermeter-facultad-psicologia,2021-02-28 23:52:15+01:00,9199.0,B1.0.016,building-facultad-psicologia,2,28,0.0
