,id,ocb_id,time_instant,counter1,area_served,controlled_asset,Mes,Dia,Consumo
2301,2051741,device-watermeter-facultad-quimica,2021-08-01 23:52:03+02:00,86527.20000000001,B1.-1A.001,building-facultad-quimica,8,1,0
3970,2051917,device-watermeter-facultad-quimica,2021-08-02 23:52:10+02:00,86527.20000000001,B1.-1A.001,building-facultad-quimica,8,2,0
4123,2052070,device-watermeter-facultad-quimica,2021-08-03 23:52:18+02:00,86527.20000000001,B1.-1A.001,building-facultad-quimica,8,3,0
4198,2052145,device-watermeter-facultad-quimica,2021-08-04 23:52:25+02:00,86527.20000000001,B1.-1A.001,building-facultad-quimica,8,4,0
2425,2052385,device-watermeter-facultad-quimica,2021-08-05 23:52:32+02:00,86527.20000000001,B1.-1A.001,building-facultad-quimica,8,5,0
2569,2052529,device-watermeter-facultad-quimica,2021-08-06 23:52:40+02:00,86527.20000000001,B1.-1A.001,building-facultad-quimica,8,6,0
2610,2052570,device-watermeter-facultad-quimica,2021-08-07 23:52:47+02:00,86527.20000000001,B1.-1A.001,building-facultad-quimica,8,7,0
2843,2052803,device-watermeter-facultad-quimica,2021-08-08 23:52:54+02:00,86527.20000000001,B1.-1A.001,building-facultad-quimica,8,8,0
2959,2052919,device-watermeter-facultad-quimica,2021-08-09 23:53:01+02:00,86527.20000000001,B1.-1A.001,building-facultad-quimica,8,9,0
3093,2053053,device-watermeter-facultad-quimica,2021-08-10 23:53:09+02:00,86527.20000000001,B1.-1A.001,building-facultad-quimica,8,10,0
3318,2053278,device-watermeter-facultad-quimica,2021-08-11 23:53:16+02:00,86527.20000000001,B1.-1A.001,building-facultad-quimica,8,11,0
3388,2053348,device-watermeter-facultad-quimica,2021-08-12 23:53:23+02:00,86527.20000000001,B1.-1A.001,building-facultad-quimica,8,12,0
3538,2053498,device-watermeter-facultad-quimica,2021-08-13 23:53:30+02:00,86527.20000000001,B1.-1A.001,building-facultad-quimica,8,13,0
3616,2053576,device-watermeter-facultad-quimica,2021-08-14 23:53:38+02:00,86527.20000000001,B1.-1A.001,building-facultad-quimica,8,14,0
4428,2033851,device-watermeter-facultad-quimica,2021-08-15 23:53:45+02:00,86527.20000000001,B1.-1A.001,building-facultad-quimica,8,15,0
52,2033987,device-watermeter-facultad-quimica,2021-08-16 23:53:52+02:00,86527.20000000001,B1.-1A.001,building-facultad-quimica,8,16,0
1803,2034053,device-watermeter-facultad-quimica,2021-08-17 23:53:59+02:00,86527.20000000001,B1.-1A.001,building-facultad-quimica,8,17,0
161,2034291,device-watermeter-facultad-quimica,2021-08-18 23:54:06+02:00,86527.20000000001,B1.-1A.001,building-facultad-quimica,8,18,0
211,2034341,device-watermeter-facultad-quimica,2021-08-19 23:54:14+02:00,86527.20000000001,B1.-1A.001,building-facultad-quimica,8,19,0
2074,2034519,device-watermeter-facultad-quimica,2021-08-20 23:54:21+02:00,86527.20000000001,B1.-1A.001,building-facultad-quimica,8,20,0
338,2034598,device-watermeter-facultad-quimica,2021-08-21 23:54:28+02:00,86527.20000000001,B1.-1A.001,building-facultad-quimica,8,21,0
359,2034749,device-watermeter-facultad-quimica,2021-08-22 23:54:35+02:00,86527.20000000001,B1.-1A.001,building-facultad-quimica,8,22,0
567,2034957,device-watermeter-facultad-quimica,2021-08-23 23:54:43+02:00,86527.20000000001,B1.-1A.001,building-facultad-quimica,8,23,0
679,2035069,device-watermeter-facultad-quimica,2021-08-24 23:54:50+02:00,86527.20000000001,B1.-1A.001,building-facultad-quimica,8,24,0
843,2035233,device-watermeter-facultad-quimica,2021-08-25 23:54:57+02:00,86527.20000000001,B1.-1A.001,building-facultad-quimica,8,25,0
971,2035361,device-watermeter-facultad-quimica,2021-08-26 23:55:05+02:00,86527.20000000001,B1.-1A.001,building-facultad-quimica,8,26,0
1090,2035480,device-watermeter-facultad-quimica,2021-08-27 23:55:12+02:00,86527.20000000001,B1.-1A.001,building-facultad-quimica,8,27,0
1302,2035692,device-watermeter-facultad-quimica,2021-08-28 23:55:19+02:00,86527.20000000001,B1.-1A.001,building-facultad-quimica,8,28,0
1360,2035750,device-watermeter-facultad-quimica,2021-08-29 23:55:26+02:00,86527.20000000001,B1.-1A.001,building-facultad-quimica,8,29,0
1515,2035905,device-watermeter-facultad-quimica,2021-08-30 23:55:34+02:00,86527.20000000001,B1.-1A.001,building-facultad-quimica,8,30,0
1647,2036052,device-watermeter-facultad-quimica,2021-08-31 23:55:41+02:00,86527.20000000001,B1.-1A.001,building-facultad-quimica,8,31,0
