,id,ocb_id,time_instant,counter1,area_served,controlled_asset,Mes,Dia,Consumo
3798,2024995,device-watermeter-facultad-quimica,2021-11-01 23:53:33+01:00,86527.20000000001,B1.-1A.001,building-facultad-quimica,11,1,0
149,2025177,device-watermeter-facultad-quimica,2021-11-02 23:53:41+01:00,86527.20000000001,B1.-1A.001,building-facultad-quimica,11,2,0
249,2025342,device-watermeter-facultad-quimica,2021-11-03 23:53:48+01:00,86527.20000000001,B1.-1A.001,building-facultad-quimica,11,3,0
4018,2025410,device-watermeter-facultad-quimica,2021-11-04 23:53:56+01:00,86527.20000000001,B1.-1A.001,building-facultad-quimica,11,4,0
4085,2025542,device-watermeter-facultad-quimica,2021-11-05 23:54:04+01:00,86527.20000000001,B1.-1A.001,building-facultad-quimica,11,5,0
4206,2025793,device-watermeter-facultad-quimica,2021-11-06 23:54:12+01:00,86527.20000000001,B1.-1A.001,building-facultad-quimica,11,6,0
516,2025869,device-watermeter-facultad-quimica,2021-11-07 23:54:20+01:00,86527.20000000001,B1.-1A.001,building-facultad-quimica,11,7,0
682,2026100,device-watermeter-facultad-quimica,2021-11-08 23:54:28+01:00,86527.20000000001,B1.-1A.001,building-facultad-quimica,11,8,0
826,2026244,device-watermeter-facultad-quimica,2021-11-09 23:54:36+01:00,86527.20000000001,B1.-1A.001,building-facultad-quimica,11,9,0
944,2026362,device-watermeter-facultad-quimica,2021-11-10 23:54:44+01:00,86527.20000000001,B1.-1A.001,building-facultad-quimica,11,10,0
999,2026417,device-watermeter-facultad-quimica,2021-11-11 23:54:52+01:00,86527.20000000001,B1.-1A.001,building-facultad-quimica,11,11,0
1214,2026632,device-watermeter-facultad-quimica,2021-11-12 23:55:00+01:00,86527.20000000001,B1.-1A.001,building-facultad-quimica,11,12,0
1309,2026727,device-watermeter-facultad-quimica,2021-11-13 23:55:08+01:00,86527.20000000001,B1.-1A.001,building-facultad-quimica,11,13,0
1413,2026831,device-watermeter-facultad-quimica,2021-11-14 23:55:16+01:00,86527.20000000001,B1.-1A.001,building-facultad-quimica,11,14,0
1594,2027012,device-watermeter-facultad-quimica,2021-11-15 23:55:24+01:00,86527.20000000001,B1.-1A.001,building-facultad-quimica,11,15,0
1815,2027233,device-watermeter-facultad-quimica,2021-11-16 23:55:32+01:00,86527.20000000001,B1.-1A.001,building-facultad-quimica,11,16,0
1900,2027318,device-watermeter-facultad-quimica,2021-11-17 23:54:55+01:00,86527.20000000001,B1.-1A.001,building-facultad-quimica,11,17,0
2120,2027538,device-watermeter-facultad-quimica,2021-11-18 23:55:03+01:00,86527.20000000001,B1.-1A.001,building-facultad-quimica,11,18,0
2254,2027672,device-watermeter-facultad-quimica,2021-11-19 23:55:11+01:00,86527.20000000001,B1.-1A.001,building-facultad-quimica,11,19,0
2341,2027759,device-watermeter-facultad-quimica,2021-11-20 23:55:19+01:00,86527.20000000001,B1.-1A.001,building-facultad-quimica,11,20,0
2474,2027892,device-watermeter-facultad-quimica,2021-11-21 23:55:27+01:00,86527.20000000001,B1.-1A.001,building-facultad-quimica,11,21,0
2614,2028032,device-watermeter-facultad-quimica,2021-11-22 23:55:35+01:00,86527.20000000001,B1.-1A.001,building-facultad-quimica,11,22,0
2802,2028220,device-watermeter-facultad-quimica,2021-11-23 23:55:43+01:00,86527.20000000001,B1.-1A.001,building-facultad-quimica,11,23,0
2916,2028334,device-watermeter-facultad-quimica,2021-11-24 23:55:51+01:00,86527.20000000001,B1.-1A.001,building-facultad-quimica,11,24,0
3122,2028540,device-watermeter-facultad-quimica,2021-11-25 23:55:59+01:00,86527.20000000001,B1.-1A.001,building-facultad-quimica,11,25,0
3259,2028677,device-watermeter-facultad-quimica,2021-11-26 23:56:07+01:00,86527.20000000001,B1.-1A.001,building-facultad-quimica,11,26,0
3388,2028806,device-watermeter-facultad-quimica,2021-11-27 23:56:15+01:00,86527.20000000001,B1.-1A.001,building-facultad-quimica,11,27,0
3429,2028847,device-watermeter-facultad-quimica,2021-11-28 23:56:23+01:00,86527.20000000001,B1.-1A.001,building-facultad-quimica,11,28,0
3669,2029087,device-watermeter-facultad-quimica,2021-11-29 23:56:32+01:00,86527.20000000001,B1.-1A.001,building-facultad-quimica,11,29,0
3770,2029240,device-watermeter-facultad-quimica,2021-11-30 23:56:40+01:00,86527.20000000001,B1.-1A.001,building-facultad-quimica,11,30,0
