,id,ocb_id,time_instant,counter1,area_served,controlled_asset,Mes,Dia,Consumo
39,1289242,device-watermeter-facultad-quimica,2022-05-01 23:58:08+02:00,86528.20000000001,B1.-1A.001,building-facultad-quimica,5,1,0
1923,1289674,device-watermeter-facultad-quimica,2022-05-02 23:58:16+02:00,86528.20000000001,B1.-1A.001,building-facultad-quimica,5,2,0
2004,1290106,device-watermeter-facultad-quimica,2022-05-03 23:58:24+02:00,86528.20000000001,B1.-1A.001,building-facultad-quimica,5,3,0
219,1290538,device-watermeter-facultad-quimica,2022-05-04 23:58:32+02:00,86528.20000000001,B1.-1A.001,building-facultad-quimica,5,4,0
2186,1290970,device-watermeter-facultad-quimica,2022-05-05 23:58:40+02:00,86528.20000000001,B1.-1A.001,building-facultad-quimica,5,5,0
2267,1291402,device-watermeter-facultad-quimica,2022-05-06 23:58:48+02:00,86528.20000000001,B1.-1A.001,building-facultad-quimica,5,6,0
463,1291834,device-watermeter-facultad-quimica,2022-05-07 23:58:56+02:00,86528.20000000001,B1.-1A.001,building-facultad-quimica,5,7,0
607,1292266,device-watermeter-facultad-quimica,2022-05-08 23:59:04+02:00,86528.20000000001,B1.-1A.001,building-facultad-quimica,5,8,0
751,1292698,device-watermeter-facultad-quimica,2022-05-09 23:59:12+02:00,86528.20000000001,B1.-1A.001,building-facultad-quimica,5,9,0
895,1293130,device-watermeter-facultad-quimica,2022-05-10 23:59:20+02:00,86528.20000000001,B1.-1A.001,building-facultad-quimica,5,10,0
1039,1293562,device-watermeter-facultad-quimica,2022-05-11 23:59:28+02:00,86528.20000000001,B1.-1A.001,building-facultad-quimica,5,11,0
1183,1293994,device-watermeter-facultad-quimica,2022-05-12 23:59:36+02:00,86528.20000000001,B1.-1A.001,building-facultad-quimica,5,12,0
1277,1294276,device-watermeter-facultad-quimica,2022-05-13 15:39:41+02:00,86528.20000000001,B1.-1A.001,building-facultad-quimica,5,13,0
1355,1294510,device-watermeter-facultad-quimica,2022-05-16 23:50:07+02:00,86528.20000000001,B1.-1A.001,building-facultad-quimica,5,16,0
1499,1294942,device-watermeter-facultad-quimica,2022-05-17 23:50:15+02:00,86528.20000000001,B1.-1A.001,building-facultad-quimica,5,17,0
1643,1295374,device-watermeter-facultad-quimica,2022-05-18 23:50:22+02:00,86528.20000000001,B1.-1A.001,building-facultad-quimica,5,18,0
1750,1295695,device-watermeter-facultad-quimica,2022-05-19 17:40:28+02:00,86528.20000000001,B1.-1A.001,building-facultad-quimica,5,19,0
2341,3121407,device-watermeter-facultad-quimica,2022-05-24 23:51:08+02:00,86528.20000000001,B1.-1A.001,building-facultad-quimica,5,24,0
2422,3121839,device-watermeter-facultad-quimica,2022-05-25 23:51:16+02:00,86528.20000000001,B1.-1A.001,building-facultad-quimica,5,25,0
3096,3122271,device-watermeter-facultad-quimica,2022-05-26 23:51:24+02:00,86528.20000000001,B1.-1A.001,building-facultad-quimica,5,26,0
2605,3122703,device-watermeter-facultad-quimica,2022-05-27 23:51:31+02:00,86528.20000000001,B1.-1A.001,building-facultad-quimica,5,27,0
3195,3123133,device-watermeter-facultad-quimica,2022-05-28 23:51:39+02:00,86528.20000000001,B1.-1A.001,building-facultad-quimica,5,28,0
2788,3123566,device-watermeter-facultad-quimica,2022-05-29 23:51:47+02:00,86528.20000000001,B1.-1A.001,building-facultad-quimica,5,29,0
2869,3123999,device-watermeter-facultad-quimica,2022-05-30 23:51:54+02:00,86528.20000000001,B1.-1A.001,building-facultad-quimica,5,30,0
2953,4398858,device-watermeter-facultad-quimica,2022-05-31 23:52:02+02:00,86528.20000000001,B1.-1A.001,building-facultad-quimica,5,31,0
