,id,ocb_id,time_instant,counter1,area_served,controlled_asset,Mes,Dia,Consumo
15,4411990,device-watermeter-facultad-quimica,2022-09-02 23:35:02+02:00,86528.40000000001,B1.-1A.001,building-facultad-quimica,9,2,0.0
51,4412100,device-watermeter-facultad-quimica,2022-09-03 22:35:09+02:00,86528.40000000001,B1.-1A.001,building-facultad-quimica,9,3,0.0
58,4412122,device-watermeter-facultad-quimica,2022-09-04 15:05:14+02:00,86528.40000000001,B1.-1A.001,building-facultad-quimica,9,4,0.0
68,4412151,device-watermeter-facultad-quimica,2022-09-05 23:45:24+02:00,86528.5,B1.-1A.001,building-facultad-quimica,9,5,0.09999999999126885
72,4412163,device-watermeter-facultad-quimica,2022-09-06 02:25:25+02:00,86528.5,B1.-1A.001,building-facultad-quimica,9,6,0.0
102,4412253,device-watermeter-facultad-quimica,2022-09-06 23:55:31+02:00,86528.70000000001,B1.-1A.001,building-facultad-quimica,9,6,0.20000000001164153
108,4412272,device-watermeter-facultad-quimica,2022-09-07 11:35:35+02:00,86528.70000000001,B1.-1A.001,building-facultad-quimica,9,7,0.0
135,4412352,device-watermeter-facultad-quimica,2022-09-07 23:45:38+02:00,86528.8,B1.-1A.001,building-facultad-quimica,9,7,0.09999999999126885
173,4412467,device-watermeter-facultad-quimica,2022-09-08 23:45:46+02:00,86528.8,B1.-1A.001,building-facultad-quimica,9,8,0.0
206,4412566,device-watermeter-facultad-quimica,2022-09-09 23:35:53+02:00,86528.8,B1.-1A.001,building-facultad-quimica,9,9,0.0
237,4412659,device-watermeter-facultad-quimica,2022-09-10 23:06:00+02:00,86528.8,B1.-1A.001,building-facultad-quimica,9,10,0.0
266,4412749,device-watermeter-facultad-quimica,2022-09-11 23:46:07+02:00,86528.8,B1.-1A.001,building-facultad-quimica,9,11,0.0
279,4412791,device-watermeter-facultad-quimica,2022-09-12 10:06:11+02:00,86528.8,B1.-1A.001,building-facultad-quimica,9,12,0.0
295,4412839,device-watermeter-facultad-quimica,2022-09-12 23:36:15+02:00,86529.0,B1.-1A.001,building-facultad-quimica,9,12,0.19999999999708962
318,4412908,device-watermeter-facultad-quimica,2022-09-13 23:26:22+02:00,86529.0,B1.-1A.001,building-facultad-quimica,9,13,0.0
322,4412920,device-watermeter-facultad-quimica,2022-09-14 05:16:24+02:00,86529.0,B1.-1A.001,building-facultad-quimica,9,14,0.0
323,4412923,device-watermeter-facultad-quimica,2022-09-14 15:46:27+02:00,86529.5,B1.-1A.001,building-facultad-quimica,9,14,0.5
324,4412926,device-watermeter-facultad-quimica,2022-09-14 16:16:27+02:00,86529.6,B1.-1A.001,building-facultad-quimica,9,14,0.10000000000582077
334,4412956,device-watermeter-facultad-quimica,2022-09-14 23:26:29+02:00,86529.70000000001,B1.-1A.001,building-facultad-quimica,9,14,0.10000000000582077
342,4412980,device-watermeter-facultad-quimica,2022-09-15 05:46:31+02:00,86529.70000000001,B1.-1A.001,building-facultad-quimica,9,15,0.0
346,4412991,device-watermeter-facultad-quimica,2022-09-15 13:46:34+02:00,86530.40000000001,B1.-1A.001,building-facultad-quimica,9,15,0.6999999999970896
347,4412995,device-watermeter-facultad-quimica,2022-09-15 14:16:34+02:00,86530.5,B1.-1A.001,building-facultad-quimica,9,15,0.09999999999126885
348,4412998,device-watermeter-facultad-quimica,2022-09-15 15:16:34+02:00,86530.8,B1.-1A.001,building-facultad-quimica,9,15,0.3000000000029104
359,4413031,device-watermeter-facultad-quimica,2022-09-15 23:36:37+02:00,86530.90000000001,B1.-1A.001,building-facultad-quimica,9,15,0.10000000000582077
371,4413066,device-watermeter-facultad-quimica,2022-09-16 13:56:41+02:00,86530.90000000001,B1.-1A.001,building-facultad-quimica,9,16,0.0
380,4413094,device-watermeter-facultad-quimica,2022-09-16 18:46:43+02:00,86531.0,B1.-1A.001,building-facultad-quimica,9,16,0.09999999999126885
397,4413145,device-watermeter-facultad-quimica,2022-09-17 23:06:51+02:00,86531.0,B1.-1A.001,building-facultad-quimica,9,17,0.0
410,4413185,device-watermeter-facultad-quimica,2022-09-18 22:56:59+02:00,86531.0,B1.-1A.001,building-facultad-quimica,9,18,0.0
415,4413200,device-watermeter-facultad-quimica,2022-09-19 03:27:00+02:00,86531.0,B1.-1A.001,building-facultad-quimica,9,19,0.0
417,4413206,device-watermeter-facultad-quimica,2022-09-19 10:47:02+02:00,86531.20000000001,B1.-1A.001,building-facultad-quimica,9,19,0.20000000001164153
419,4413213,device-watermeter-facultad-quimica,2022-09-19 11:27:03+02:00,86531.5,B1.-1A.001,building-facultad-quimica,9,19,0.29999999998835847
420,4413216,device-watermeter-facultad-quimica,2022-09-19 11:57:03+02:00,86531.6,B1.-1A.001,building-facultad-quimica,9,19,0.10000000000582077
421,4413219,device-watermeter-facultad-quimica,2022-09-19 12:47:03+02:00,86531.70000000001,B1.-1A.001,building-facultad-quimica,9,19,0.10000000000582077
422,4413222,device-watermeter-facultad-quimica,2022-09-19 13:27:03+02:00,86531.8,B1.-1A.001,building-facultad-quimica,9,19,0.09999999999126885
423,4413225,device-watermeter-facultad-quimica,2022-09-19 13:57:03+02:00,86531.90000000001,B1.-1A.001,building-facultad-quimica,9,19,0.10000000000582077
424,4413228,device-watermeter-facultad-quimica,2022-09-19 15:27:04+02:00,86532.0,B1.-1A.001,building-facultad-quimica,9,19,0.09999999999126885
429,4413244,device-watermeter-facultad-quimica,2022-09-19 21:17:06+02:00,86532.1,B1.-1A.001,building-facultad-quimica,9,19,0.10000000000582077
434,4413260,device-watermeter-facultad-quimica,2022-09-20 08:37:09+02:00,86532.1,B1.-1A.001,building-facultad-quimica,9,20,0.0
435,4413263,device-watermeter-facultad-quimica,2022-09-20 09:57:09+02:00,86532.20000000001,B1.-1A.001,building-facultad-quimica,9,20,0.10000000000582077
437,4413269,device-watermeter-facultad-quimica,2022-09-20 10:37:10+02:00,86532.40000000001,B1.-1A.001,building-facultad-quimica,9,20,0.19999999999708962
438,4413272,device-watermeter-facultad-quimica,2022-09-20 12:07:10+02:00,86532.90000000001,B1.-1A.001,building-facultad-quimica,9,20,0.5
441,4413281,device-watermeter-facultad-quimica,2022-09-20 14:07:11+02:00,86533.0,B1.-1A.001,building-facultad-quimica,9,20,0.09999999999126885
442,4413284,device-watermeter-facultad-quimica,2022-09-20 14:47:11+02:00,86533.40000000001,B1.-1A.001,building-facultad-quimica,9,20,0.40000000000873115
443,4413285,device-watermeter-facultad-quimica,2022-09-20 15:17:11+02:00,86533.70000000001,B1.-1A.001,building-facultad-quimica,9,20,0.3000000000029104
444,4413289,device-watermeter-facultad-quimica,2022-09-20 15:47:11+02:00,86533.90000000001,B1.-1A.001,building-facultad-quimica,9,20,0.19999999999708962
445,4413293,device-watermeter-facultad-quimica,2022-09-20 16:47:12+02:00,86534.20000000001,B1.-1A.001,building-facultad-quimica,9,20,0.3000000000029104
446,4413295,device-watermeter-facultad-quimica,2022-09-20 17:17:12+02:00,86534.5,B1.-1A.001,building-facultad-quimica,9,20,0.29999999998835847
448,4413302,device-watermeter-facultad-quimica,2022-09-20 18:17:12+02:00,86534.6,B1.-1A.001,building-facultad-quimica,9,20,0.10000000000582077
458,4413334,device-watermeter-facultad-quimica,2022-09-21 09:07:17+02:00,86534.6,B1.-1A.001,building-facultad-quimica,9,21,0.0
460,4413340,device-watermeter-facultad-quimica,2022-09-21 10:37:17+02:00,86534.8,B1.-1A.001,building-facultad-quimica,9,21,0.19999999999708962
461,4413342,device-watermeter-facultad-quimica,2022-09-21 11:07:17+02:00,86535.0,B1.-1A.001,building-facultad-quimica,9,21,0.19999999999708962
462,4413346,device-watermeter-facultad-quimica,2022-09-21 12:07:18+02:00,86535.5,B1.-1A.001,building-facultad-quimica,9,21,0.5
463,4413348,device-watermeter-facultad-quimica,2022-09-21 15:47:19+02:00,86536.5,B1.-1A.001,building-facultad-quimica,9,21,1.0
469,4413367,device-watermeter-facultad-quimica,2022-09-21 23:57:21+02:00,86537.40000000001,B1.-1A.001,building-facultad-quimica,9,21,0.9000000000087311
474,4413382,device-watermeter-facultad-quimica,2022-09-22 07:17:24+02:00,86537.40000000001,B1.-1A.001,building-facultad-quimica,9,22,0.0
475,4413386,device-watermeter-facultad-quimica,2022-09-22 12:07:25+02:00,86538.0,B1.-1A.001,building-facultad-quimica,9,22,0.5999999999912689
477,4413393,device-watermeter-facultad-quimica,2022-09-22 12:47:25+02:00,86538.1,B1.-1A.001,building-facultad-quimica,9,22,0.10000000000582077
478,4413394,device-watermeter-facultad-quimica,2022-09-22 12:57:25+02:00,86538.20000000001,B1.-1A.001,building-facultad-quimica,9,22,0.10000000000582077
479,4413399,device-watermeter-facultad-quimica,2022-09-22 13:07:25+02:00,86538.40000000001,B1.-1A.001,building-facultad-quimica,9,22,0.19999999999708962
483,4413409,device-watermeter-facultad-quimica,2022-09-22 13:47:26+02:00,86538.5,B1.-1A.001,building-facultad-quimica,9,22,0.09999999999126885
485,4413415,device-watermeter-facultad-quimica,2022-09-22 14:17:26+02:00,86538.6,B1.-1A.001,building-facultad-quimica,9,22,0.10000000000582077
487,4413421,device-watermeter-facultad-quimica,2022-09-22 14:47:26+02:00,86538.70000000001,B1.-1A.001,building-facultad-quimica,9,22,0.10000000000582077
489,4413429,device-watermeter-facultad-quimica,2022-09-22 15:17:26+02:00,86538.90000000001,B1.-1A.001,building-facultad-quimica,9,22,0.19999999999708962
490,4413432,device-watermeter-facultad-quimica,2022-09-22 15:37:26+02:00,86539.20000000001,B1.-1A.001,building-facultad-quimica,9,22,0.3000000000029104
491,4413435,device-watermeter-facultad-quimica,2022-09-22 15:47:26+02:00,86539.3,B1.-1A.001,building-facultad-quimica,9,22,0.09999999999126885
493,4413439,device-watermeter-facultad-quimica,2022-09-22 16:17:26+02:00,86539.40000000001,B1.-1A.001,building-facultad-quimica,9,22,0.10000000000582077
497,4413453,device-watermeter-facultad-quimica,2022-09-22 17:17:27+02:00,86539.5,B1.-1A.001,building-facultad-quimica,9,22,0.09999999999126885
499,4413459,device-watermeter-facultad-quimica,2022-09-22 18:17:27+02:00,86539.70000000001,B1.-1A.001,building-facultad-quimica,9,22,0.20000000001164153
515,4413506,device-watermeter-facultad-quimica,2022-09-22 23:37:29+02:00,86539.8,B1.-1A.001,building-facultad-quimica,9,22,0.09999999999126885
531,4413555,device-watermeter-facultad-quimica,2022-09-23 08:47:31+02:00,86539.8,B1.-1A.001,building-facultad-quimica,9,23,0.0
535,4413567,device-watermeter-facultad-quimica,2022-09-23 09:47:32+02:00,86539.90000000001,B1.-1A.001,building-facultad-quimica,9,23,0.10000000000582077
538,4413575,device-watermeter-facultad-quimica,2022-09-23 10:37:32+02:00,86540.0,B1.-1A.001,building-facultad-quimica,9,23,0.09999999999126885
539,4413578,device-watermeter-facultad-quimica,2022-09-23 10:47:32+02:00,86540.1,B1.-1A.001,building-facultad-quimica,9,23,0.10000000000582077
543,4413591,device-watermeter-facultad-quimica,2022-09-23 11:47:32+02:00,86540.20000000001,B1.-1A.001,building-facultad-quimica,9,23,0.10000000000582077
546,4413598,device-watermeter-facultad-quimica,2022-09-23 12:37:33+02:00,86540.40000000001,B1.-1A.001,building-facultad-quimica,9,23,0.19999999999708962
548,4413605,device-watermeter-facultad-quimica,2022-09-23 13:07:33+02:00,86540.5,B1.-1A.001,building-facultad-quimica,9,23,0.09999999999126885
551,4413615,device-watermeter-facultad-quimica,2022-09-23 13:47:33+02:00,86540.6,B1.-1A.001,building-facultad-quimica,9,23,0.10000000000582077
552,4413618,device-watermeter-facultad-quimica,2022-09-23 14:17:33+02:00,86540.70000000001,B1.-1A.001,building-facultad-quimica,9,23,0.10000000000582077
553,4413623,device-watermeter-facultad-quimica,2022-09-23 14:47:33+02:00,86540.8,B1.-1A.001,building-facultad-quimica,9,23,0.09999999999126885
556,4413632,device-watermeter-facultad-quimica,2022-09-23 16:17:34+02:00,86540.90000000001,B1.-1A.001,building-facultad-quimica,9,23,0.10000000000582077
575,4413690,device-watermeter-facultad-quimica,2022-09-23 22:27:36+02:00,86541.0,B1.-1A.001,building-facultad-quimica,9,23,0.09999999999126885
642,4413897,device-watermeter-facultad-quimica,2022-09-24 22:57:43+02:00,86541.0,B1.-1A.001,building-facultad-quimica,9,24,0.0
713,4414110,device-watermeter-facultad-quimica,2022-09-25 22:27:51+02:00,86541.0,B1.-1A.001,building-facultad-quimica,9,25,0.0
744,4414203,device-watermeter-facultad-quimica,2022-09-26 09:47:54+02:00,86541.0,B1.-1A.001,building-facultad-quimica,9,26,0.0
745,4414208,device-watermeter-facultad-quimica,2022-09-26 09:57:54+02:00,86541.1,B1.-1A.001,building-facultad-quimica,9,26,0.10000000000582077
747,4414214,device-watermeter-facultad-quimica,2022-09-26 10:27:55+02:00,86541.20000000001,B1.-1A.001,building-facultad-quimica,9,26,0.10000000000582077
748,4414217,device-watermeter-facultad-quimica,2022-09-26 10:47:55+02:00,86541.3,B1.-1A.001,building-facultad-quimica,9,26,0.09999999999126885
749,4414219,device-watermeter-facultad-quimica,2022-09-26 10:57:55+02:00,86541.40000000001,B1.-1A.001,building-facultad-quimica,9,26,0.10000000000582077
751,4414226,device-watermeter-facultad-quimica,2022-09-26 11:47:55+02:00,86541.5,B1.-1A.001,building-facultad-quimica,9,26,0.09999999999126885
753,4414232,device-watermeter-facultad-quimica,2022-09-26 12:47:55+02:00,86541.90000000001,B1.-1A.001,building-facultad-quimica,9,26,0.40000000000873115
756,4414241,device-watermeter-facultad-quimica,2022-09-26 13:57:56+02:00,86542.1,B1.-1A.001,building-facultad-quimica,9,26,0.19999999999708962
757,4414244,device-watermeter-facultad-quimica,2022-09-26 14:27:56+02:00,86542.20000000001,B1.-1A.001,building-facultad-quimica,9,26,0.10000000000582077
758,4414247,device-watermeter-facultad-quimica,2022-09-26 14:47:56+02:00,86542.3,B1.-1A.001,building-facultad-quimica,9,26,0.09999999999126885
760,4414252,device-watermeter-facultad-quimica,2022-09-26 15:27:56+02:00,86542.40000000001,B1.-1A.001,building-facultad-quimica,9,26,0.10000000000582077
765,4414268,device-watermeter-facultad-quimica,2022-09-26 16:57:57+02:00,86542.5,B1.-1A.001,building-facultad-quimica,9,26,0.09999999999126885
768,4414277,device-watermeter-facultad-quimica,2022-09-26 17:57:57+02:00,86542.70000000001,B1.-1A.001,building-facultad-quimica,9,26,0.20000000001164153
773,4414291,device-watermeter-facultad-quimica,2022-09-26 19:57:57+02:00,86542.8,B1.-1A.001,building-facultad-quimica,9,26,0.09999999999126885
779,4414309,device-watermeter-facultad-quimica,2022-09-26 23:57:59+02:00,86542.90000000001,B1.-1A.001,building-facultad-quimica,9,26,0.10000000000582077
814,4414415,device-watermeter-facultad-quimica,2022-09-27 08:48:02+02:00,86542.90000000001,B1.-1A.001,building-facultad-quimica,9,27,0.0
818,4414428,device-watermeter-facultad-quimica,2022-09-27 09:48:02+02:00,86543.0,B1.-1A.001,building-facultad-quimica,9,27,0.09999999999126885
819,4414431,device-watermeter-facultad-quimica,2022-09-27 09:58:02+02:00,86543.20000000001,B1.-1A.001,building-facultad-quimica,9,27,0.20000000001164153
821,4414437,device-watermeter-facultad-quimica,2022-09-27 10:28:02+02:00,86543.3,B1.-1A.001,building-facultad-quimica,9,27,0.09999999999126885
822,4414440,device-watermeter-facultad-quimica,2022-09-27 10:48:02+02:00,86543.40000000001,B1.-1A.001,building-facultad-quimica,9,27,0.10000000000582077
824,4414444,device-watermeter-facultad-quimica,2022-09-27 11:48:03+02:00,86543.8,B1.-1A.001,building-facultad-quimica,9,27,0.39999999999417923
826,4414452,device-watermeter-facultad-quimica,2022-09-27 12:38:03+02:00,86544.20000000001,B1.-1A.001,building-facultad-quimica,9,27,0.40000000000873115
828,4414456,device-watermeter-facultad-quimica,2022-09-27 13:28:03+02:00,86544.3,B1.-1A.001,building-facultad-quimica,9,27,0.09999999999126885
829,4414460,device-watermeter-facultad-quimica,2022-09-27 13:58:03+02:00,86544.5,B1.-1A.001,building-facultad-quimica,9,27,0.19999999999708962
830,4414464,device-watermeter-facultad-quimica,2022-09-27 14:28:03+02:00,86544.70000000001,B1.-1A.001,building-facultad-quimica,9,27,0.20000000001164153
831,4414467,device-watermeter-facultad-quimica,2022-09-27 14:58:04+02:00,86545.20000000001,B1.-1A.001,building-facultad-quimica,9,27,0.5
832,4414470,device-watermeter-facultad-quimica,2022-09-27 15:28:04+02:00,86545.40000000001,B1.-1A.001,building-facultad-quimica,9,27,0.19999999999708962
835,4414478,device-watermeter-facultad-quimica,2022-09-27 16:58:04+02:00,86545.5,B1.-1A.001,building-facultad-quimica,9,27,0.09999999999126885
837,4414485,device-watermeter-facultad-quimica,2022-09-27 17:48:04+02:00,86545.6,B1.-1A.001,building-facultad-quimica,9,27,0.10000000000582077
838,4414488,device-watermeter-facultad-quimica,2022-09-27 18:18:05+02:00,86545.70000000001,B1.-1A.001,building-facultad-quimica,9,27,0.10000000000582077
842,4414498,device-watermeter-facultad-quimica,2022-09-27 20:18:05+02:00,86545.8,B1.-1A.001,building-facultad-quimica,9,27,0.09999999999126885
844,4414506,device-watermeter-facultad-quimica,2022-09-27 21:48:06+02:00,86545.90000000001,B1.-1A.001,building-facultad-quimica,9,27,0.10000000000582077
876,4414601,device-watermeter-facultad-quimica,2022-09-28 09:28:09+02:00,86545.90000000001,B1.-1A.001,building-facultad-quimica,9,28,0.0
877,4414604,device-watermeter-facultad-quimica,2022-09-28 11:38:10+02:00,86546.3,B1.-1A.001,building-facultad-quimica,9,28,0.39999999999417923
878,4414608,device-watermeter-facultad-quimica,2022-09-28 11:58:10+02:00,86546.5,B1.-1A.001,building-facultad-quimica,9,28,0.19999999999708962
880,4414614,device-watermeter-facultad-quimica,2022-09-28 12:28:10+02:00,86546.6,B1.-1A.001,building-facultad-quimica,9,28,0.10000000000582077
882,4414618,device-watermeter-facultad-quimica,2022-09-28 12:48:11+02:00,86546.70000000001,B1.-1A.001,building-facultad-quimica,9,28,0.10000000000582077
884,4414625,device-watermeter-facultad-quimica,2022-09-28 13:48:11+02:00,86546.90000000001,B1.-1A.001,building-facultad-quimica,9,28,0.19999999999708962
885,4414627,device-watermeter-facultad-quimica,2022-09-28 14:08:11+02:00,86547.0,B1.-1A.001,building-facultad-quimica,9,28,0.09999999999126885
887,4414633,device-watermeter-facultad-quimica,2022-09-28 14:38:11+02:00,86547.1,B1.-1A.001,building-facultad-quimica,9,28,0.10000000000582077
888,4414638,device-watermeter-facultad-quimica,2022-09-28 14:48:11+02:00,86547.20000000001,B1.-1A.001,building-facultad-quimica,9,28,0.10000000000582077
893,4414653,device-watermeter-facultad-quimica,2022-09-28 16:08:12+02:00,86547.40000000001,B1.-1A.001,building-facultad-quimica,9,28,0.19999999999708962
896,4414662,device-watermeter-facultad-quimica,2022-09-28 16:48:12+02:00,86547.5,B1.-1A.001,building-facultad-quimica,9,28,0.09999999999126885
900,4414674,device-watermeter-facultad-quimica,2022-09-28 17:48:12+02:00,86547.6,B1.-1A.001,building-facultad-quimica,9,28,0.10000000000582077
906,4414692,device-watermeter-facultad-quimica,2022-09-28 20:08:13+02:00,86547.70000000001,B1.-1A.001,building-facultad-quimica,9,28,0.10000000000582077
913,4414713,device-watermeter-facultad-quimica,2022-09-28 23:38:14+02:00,86547.8,B1.-1A.001,building-facultad-quimica,9,28,0.09999999999126885
935,4414779,device-watermeter-facultad-quimica,2022-09-29 08:48:17+02:00,86547.8,B1.-1A.001,building-facultad-quimica,9,29,0.0
937,4414783,device-watermeter-facultad-quimica,2022-09-29 09:08:17+02:00,86547.90000000001,B1.-1A.001,building-facultad-quimica,9,29,0.10000000000582077
