,id,ocb_id,time_instant,counter1,area_served,controlled_asset,Mes,Dia,Consumo
50,1276280,device-watermeter-facultad-psicologia,2022-04-01 23:57:37+02:00,9447.0,B1.0.016,building-facultad-psicologia,4,1,0.0
110,1276712,device-watermeter-facultad-psicologia,2022-04-02 23:57:45+02:00,9447.0,B1.0.016,building-facultad-psicologia,4,2,0.0
4048,1277144,device-watermeter-facultad-psicologia,2022-04-03 23:57:34+02:00,9447.0,B1.0.016,building-facultad-psicologia,4,3,0.0
4098,1277362,device-watermeter-facultad-psicologia,2022-04-04 11:57:38+02:00,9447.0,B1.0.016,building-facultad-psicologia,4,4,0.0
4150,1277576,device-watermeter-facultad-psicologia,2022-04-04 23:57:42+02:00,9448.0,B1.0.016,building-facultad-psicologia,4,4,1.0
272,1277895,device-watermeter-facultad-psicologia,2022-04-05 17:37:48+02:00,9448.0,B1.0.016,building-facultad-psicologia,4,5,0.0
289,1278008,device-watermeter-facultad-psicologia,2022-04-05 23:57:50+02:00,9449.0,B1.0.016,building-facultad-psicologia,4,5,1.0
333,1278392,device-watermeter-facultad-psicologia,2022-04-06 21:17:57+02:00,9449.0,B1.0.016,building-facultad-psicologia,4,6,0.0
349,1278440,device-watermeter-facultad-psicologia,2022-04-06 23:57:58+02:00,9450.0,B1.0.016,building-facultad-psicologia,4,6,1.0
493,1278872,device-watermeter-facultad-psicologia,2022-04-07 23:58:06+02:00,9450.0,B1.0.016,building-facultad-psicologia,4,7,0.0
637,1279304,device-watermeter-facultad-psicologia,2022-04-08 23:58:14+02:00,9450.0,B1.0.016,building-facultad-psicologia,4,8,0.0
781,1279736,device-watermeter-facultad-psicologia,2022-04-09 23:58:22+02:00,9450.0,B1.0.016,building-facultad-psicologia,4,9,0.0
925,1280168,device-watermeter-facultad-psicologia,2022-04-10 23:57:24+02:00,9450.0,B1.0.016,building-facultad-psicologia,4,10,0.0
1069,1280602,device-watermeter-facultad-psicologia,2022-04-11 23:57:32+02:00,9450.0,B1.0.016,building-facultad-psicologia,4,11,0.0
1213,1281032,device-watermeter-facultad-psicologia,2022-04-12 23:57:40+02:00,9450.0,B1.0.016,building-facultad-psicologia,4,12,0.0
1357,1281464,device-watermeter-facultad-psicologia,2022-04-13 23:57:48+02:00,9450.0,B1.0.016,building-facultad-psicologia,4,13,0.0
1501,1281898,device-watermeter-facultad-psicologia,2022-04-14 23:57:56+02:00,9450.0,B1.0.016,building-facultad-psicologia,4,14,0.0
1645,1282328,device-watermeter-facultad-psicologia,2022-04-15 23:58:04+02:00,9450.0,B1.0.016,building-facultad-psicologia,4,15,0.0
1789,1282761,device-watermeter-facultad-psicologia,2022-04-16 23:58:12+02:00,9450.0,B1.0.016,building-facultad-psicologia,4,16,0.0
1933,1283194,device-watermeter-facultad-psicologia,2022-04-17 23:58:20+02:00,9450.0,B1.0.016,building-facultad-psicologia,4,17,0.0
2077,1283624,device-watermeter-facultad-psicologia,2022-04-18 23:58:28+02:00,9450.0,B1.0.016,building-facultad-psicologia,4,18,0.0
2221,1284057,device-watermeter-facultad-psicologia,2022-04-19 23:58:36+02:00,9450.0,B1.0.016,building-facultad-psicologia,4,19,0.0
2365,1284488,device-watermeter-facultad-psicologia,2022-04-20 23:57:09+02:00,9450.0,B1.0.016,building-facultad-psicologia,4,20,0.0
2509,1284922,device-watermeter-facultad-psicologia,2022-04-21 23:57:17+02:00,9450.0,B1.0.016,building-facultad-psicologia,4,21,0.0
2653,1285352,device-watermeter-facultad-psicologia,2022-04-22 23:57:25+02:00,9450.0,B1.0.016,building-facultad-psicologia,4,22,0.0
2797,1285785,device-watermeter-facultad-psicologia,2022-04-23 23:57:04+02:00,9450.0,B1.0.016,building-facultad-psicologia,4,23,0.0
2941,1286216,device-watermeter-facultad-psicologia,2022-04-24 23:57:12+02:00,9450.0,B1.0.016,building-facultad-psicologia,4,24,0.0
3002,1286399,device-watermeter-facultad-psicologia,2022-04-25 10:07:16+02:00,9450.0,B1.0.016,building-facultad-psicologia,4,25,0.0
3085,1286648,device-watermeter-facultad-psicologia,2022-04-25 23:57:20+02:00,9451.0,B1.0.016,building-facultad-psicologia,4,25,1.0
3155,1286858,device-watermeter-facultad-psicologia,2022-04-26 11:37:24+02:00,9451.0,B1.0.016,building-facultad-psicologia,4,26,0.0
3229,1287081,device-watermeter-facultad-psicologia,2022-04-26 23:57:28+02:00,9452.0,B1.0.016,building-facultad-psicologia,4,26,1.0
3303,1287302,device-watermeter-facultad-psicologia,2022-04-27 12:17:32+02:00,9452.0,B1.0.016,building-facultad-psicologia,4,27,0.0
3373,1287512,device-watermeter-facultad-psicologia,2022-04-27 23:57:36+02:00,9453.0,B1.0.016,building-facultad-psicologia,4,27,1.0
3444,1287725,device-watermeter-facultad-psicologia,2022-04-28 11:47:40+02:00,9453.0,B1.0.016,building-facultad-psicologia,4,28,0.0
3517,1287944,device-watermeter-facultad-psicologia,2022-04-28 23:57:44+02:00,9454.0,B1.0.016,building-facultad-psicologia,4,28,1.0
3580,1288134,device-watermeter-facultad-psicologia,2022-04-29 10:27:48+02:00,9454.0,B1.0.016,building-facultad-psicologia,4,29,0.0
3661,1288377,device-watermeter-facultad-psicologia,2022-04-29 23:57:52+02:00,9455.0,B1.0.016,building-facultad-psicologia,4,29,1.0
3805,1288809,device-watermeter-facultad-psicologia,2022-04-30 23:58:00+02:00,9455.0,B1.0.016,building-facultad-psicologia,4,30,0.0
