,id,ocb_id,time_instant,counter1,area_served,controlled_asset,Mes,Dia,Consumo
21,4411275,device-watermeter-facultad-psicologia,2022-08-06 22:14:53+02:00,9570.0,B1.0.016,building-facultad-psicologia,8,6,42
27,4411291,device-watermeter-facultad-psicologia,2022-08-07 11:34:57+02:00,9570.0,B1.0.016,building-facultad-psicologia,8,7,0
47,4411350,device-watermeter-facultad-psicologia,2022-08-10 23:55:22+02:00,9570.0,B1.0.016,building-facultad-psicologia,8,10,0
85,4411458,device-watermeter-facultad-psicologia,2022-08-11 23:25:29+02:00,9570.0,B1.0.016,building-facultad-psicologia,8,11,0
98,4411498,device-watermeter-facultad-psicologia,2022-08-12 14:25:34+02:00,9570.0,B1.0.016,building-facultad-psicologia,8,12,0
99,4411499,device-watermeter-facultad-psicologia,2022-08-13 01:55:37+02:00,9570.0,B1.0.016,building-facultad-psicologia,8,13,0
150,4411651,device-watermeter-facultad-psicologia,2022-08-15 23:55:58+02:00,9570.0,B1.0.016,building-facultad-psicologia,8,15,0
196,4411791,device-watermeter-facultad-psicologia,2022-08-16 23:46:05+02:00,9570.0,B1.0.016,building-facultad-psicologia,8,16,0
206,4411820,device-watermeter-facultad-psicologia,2022-08-17 07:36:07+02:00,9570.0,B1.0.016,building-facultad-psicologia,8,17,0
207,4411823,device-watermeter-facultad-psicologia,2022-08-19 23:53:21+02:00,9570.0,B1.0.016,building-facultad-psicologia,8,19,0
208,4411826,device-watermeter-facultad-psicologia,2022-08-20 08:13:23+02:00,9570.0,B1.0.016,building-facultad-psicologia,8,20,0
216,4411849,device-watermeter-facultad-psicologia,2022-08-24 23:03:56+02:00,9570.0,B1.0.016,building-facultad-psicologia,8,24,0
220,4411862,device-watermeter-facultad-psicologia,2022-08-25 13:14:01+02:00,9570.0,B1.0.016,building-facultad-psicologia,8,25,0
241,4411925,device-watermeter-facultad-psicologia,2022-08-29 23:54:33+02:00,9570.0,B1.0.016,building-facultad-psicologia,8,29,0
246,4411940,device-watermeter-facultad-psicologia,2022-08-30 18:34:39+02:00,9570.0,B1.0.016,building-facultad-psicologia,8,30,0
