,mes,dia_semana,tramo,hora,energia,p,ocb_id
0,Enero,4,8-9,2023-01-19 08:00:00,-0.0060000000000002,P2,device-powermeter-facultad-veterinaria1
1,Enero,3,22-0,2023-01-18 23:00:00,0.008,P2,device-powermeter-facultad-veterinaria1
2,Enero,3,22-0,2023-01-18 22:00:00,-0.0030000000000001,P2,device-powermeter-facultad-veterinaria1
3,Enero,3,18-22,2023-01-18 20:00:00,0.0010000000000003,P1,device-powermeter-facultad-veterinaria1
4,Enero,3,18-22,2023-01-18 18:00:00,0.0,P1,device-powermeter-facultad-veterinaria1
5,Enero,3,14-18,2023-01-18 17:00:00,0.0010000000000003,P2,device-powermeter-facultad-veterinaria1
6,Enero,3,14-18,2023-01-18 16:00:00,-0.0020000000000006,P2,device-powermeter-facultad-veterinaria1
7,Enero,3,14-18,2023-01-18 14:00:00,0.0020000000000006,P2,device-powermeter-facultad-veterinaria1
8,Enero,3,9-14,2023-01-18 13:00:00,-0.0030000000000001,P1,device-powermeter-facultad-veterinaria1
9,Enero,3,9-14,2023-01-18 11:00:00,-0.0010000000000003,P1,device-powermeter-facultad-veterinaria1
10,Enero,3,9-14,2023-01-18 10:00:00,0.0,P1,device-powermeter-facultad-veterinaria1
11,Enero,3,9-14,2023-01-18 09:00:00,0.0040000000000004,P1,device-powermeter-facultad-veterinaria1
12,Enero,3,8-9,2023-01-18 08:00:00,-0.0030000000000001,P2,device-powermeter-facultad-veterinaria1
13,Enero,3,0-8,2023-01-18 07:00:00,0.0030000000000001,P6,device-powermeter-facultad-veterinaria1
14,Enero,3,0-8,2023-01-18 06:00:00,-0.0010000000000003,P6,device-powermeter-facultad-veterinaria1
15,Enero,3,0-8,2023-01-18 05:00:00,-0.0010000000000003,P6,device-powermeter-facultad-veterinaria1
16,Enero,3,0-8,2023-01-18 04:00:00,0.0030000000000001,P6,device-powermeter-facultad-veterinaria1
17,Enero,4,8-9,2023-01-12 08:00:00,-0.0039999999999995,P2,device-powermeter-facultad-veterinaria1
18,Enero,3,18-22,2023-01-11 18:00:00,0.0,P1,device-powermeter-facultad-veterinaria1
19,Enero,3,14-18,2023-01-11 17:00:00,-0.0010000000000003,P2,device-powermeter-facultad-veterinaria1
20,Enero,3,14-18,2023-01-11 16:00:00,0.0010000000000003,P2,device-powermeter-facultad-veterinaria1
21,Enero,3,14-18,2023-01-11 15:00:00,-0.0030000000000001,P2,device-powermeter-facultad-veterinaria1
22,Enero,3,14-18,2023-01-11 14:00:00,0.0019999999999997,P2,device-powermeter-facultad-veterinaria1
23,Enero,3,9-14,2023-01-11 13:00:00,-0.0019999999999997,P1,device-powermeter-facultad-veterinaria1
24,Enero,3,9-14,2023-01-11 12:00:00,0.0039999999999995,P1,device-powermeter-facultad-veterinaria1
25,Enero,3,9-14,2023-01-11 11:00:00,-0.0029999999999992,P1,device-powermeter-facultad-veterinaria1
26,Enero,3,9-14,2023-01-11 10:00:00,0.0009999999999994,P1,device-powermeter-facultad-veterinaria1
27,Enero,3,9-14,2023-01-11 09:00:00,0.0030000000000001,P1,device-powermeter-facultad-veterinaria1
28,Enero,3,8-9,2023-01-11 08:00:00,-0.0019999999999997,P2,device-powermeter-facultad-veterinaria1
29,Enero,3,0-8,2023-01-11 07:00:00,-0.0069999999999996,P6,device-powermeter-facultad-veterinaria1
30,Enero,3,0-8,2023-01-11 06:00:00,0.0049999999999998,P6,device-powermeter-facultad-veterinaria1
31,Enero,3,0-8,2023-01-11 05:00:00,0.0019999999999997,P6,device-powermeter-facultad-veterinaria1
32,Enero,3,0-8,2023-01-11 04:00:00,-0.0010000000000003,P6,device-powermeter-facultad-veterinaria1
33,Enero,3,0-8,2023-01-11 03:00:00,0.0,P6,device-powermeter-facultad-veterinaria1
34,Enero,3,0-8,2023-01-11 02:00:00,0.0,P6,device-powermeter-facultad-veterinaria1
35,Enero,3,0-8,2023-01-11 01:00:00,-0.0019999999999997,P6,device-powermeter-facultad-veterinaria1
36,Enero,3,0-8,2023-01-11 00:00:00,0.0,P6,device-powermeter-facultad-veterinaria1
37,Enero,2,22-0,2023-01-10 23:00:00,0.0,P2,device-powermeter-facultad-veterinaria1
38,Enero,2,22-0,2023-01-10 22:00:00,0.0,P2,device-powermeter-facultad-veterinaria1
39,Enero,2,18-22,2023-01-10 21:00:00,0.0019999999999997,P1,device-powermeter-facultad-veterinaria1
40,Enero,2,18-22,2023-01-10 20:00:00,0.0,P1,device-powermeter-facultad-veterinaria1
41,Enero,2,18-22,2023-01-10 19:00:00,-0.0009999999999994,P1,device-powermeter-facultad-veterinaria1
42,Enero,2,18-22,2023-01-10 18:00:00,0.0019999999999997,P1,device-powermeter-facultad-veterinaria1
43,Enero,2,14-18,2023-01-10 17:00:00,-0.0019999999999997,P2,device-powermeter-facultad-veterinaria1
44,Enero,2,14-18,2023-01-10 16:00:00,0.0,P2,device-powermeter-facultad-veterinaria1
45,Enero,2,14-18,2023-01-10 15:00:00,0.0009999999999994,P2,device-powermeter-facultad-veterinaria1
46,Enero,2,14-18,2023-01-10 14:00:00,0.0010000000000003,P2,device-powermeter-facultad-veterinaria1
47,Enero,2,9-14,2023-01-10 13:00:00,-0.0010000000000003,P1,device-powermeter-facultad-veterinaria1
48,Enero,2,9-14,2023-01-10 12:00:00,-0.0009999999999994,P1,device-powermeter-facultad-veterinaria1
49,Enero,2,9-14,2023-01-10 11:00:00,-0.0040000000000004,P1,device-powermeter-facultad-veterinaria1
50,Enero,2,9-14,2023-01-10 10:00:00,0.0030000000000001,P1,device-powermeter-facultad-veterinaria1
51,Enero,2,9-14,2023-01-10 09:00:00,0.0030000000000001,P1,device-powermeter-facultad-veterinaria1
52,Enero,2,8-9,2023-01-10 08:00:00,0.0009999999999994,P2,device-powermeter-facultad-veterinaria1
53,Enero,2,0-8,2023-01-10 07:00:00,-0.0019999999999997,P6,device-powermeter-facultad-veterinaria1
54,Enero,2,0-8,2023-01-10 06:00:00,0.0,P6,device-powermeter-facultad-veterinaria1
55,Enero,2,0-8,2023-01-10 05:00:00,-0.0019999999999997,P6,device-powermeter-facultad-veterinaria1
56,Enero,2,0-8,2023-01-10 04:00:00,0.0019999999999997,P6,device-powermeter-facultad-veterinaria1
57,Enero,2,0-8,2023-01-10 03:00:00,0.0,P6,device-powermeter-facultad-veterinaria1
58,Enero,2,0-8,2023-01-10 02:00:00,0.0,P6,device-powermeter-facultad-veterinaria1
59,Enero,2,0-8,2023-01-10 01:00:00,-0.0009999999999994,P6,device-powermeter-facultad-veterinaria1
60,Enero,2,0-8,2023-01-10 00:00:00,-0.0010000000000003,P6,device-powermeter-facultad-veterinaria1
61,Enero,1,22-0,2023-01-09 23:00:00,-0.0010000000000003,P2,device-powermeter-facultad-veterinaria1
62,Enero,1,22-0,2023-01-09 22:00:00,0.0,P2,device-powermeter-facultad-veterinaria1
63,Enero,1,18-22,2023-01-09 21:00:00,0.0040000000000004,P1,device-powermeter-facultad-veterinaria1
64,Enero,1,18-22,2023-01-09 20:00:00,-0.0010000000000003,P1,device-powermeter-facultad-veterinaria1
65,Enero,1,18-22,2023-01-09 19:00:00,0.0,P1,device-powermeter-facultad-veterinaria1
66,Enero,1,18-22,2023-01-09 18:00:00,0.0010000000000003,P1,device-powermeter-facultad-veterinaria1
67,Enero,1,14-18,2023-01-09 17:00:00,-0.0019999999999997,P2,device-powermeter-facultad-veterinaria1
68,Enero,1,14-18,2023-01-09 16:00:00,0.0,P2,device-powermeter-facultad-veterinaria1
69,Enero,1,14-18,2023-01-09 15:00:00,0.0,P2,device-powermeter-facultad-veterinaria1
70,Enero,1,14-18,2023-01-09 14:00:00,0.0029999999999992,P2,device-powermeter-facultad-veterinaria1
71,Enero,1,9-14,2023-01-09 13:00:00,-0.0019999999999997,P1,device-powermeter-facultad-veterinaria1
72,Enero,1,9-14,2023-01-09 12:00:00,-0.0009999999999994,P1,device-powermeter-facultad-veterinaria1
73,Enero,1,9-14,2023-01-09 11:00:00,0.0,P1,device-powermeter-facultad-veterinaria1
74,Enero,1,9-14,2023-01-09 10:00:00,0.0009999999999994,P1,device-powermeter-facultad-veterinaria1
75,Enero,1,9-14,2023-01-09 09:00:00,0.0,P1,device-powermeter-facultad-veterinaria1
76,Enero,1,8-9,2023-01-09 08:00:00,0.0010000000000003,P2,device-powermeter-facultad-veterinaria1
77,Enero,1,0-8,2023-01-09 07:00:00,-0.0019999999999997,P6,device-powermeter-facultad-veterinaria1
78,Enero,1,0-8,2023-01-09 06:00:00,0.0009999999999994,P6,device-powermeter-facultad-veterinaria1
79,Enero,1,0-8,2023-01-09 05:00:00,-0.0019999999999997,P6,device-powermeter-facultad-veterinaria1
80,Enero,1,0-8,2023-01-09 04:00:00,0.0019999999999997,P6,device-powermeter-facultad-veterinaria1
81,Enero,1,0-8,2023-01-09 03:00:00,0.0,P6,device-powermeter-facultad-veterinaria1
82,Enero,1,0-8,2023-01-09 02:00:00,-0.0009999999999994,P6,device-powermeter-facultad-veterinaria1
83,Enero,1,0-8,2023-01-09 01:00:00,-0.0030000000000001,P6,device-powermeter-facultad-veterinaria1
84,Enero,1,0-8,2023-01-09 00:00:00,0.0009999999999994,P6,device-powermeter-facultad-veterinaria1
85,Enero,7,22-0,2023-01-08 23:00:00,0.0020000000000006,P6,device-powermeter-facultad-veterinaria1
86,Enero,7,22-0,2023-01-08 22:00:00,0.0019999999999997,P6,device-powermeter-facultad-veterinaria1
87,Enero,7,18-22,2023-01-08 21:00:00,-0.0010000000000003,P6,device-powermeter-facultad-veterinaria1
88,Enero,7,18-22,2023-01-08 20:00:00,0.0019999999999997,P6,device-powermeter-facultad-veterinaria1
89,Enero,7,18-22,2023-01-08 19:00:00,-0.0009999999999994,P6,device-powermeter-facultad-veterinaria1
90,Enero,7,18-22,2023-01-08 18:00:00,0.0,P6,device-powermeter-facultad-veterinaria1
91,Enero,7,14-18,2023-01-08 17:00:00,-0.0019999999999997,P6,device-powermeter-facultad-veterinaria1
92,Enero,7,14-18,2023-01-08 16:00:00,0.0009999999999994,P6,device-powermeter-facultad-veterinaria1
93,Enero,7,14-18,2023-01-08 15:00:00,0.0019999999999997,P6,device-powermeter-facultad-veterinaria1
94,Enero,7,14-18,2023-01-08 14:00:00,0.0,P6,device-powermeter-facultad-veterinaria1
95,Enero,7,9-14,2023-01-08 13:00:00,-0.0019999999999997,P6,device-powermeter-facultad-veterinaria1
96,Enero,7,9-14,2023-01-08 12:00:00,0.0010000000000003,P6,device-powermeter-facultad-veterinaria1
97,Enero,7,9-14,2023-01-08 11:00:00,0.0,P6,device-powermeter-facultad-veterinaria1
98,Enero,7,9-14,2023-01-08 10:00:00,-0.0010000000000003,P6,device-powermeter-facultad-veterinaria1
99,Enero,7,9-14,2023-01-08 09:00:00,0.0030000000000001,P6,device-powermeter-facultad-veterinaria1
100,Enero,7,8-9,2023-01-08 08:00:00,-0.0030000000000001,P6,device-powermeter-facultad-veterinaria1
101,Enero,7,0-8,2023-01-08 07:00:00,0.0010000000000003,P6,device-powermeter-facultad-veterinaria1
102,Enero,7,0-8,2023-01-08 06:00:00,0.0,P6,device-powermeter-facultad-veterinaria1
103,Enero,7,0-8,2023-01-08 05:00:00,0.0009999999999994,P6,device-powermeter-facultad-veterinaria1
104,Enero,7,0-8,2023-01-08 04:00:00,-0.0009999999999994,P6,device-powermeter-facultad-veterinaria1
105,Enero,7,0-8,2023-01-08 03:00:00,0.0,P6,device-powermeter-facultad-veterinaria1
106,Enero,7,0-8,2023-01-08 02:00:00,0.0,P6,device-powermeter-facultad-veterinaria1
107,Enero,7,0-8,2023-01-08 01:00:00,-0.0010000000000003,P6,device-powermeter-facultad-veterinaria1
108,Enero,7,0-8,2023-01-08 00:00:00,0.0,P6,device-powermeter-facultad-veterinaria1
109,Enero,6,22-0,2023-01-07 23:00:00,0.0,P6,device-powermeter-facultad-veterinaria1
110,Enero,6,22-0,2023-01-07 22:00:00,0.0,P6,device-powermeter-facultad-veterinaria1
111,Enero,6,18-22,2023-01-07 21:00:00,0.0,P6,device-powermeter-facultad-veterinaria1
112,Enero,6,18-22,2023-01-07 20:00:00,0.0019999999999997,P6,device-powermeter-facultad-veterinaria1
113,Enero,6,18-22,2023-01-07 19:00:00,-0.0009999999999994,P6,device-powermeter-facultad-veterinaria1
114,Enero,6,18-22,2023-01-07 18:00:00,0.0009999999999994,P6,device-powermeter-facultad-veterinaria1
115,Enero,6,14-18,2023-01-07 17:00:00,0.0,P6,device-powermeter-facultad-veterinaria1
116,Enero,6,14-18,2023-01-07 16:00:00,-0.0019999999999997,P6,device-powermeter-facultad-veterinaria1
117,Enero,6,14-18,2023-01-07 15:00:00,0.0019999999999997,P6,device-powermeter-facultad-veterinaria1
118,Enero,6,14-18,2023-01-07 14:00:00,0.0,P6,device-powermeter-facultad-veterinaria1
119,Enero,6,9-14,2023-01-07 13:00:00,-0.0019999999999997,P6,device-powermeter-facultad-veterinaria1
120,Enero,6,9-14,2023-01-07 12:00:00,0.0010000000000003,P6,device-powermeter-facultad-veterinaria1
121,Enero,6,9-14,2023-01-07 11:00:00,0.0,P6,device-powermeter-facultad-veterinaria1
122,Enero,6,9-14,2023-01-07 10:00:00,-0.0010000000000003,P6,device-powermeter-facultad-veterinaria1
123,Enero,6,9-14,2023-01-07 09:00:00,0.0010000000000003,P6,device-powermeter-facultad-veterinaria1
124,Enero,6,8-9,2023-01-07 08:00:00,-0.0010000000000003,P6,device-powermeter-facultad-veterinaria1
125,Enero,6,0-8,2023-01-07 07:00:00,-0.0009999999999994,P6,device-powermeter-facultad-veterinaria1
126,Enero,6,0-8,2023-01-07 06:00:00,0.0029999999999992,P6,device-powermeter-facultad-veterinaria1
127,Enero,6,0-8,2023-01-07 05:00:00,-0.0019999999999997,P6,device-powermeter-facultad-veterinaria1
128,Enero,6,0-8,2023-01-07 04:00:00,0.0010000000000003,P6,device-powermeter-facultad-veterinaria1
129,Enero,6,0-8,2023-01-07 03:00:00,0.0,P6,device-powermeter-facultad-veterinaria1
130,Enero,6,0-8,2023-01-07 02:00:00,0.0,P6,device-powermeter-facultad-veterinaria1
131,Enero,6,0-8,2023-01-07 01:00:00,-0.0040000000000004,P6,device-powermeter-facultad-veterinaria1
132,Enero,6,0-8,2023-01-07 00:00:00,0.0,P6,device-powermeter-facultad-veterinaria1
133,Enero,5,22-0,2023-01-06 23:00:00,0.0040000000000004,P2,device-powermeter-facultad-veterinaria1
134,Enero,5,22-0,2023-01-06 22:00:00,0.0009999999999994,P2,device-powermeter-facultad-veterinaria1
135,Enero,5,18-22,2023-01-06 21:00:00,-0.0029999999999992,P1,device-powermeter-facultad-veterinaria1
136,Enero,5,18-22,2023-01-06 20:00:00,0.0019999999999997,P1,device-powermeter-facultad-veterinaria1
137,Enero,5,18-22,2023-01-06 19:00:00,-0.0010000000000003,P1,device-powermeter-facultad-veterinaria1
138,Enero,5,18-22,2023-01-06 18:00:00,0.0,P1,device-powermeter-facultad-veterinaria1
139,Enero,5,14-18,2023-01-06 17:00:00,0.0,P2,device-powermeter-facultad-veterinaria1
140,Enero,5,14-18,2023-01-06 16:00:00,0.0,P2,device-powermeter-facultad-veterinaria1
141,Enero,5,14-18,2023-01-06 15:00:00,0.0010000000000003,P2,device-powermeter-facultad-veterinaria1
142,Enero,5,14-18,2023-01-06 14:00:00,-0.0010000000000003,P2,device-powermeter-facultad-veterinaria1
143,Enero,5,9-14,2023-01-06 13:00:00,-0.0009999999999994,P1,device-powermeter-facultad-veterinaria1
144,Enero,5,9-14,2023-01-06 12:00:00,0.0009999999999994,P1,device-powermeter-facultad-veterinaria1
145,Enero,5,9-14,2023-01-06 11:00:00,-0.0019999999999997,P1,device-powermeter-facultad-veterinaria1
146,Enero,5,9-14,2023-01-06 10:00:00,0.0010000000000003,P1,device-powermeter-facultad-veterinaria1
147,Enero,5,9-14,2023-01-06 09:00:00,0.0,P1,device-powermeter-facultad-veterinaria1
148,Enero,5,8-9,2023-01-06 08:00:00,0.0009999999999994,P2,device-powermeter-facultad-veterinaria1
149,Enero,5,0-8,2023-01-06 07:00:00,-0.0019999999999997,P6,device-powermeter-facultad-veterinaria1
150,Enero,5,0-8,2023-01-06 06:00:00,0.0039999999999995,P6,device-powermeter-facultad-veterinaria1
151,Enero,5,0-8,2023-01-06 05:00:00,-0.0009999999999994,P6,device-powermeter-facultad-veterinaria1
152,Enero,5,0-8,2023-01-06 04:00:00,0.0,P6,device-powermeter-facultad-veterinaria1
153,Enero,5,0-8,2023-01-06 03:00:00,-0.0010000000000003,P6,device-powermeter-facultad-veterinaria1
154,Enero,5,0-8,2023-01-06 02:00:00,0.0,P6,device-powermeter-facultad-veterinaria1
155,Enero,5,0-8,2023-01-06 01:00:00,-0.0009999999999994,P6,device-powermeter-facultad-veterinaria1
156,Enero,5,0-8,2023-01-06 00:00:00,0.0019999999999997,P6,device-powermeter-facultad-veterinaria1
157,Enero,4,22-0,2023-01-05 23:00:00,-0.0019999999999997,P2,device-powermeter-facultad-veterinaria1
158,Enero,4,22-0,2023-01-05 22:00:00,0.0009999999999994,P2,device-powermeter-facultad-veterinaria1
159,Enero,4,18-22,2023-01-05 21:00:00,0.0,P1,device-powermeter-facultad-veterinaria1
160,Enero,4,18-22,2023-01-05 20:00:00,0.0,P1,device-powermeter-facultad-veterinaria1
161,Enero,4,18-22,2023-01-05 19:00:00,0.0010000000000003,P1,device-powermeter-facultad-veterinaria1
162,Enero,4,18-22,2023-01-05 18:00:00,-0.0030000000000001,P1,device-powermeter-facultad-veterinaria1
163,Enero,4,14-18,2023-01-05 17:00:00,0.0010000000000003,P2,device-powermeter-facultad-veterinaria1
164,Enero,4,14-18,2023-01-05 16:00:00,0.0,P2,device-powermeter-facultad-veterinaria1
165,Enero,4,14-18,2023-01-05 15:00:00,-0.0030000000000001,P2,device-powermeter-facultad-veterinaria1
166,Enero,4,14-18,2023-01-05 14:00:00,0.0039999999999995,P2,device-powermeter-facultad-veterinaria1
167,Enero,4,9-14,2023-01-05 13:00:00,0.0010000000000003,P1,device-powermeter-facultad-veterinaria1
168,Enero,4,9-14,2023-01-05 12:00:00,-0.0010000000000003,P1,device-powermeter-facultad-veterinaria1
169,Enero,4,9-14,2023-01-05 11:00:00,0.0010000000000003,P1,device-powermeter-facultad-veterinaria1
170,Enero,4,9-14,2023-01-05 10:00:00,0.0,P1,device-powermeter-facultad-veterinaria1
171,Enero,4,9-14,2023-01-05 09:00:00,0.0009999999999994,P1,device-powermeter-facultad-veterinaria1
172,Enero,4,8-9,2023-01-05 08:00:00,-0.0009999999999994,P2,device-powermeter-facultad-veterinaria1
173,Enero,4,0-8,2023-01-05 07:00:00,-0.0010000000000003,P6,device-powermeter-facultad-veterinaria1
174,Enero,4,0-8,2023-01-05 06:00:00,0.0,P6,device-powermeter-facultad-veterinaria1
175,Enero,4,0-8,2023-01-05 05:00:00,0.0010000000000003,P6,device-powermeter-facultad-veterinaria1
176,Enero,4,0-8,2023-01-05 04:00:00,0.0009999999999994,P6,device-powermeter-facultad-veterinaria1
177,Enero,4,0-8,2023-01-05 03:00:00,-0.0009999999999994,P6,device-powermeter-facultad-veterinaria1
178,Enero,4,0-8,2023-01-05 02:00:00,0.0,P6,device-powermeter-facultad-veterinaria1
179,Enero,4,0-8,2023-01-05 01:00:00,-0.0030000000000001,P6,device-powermeter-facultad-veterinaria1
180,Enero,4,0-8,2023-01-05 00:00:00,0.0,P6,device-powermeter-facultad-veterinaria1
181,Enero,3,22-0,2023-01-04 23:00:00,0.0010000000000003,P2,device-powermeter-facultad-veterinaria1
182,Enero,3,22-0,2023-01-04 22:00:00,0.0,P2,device-powermeter-facultad-veterinaria1
183,Enero,3,18-22,2023-01-04 21:00:00,0.0019999999999997,P1,device-powermeter-facultad-veterinaria1
184,Enero,3,18-22,2023-01-04 20:00:00,0.0,P1,device-powermeter-facultad-veterinaria1
185,Enero,3,18-22,2023-01-04 19:00:00,0.0009999999999994,P1,device-powermeter-facultad-veterinaria1
186,Enero,3,18-22,2023-01-04 18:00:00,-0.0009999999999994,P1,device-powermeter-facultad-veterinaria1
187,Enero,3,14-18,2023-01-04 17:00:00,0.0,P2,device-powermeter-facultad-veterinaria1
188,Enero,3,14-18,2023-01-04 16:00:00,0.0,P2,device-powermeter-facultad-veterinaria1
189,Enero,3,14-18,2023-01-04 15:00:00,-0.0010000000000003,P2,device-powermeter-facultad-veterinaria1
190,Enero,3,14-18,2023-01-04 14:00:00,0.0019999999999997,P2,device-powermeter-facultad-veterinaria1
191,Enero,3,9-14,2023-01-04 13:00:00,-0.0029999999999992,P1,device-powermeter-facultad-veterinaria1
192,Enero,3,9-14,2023-01-04 12:00:00,0.0029999999999992,P1,device-powermeter-facultad-veterinaria1
193,Enero,3,9-14,2023-01-04 11:00:00,-0.0009999999999994,P1,device-powermeter-facultad-veterinaria1
194,Enero,3,9-14,2023-01-04 10:00:00,-0.0010000000000003,P1,device-powermeter-facultad-veterinaria1
195,Enero,3,9-14,2023-01-04 09:00:00,0.0019999999999997,P1,device-powermeter-facultad-veterinaria1
196,Enero,3,8-9,2023-01-04 08:00:00,-0.0019999999999997,P2,device-powermeter-facultad-veterinaria1
197,Enero,3,0-8,2023-01-04 07:00:00,0.0,P6,device-powermeter-facultad-veterinaria1
198,Enero,3,0-8,2023-01-04 06:00:00,0.0010000000000003,P6,device-powermeter-facultad-veterinaria1
199,Enero,3,0-8,2023-01-04 05:00:00,0.0009999999999994,P6,device-powermeter-facultad-veterinaria1
200,Enero,3,0-8,2023-01-04 04:00:00,-0.0019999999999997,P6,device-powermeter-facultad-veterinaria1
201,Enero,3,0-8,2023-01-04 03:00:00,0.0010000000000003,P6,device-powermeter-facultad-veterinaria1
202,Enero,3,0-8,2023-01-04 02:00:00,0.0,P6,device-powermeter-facultad-veterinaria1
203,Enero,3,0-8,2023-01-04 01:00:00,-0.0010000000000003,P6,device-powermeter-facultad-veterinaria1
204,Enero,3,0-8,2023-01-04 00:00:00,0.0010000000000003,P6,device-powermeter-facultad-veterinaria1
205,Enero,2,22-0,2023-01-03 23:00:00,0.0009999999999994,P2,device-powermeter-facultad-veterinaria1
206,Enero,2,22-0,2023-01-03 22:00:00,0.0,P2,device-powermeter-facultad-veterinaria1
207,Enero,2,18-22,2023-01-03 21:00:00,0.0,P1,device-powermeter-facultad-veterinaria1
208,Enero,2,18-22,2023-01-03 20:00:00,0.0010000000000003,P1,device-powermeter-facultad-veterinaria1
209,Enero,2,18-22,2023-01-03 19:00:00,-0.0019999999999997,P1,device-powermeter-facultad-veterinaria1
210,Enero,2,18-22,2023-01-03 18:00:00,0.0019999999999997,P1,device-powermeter-facultad-veterinaria1
211,Enero,2,14-18,2023-01-03 17:00:00,0.0,P2,device-powermeter-facultad-veterinaria1
212,Enero,2,14-18,2023-01-03 16:00:00,-0.0039999999999995,P2,device-powermeter-facultad-veterinaria1
213,Enero,2,14-18,2023-01-03 15:00:00,0.0039999999999995,P2,device-powermeter-facultad-veterinaria1
214,Enero,2,14-18,2023-01-03 14:00:00,-0.0019999999999997,P2,device-powermeter-facultad-veterinaria1
215,Enero,2,9-14,2023-01-03 13:00:00,0.0,P1,device-powermeter-facultad-veterinaria1
216,Enero,2,9-14,2023-01-03 12:00:00,0.0,P1,device-powermeter-facultad-veterinaria1
217,Enero,2,9-14,2023-01-03 11:00:00,0.0,P1,device-powermeter-facultad-veterinaria1
218,Enero,2,9-14,2023-01-03 10:00:00,0.0,P1,device-powermeter-facultad-veterinaria1
219,Enero,2,9-14,2023-01-03 09:00:00,0.0019999999999997,P1,device-powermeter-facultad-veterinaria1
220,Enero,2,8-9,2023-01-03 08:00:00,-0.0019999999999997,P2,device-powermeter-facultad-veterinaria1
221,Enero,2,0-8,2023-01-03 07:00:00,-0.0010000000000003,P6,device-powermeter-facultad-veterinaria1
222,Enero,2,0-8,2023-01-03 06:00:00,0.0030000000000001,P6,device-powermeter-facultad-veterinaria1
223,Enero,2,0-8,2023-01-03 05:00:00,0.0,P6,device-powermeter-facultad-veterinaria1
224,Enero,2,0-8,2023-01-03 04:00:00,0.0,P6,device-powermeter-facultad-veterinaria1
225,Enero,2,0-8,2023-01-03 03:00:00,0.0,P6,device-powermeter-facultad-veterinaria1
226,Enero,2,0-8,2023-01-03 02:00:00,-0.0010000000000003,P6,device-powermeter-facultad-veterinaria1
227,Enero,2,0-8,2023-01-03 01:00:00,-0.0009999999999994,P6,device-powermeter-facultad-veterinaria1
228,Enero,2,0-8,2023-01-03 00:00:00,0.0,P6,device-powermeter-facultad-veterinaria1
229,Enero,1,22-0,2023-01-02 23:00:00,0.0009999999999994,P2,device-powermeter-facultad-veterinaria1
230,Enero,1,22-0,2023-01-02 22:00:00,0.0010000000000003,P2,device-powermeter-facultad-veterinaria1
231,Enero,1,18-22,2023-01-02 21:00:00,-0.0019999999999997,P1,device-powermeter-facultad-veterinaria1
232,Enero,1,18-22,2023-01-02 20:00:00,0.0009999999999994,P1,device-powermeter-facultad-veterinaria1
233,Enero,1,18-22,2023-01-02 19:00:00,0.0,P1,device-powermeter-facultad-veterinaria1
234,Enero,1,18-22,2023-01-02 18:00:00,0.0,P1,device-powermeter-facultad-veterinaria1
235,Enero,1,14-18,2023-01-02 17:00:00,0.0010000000000003,P2,device-powermeter-facultad-veterinaria1
236,Enero,1,14-18,2023-01-02 16:00:00,-0.0010000000000003,P2,device-powermeter-facultad-veterinaria1
237,Enero,1,14-18,2023-01-02 15:00:00,0.0,P2,device-powermeter-facultad-veterinaria1
238,Enero,1,14-18,2023-01-02 14:00:00,0.0010000000000003,P2,device-powermeter-facultad-veterinaria1
239,Enero,1,9-14,2023-01-02 13:00:00,-0.0019999999999997,P1,device-powermeter-facultad-veterinaria1
240,Enero,1,9-14,2023-01-02 12:00:00,0.0,P1,device-powermeter-facultad-veterinaria1
241,Enero,1,9-14,2023-01-02 11:00:00,0.0,P1,device-powermeter-facultad-veterinaria1
242,Enero,1,9-14,2023-01-02 10:00:00,0.0,P1,device-powermeter-facultad-veterinaria1
243,Enero,1,9-14,2023-01-02 09:00:00,0.0009999999999994,P1,device-powermeter-facultad-veterinaria1
244,Enero,1,8-9,2023-01-02 08:00:00,-0.0019999999999997,P2,device-powermeter-facultad-veterinaria1
245,Enero,1,0-8,2023-01-02 07:00:00,-0.0009999999999994,P6,device-powermeter-facultad-veterinaria1
246,Enero,1,0-8,2023-01-02 06:00:00,0.0009999999999994,P6,device-powermeter-facultad-veterinaria1
247,Enero,1,0-8,2023-01-02 05:00:00,0.0019999999999997,P6,device-powermeter-facultad-veterinaria1
248,Enero,1,0-8,2023-01-02 04:00:00,0.0,P6,device-powermeter-facultad-veterinaria1
249,Enero,1,0-8,2023-01-02 03:00:00,-0.0009999999999994,P6,device-powermeter-facultad-veterinaria1
250,Enero,1,0-8,2023-01-02 02:00:00,0.0009999999999994,P6,device-powermeter-facultad-veterinaria1
251,Enero,1,0-8,2023-01-02 01:00:00,-0.0009999999999994,P6,device-powermeter-facultad-veterinaria1
252,Enero,1,0-8,2023-01-02 00:00:00,-0.0030000000000001,P6,device-powermeter-facultad-veterinaria1
253,Enero,7,22-0,2023-01-01 23:00:00,0.0030000000000001,P6,device-powermeter-facultad-veterinaria1
254,Enero,7,22-0,2023-01-01 22:00:00,0.0,P6,device-powermeter-facultad-veterinaria1
255,Enero,7,18-22,2023-01-01 21:00:00,-0.0010000000000003,P6,device-powermeter-facultad-veterinaria1
256,Enero,7,18-22,2023-01-01 20:00:00,-0.0009999999999994,P6,device-powermeter-facultad-veterinaria1
257,Enero,7,18-22,2023-01-01 19:00:00,-0.0010000000000003,P6,device-powermeter-facultad-veterinaria1
258,Enero,7,18-22,2023-01-01 18:00:00,0.0010000000000003,P6,device-powermeter-facultad-veterinaria1
259,Enero,7,14-18,2023-01-01 17:00:00,0.0009999999999994,P6,device-powermeter-facultad-veterinaria1
260,Enero,7,14-18,2023-01-01 16:00:00,-0.0009999999999994,P6,device-powermeter-facultad-veterinaria1
261,Enero,7,14-18,2023-01-01 15:00:00,0.0019999999999997,P6,device-powermeter-facultad-veterinaria1
262,Enero,7,14-18,2023-01-01 14:00:00,-0.0010000000000003,P6,device-powermeter-facultad-veterinaria1
263,Enero,7,9-14,2023-01-01 13:00:00,-0.0009999999999994,P6,device-powermeter-facultad-veterinaria1
264,Enero,7,9-14,2023-01-01 12:00:00,0.0029999999999992,P6,device-powermeter-facultad-veterinaria1
265,Enero,7,9-14,2023-01-01 11:00:00,0.0,P6,device-powermeter-facultad-veterinaria1
266,Enero,7,9-14,2023-01-01 10:00:00,-0.0029999999999992,P6,device-powermeter-facultad-veterinaria1
267,Enero,7,9-14,2023-01-01 09:00:00,0.0,P6,device-powermeter-facultad-veterinaria1
268,Enero,7,8-9,2023-01-01 08:00:00,0.0,P6,device-powermeter-facultad-veterinaria1
269,Enero,7,0-8,2023-01-01 07:00:00,-0.0010000000000003,P6,device-powermeter-facultad-veterinaria1
270,Enero,7,0-8,2023-01-01 06:00:00,0.0019999999999997,P6,device-powermeter-facultad-veterinaria1
271,Enero,7,0-8,2023-01-01 05:00:00,-0.0019999999999997,P6,device-powermeter-facultad-veterinaria1
272,Enero,7,0-8,2023-01-01 04:00:00,0.0010000000000003,P6,device-powermeter-facultad-veterinaria1
273,Enero,7,0-8,2023-01-01 03:00:00,-0.0020000000000006,P6,device-powermeter-facultad-veterinaria1
274,Enero,7,0-8,2023-01-01 02:00:00,0.0060000000000002,P6,device-powermeter-facultad-veterinaria1
275,Enero,7,0-8,2023-01-01 01:00:00,-0.0060000000000002,P6,device-powermeter-facultad-veterinaria1
