device,status,valores constantes,valores esperados,valores obtenidos,valores perdidos
device-watermeter-facultad-psicologia,Failed,None,144.0,18,0.0
device-watermeter-facultad-quimica,Failed,None,144.0,17,0.0
device-watermeter-facultad-veterinaria,Failed,None,144.0,18,0.0
