{
    "ambientmonitoring_cometsensor": {
        "device-20280196": [
            {
                "date": "Wed, 18 Jan 2023 00:00:00 GMT",
                "status": "Passed"
            }
        ],
        "device-20280197": [
            {
                "date": "Wed, 18 Jan 2023 00:00:00 GMT",
                "status": "Passed"
            }
        ],
        "device-20280198": [
            {
                "date": "Wed, 18 Jan 2023 00:00:00 GMT",
                "status": "Failed"
            }
        ],
        "device-20280199": [
            {
                "date": "Wed, 18 Jan 2023 00:00:00 GMT",
                "status": "Failed"
            }
        ],
        "device-20280200": [
            {
                "date": "Wed, 18 Jan 2023 00:00:00 GMT",
                "status": "Passed"
            }
        ],
        "device-20280273": [
            {
                "date": "Wed, 18 Jan 2023 00:00:00 GMT",
                "status": "Failed"
            }
        ],
        "device-20280275": [
            {
                "date": "Wed, 18 Jan 2023 00:00:00 GMT",
                "status": "Failed"
            }
        ],
        "device-20280276": [
            {
                "date": "Wed, 18 Jan 2023 00:00:00 GMT",
                "status": "Failed"
            }
        ],
        "device-20280277": [
            {
                "date": "Wed, 18 Jan 2023 00:00:00 GMT",
                "status": "Failed"
            }
        ],
        "device-20280279": [
            {
                "date": "Wed, 18 Jan 2023 00:00:00 GMT",
                "status": "Failed"
            }
        ],
        "device-20280280": [
            {
                "date": "Wed, 18 Jan 2023 00:00:00 GMT",
                "status": "Passed"
            }
        ],
        "device-20280281": [
            {
                "date": "Wed, 18 Jan 2023 00:00:00 GMT",
                "status": "Failed"
            }
        ],
        "device-20280282": [
            {
                "date": "Wed, 18 Jan 2023 00:00:00 GMT",
                "status": "Failed"
            }
        ],
        "device-20280283": [
            {
                "date": "Wed, 18 Jan 2023 00:00:00 GMT",
                "status": "Passed"
            }
        ],
        "device-20280284": [
            {
                "date": "Wed, 18 Jan 2023 00:00:00 GMT",
                "status": "Failed"
            }
        ],
        "device-20280289": [
            {
                "date": "Wed, 18 Jan 2023 00:00:00 GMT",
                "status": "Failed"
            }
        ],
        "device-20280292": [
            {
                "date": "Wed, 18 Jan 2023 00:00:00 GMT",
                "status": "Failed"
            }
        ],
        "device-20280293": [
            {
                "date": "Wed, 18 Jan 2023 00:00:00 GMT",
                "status": "Failed"
            }
        ],
        "device-20280294": [
            {
                "date": "Wed, 18 Jan 2023 00:00:00 GMT",
                "status": "Passed"
            }
        ],
        "device-20280295": [
            {
                "date": "Wed, 18 Jan 2023 00:00:00 GMT",
                "status": "Passed"
            }
        ],
        "device-20280296": [
            {
                "date": "Wed, 18 Jan 2023 00:00:00 GMT",
                "status": "Passed"
            }
        ],
        "device-20280297": [
            {
                "date": "Wed, 18 Jan 2023 00:00:00 GMT",
                "status": "Failed"
            }
        ],
        "device-20280298": [
            {
                "date": "Wed, 18 Jan 2023 00:00:00 GMT",
                "status": "Failed"
            }
        ],
        "device-20280299": [
            {
                "date": "Wed, 18 Jan 2023 00:00:00 GMT",
                "status": "Failed"
            }
        ]
    },
    "buildingmonitoring_powermeter": {
        "device-powermeter-facultad-psicologia": [
            {
                "date": "Wed, 18 Jan 2023 00:00:00 GMT",
                "status": "Failed"
            }
        ],
        "device-powermeter-facultad-quimica": [
            {
                "date": "Wed, 18 Jan 2023 00:00:00 GMT",
                "status": "Failed"
            }
        ],
        "device-powermeter-facultad-veterinaria1": [
            {
                "date": "Wed, 18 Jan 2023 00:00:00 GMT",
                "status": "Failed"
            }
        ],
        "device-powermeter-facultad-veterinaria2": [
            {
                "date": "Wed, 18 Jan 2023 00:00:00 GMT",
                "status": "Failed"
            }
        ]
    },
    "buildingmonitoring_watermeter": {
        "device-watermeter-facultad-psicologia": [
            {
                "date": "Wed, 18 Jan 2023 00:00:00 GMT",
                "status": "Failed"
            }
        ],
        "device-watermeter-facultad-quimica": [
            {
                "date": "Wed, 18 Jan 2023 00:00:00 GMT",
                "status": "Failed"
            }
        ],
        "device-watermeter-facultad-veterinaria": [
            {
                "date": "Wed, 18 Jan 2023 00:00:00 GMT",
                "status": "Failed"
            }
        ]
    },
    "edarmonitoring": {
        "device-IC0104E17000800056": [
            {
                "date": "Wed, 18 Jan 2023 00:00:00 GMT",
                "status": "Failed"
            }
        ]
    },
    "parkingmonitoring": {
        "1": [
            {
                "date": "Wed, 18 Jan 2023 00:00:00 GMT",
                "status": "Passed"
            }
        ],
        "10": [
            {
                "date": "Wed, 18 Jan 2023 00:00:00 GMT",
                "status": "Passed"
            }
        ],
        "11": [
            {
                "date": "Wed, 18 Jan 2023 00:00:00 GMT",
                "status": "Passed"
            }
        ],
        "12": [
            {
                "date": "Wed, 18 Jan 2023 00:00:00 GMT",
                "status": "Passed"
            }
        ],
        "13": [
            {
                "date": "Wed, 18 Jan 2023 00:00:00 GMT",
                "status": "Passed"
            }
        ],
        "14": [
            {
                "date": "Wed, 18 Jan 2023 00:00:00 GMT",
                "status": "Passed"
            }
        ],
        "15": [
            {
                "date": "Wed, 18 Jan 2023 00:00:00 GMT",
                "status": "Failed"
            }
        ],
        "16": [
            {
                "date": "Wed, 18 Jan 2023 00:00:00 GMT",
                "status": "Failed"
            }
        ],
        "17": [
            {
                "date": "Wed, 18 Jan 2023 00:00:00 GMT",
                "status": "Failed"
            }
        ],
        "2": [
            {
                "date": "Wed, 18 Jan 2023 00:00:00 GMT",
                "status": "Passed"
            }
        ],
        "3": [
            {
                "date": "Wed, 18 Jan 2023 00:00:00 GMT",
                "status": "Passed"
            }
        ],
        "4": [
            {
                "date": "Wed, 18 Jan 2023 00:00:00 GMT",
                "status": "Passed"
            }
        ],
        "5": [
            {
                "date": "Wed, 18 Jan 2023 00:00:00 GMT",
                "status": "Passed"
            }
        ],
        "6": [
            {
                "date": "Wed, 18 Jan 2023 00:00:00 GMT",
                "status": "Passed"
            }
        ],
        "7": [
            {
                "date": "Wed, 18 Jan 2023 00:00:00 GMT",
                "status": "Failed"
            }
        ],
        "8": [
            {
                "date": "Wed, 18 Jan 2023 00:00:00 GMT",
                "status": "Passed"
            }
        ],
        "9": [
            {
                "date": "Wed, 18 Jan 2023 00:00:00 GMT",
                "status": "Failed"
            }
        ]
    },
    "peoplecounting_hikvision_group": {
        "deviceGroup-aulario-giner-rios": [
            {
                "date": "Wed, 18 Jan 2023 00:00:00 GMT",
                "status": "Failed"
            }
        ],
        "deviceGroup-aulario-merced": [
            {
                "date": "Wed, 18 Jan 2023 00:00:00 GMT",
                "status": "Passed"
            }
        ],
        "deviceGroup-aulario-norte": [
            {
                "date": "Wed, 18 Jan 2023 00:00:00 GMT",
                "status": "Failed"
            }
        ],
        "deviceGroup-biblioteca-antonio-nebrija": [
            {
                "date": "Wed, 18 Jan 2023 00:00:00 GMT",
                "status": "Failed"
            }
        ],
        "deviceGroup-biblioteca-general": [
            {
                "date": "Wed, 18 Jan 2023 00:00:00 GMT",
                "status": "Failed"
            }
        ],
        "deviceGroup-edificio-saavedra-fajardo": [
            {
                "date": "Wed, 18 Jan 2023 00:00:00 GMT",
                "status": "Failed"
            }
        ],
        "deviceGroup-facultad-bellas-artes": [
            {
                "date": "Wed, 18 Jan 2023 00:00:00 GMT",
                "status": "Failed"
            }
        ],
        "deviceGroup-facultad-biologia": [
            {
                "date": "Wed, 18 Jan 2023 00:00:00 GMT",
                "status": "Passed"
            }
        ],
        "deviceGroup-facultad-ciencias-deporte": [
            {
                "date": "Wed, 18 Jan 2023 00:00:00 GMT",
                "status": "Failed"
            }
        ],
        "deviceGroup-facultad-ciencias-trabajo": [
            {
                "date": "Wed, 18 Jan 2023 00:00:00 GMT",
                "status": "Failed"
            }
        ],
        "deviceGroup-facultad-comunicacion-documentacion": [
            {
                "date": "Wed, 18 Jan 2023 00:00:00 GMT",
                "status": "Failed"
            }
        ],
        "deviceGroup-facultad-derecho": [
            {
                "date": "Wed, 18 Jan 2023 00:00:00 GMT",
                "status": "Passed"
            }
        ],
        "deviceGroup-facultad-economicas": [
            {
                "date": "Wed, 18 Jan 2023 00:00:00 GMT",
                "status": "Failed"
            }
        ],
        "deviceGroup-facultad-educacion": [
            {
                "date": "Wed, 18 Jan 2023 00:00:00 GMT",
                "status": "Failed"
            }
        ],
        "deviceGroup-facultad-informatica": [
            {
                "date": "Wed, 18 Jan 2023 00:00:00 GMT",
                "status": "Failed"
            }
        ],
        "deviceGroup-facultad-letras": [
            {
                "date": "Wed, 18 Jan 2023 00:00:00 GMT",
                "status": "Passed"
            }
        ],
        "deviceGroup-facultad-matematicas": [
            {
                "date": "Wed, 18 Jan 2023 00:00:00 GMT",
                "status": "Failed"
            }
        ],
        "deviceGroup-facultad-medicina": [
            {
                "date": "Wed, 18 Jan 2023 00:00:00 GMT",
                "status": "Failed"
            }
        ],
        "deviceGroup-facultad-optica": [
            {
                "date": "Wed, 18 Jan 2023 00:00:00 GMT",
                "status": "Failed"
            }
        ],
        "deviceGroup-facultad-psicologia": [
            {
                "date": "Wed, 18 Jan 2023 00:00:00 GMT",
                "status": "Failed"
            }
        ],
        "deviceGroup-facultad-quimica": [
            {
                "date": "Wed, 18 Jan 2023 00:00:00 GMT",
                "status": "Failed"
            }
        ],
        "deviceGroup-facultad-veterinaria": [
            {
                "date": "Wed, 18 Jan 2023 00:00:00 GMT",
                "status": "Failed"
            }
        ],
        "deviceGroup-luis-vives": [
            {
                "date": "Wed, 18 Jan 2023 00:00:00 GMT",
                "status": "Failed"
            }
        ],
        "deviceGroup-rector-soler": [
            {
                "date": "Wed, 18 Jan 2023 00:00:00 GMT",
                "status": "Failed"
            }
        ],
        "deviceGroup-unidad-tecnica": [
            {
                "date": "Wed, 18 Jan 2023 00:00:00 GMT",
                "status": "Failed"
            }
        ]
    },
    "solarpanelmonitoring": {
        "device-ID0102E18005200065": [
            {
                "date": "Wed, 18 Jan 2023 00:00:00 GMT",
                "status": "Failed"
            }
        ],
        "device-ID0102E18005200066": [
            {
                "date": "Wed, 18 Jan 2023 00:00:00 GMT",
                "status": "Failed"
            }
        ],
        "device-ID0102E18005200067": [
            {
                "date": "Wed, 18 Jan 2023 00:00:00 GMT",
                "status": "Failed"
            }
        ],
        "device-ID0102E18005200068": [
            {
                "date": "Wed, 18 Jan 2023 00:00:00 GMT",
                "status": "Failed"
            }
        ]
    },
    "wastecontainermonitoring": {
        "device-0004a30b0021f2b8": [
            {
                "date": "Wed, 18 Jan 2023 00:00:00 GMT",
                "status": "Passed"
            }
        ],
        "device-0004a30b0021f57f": [
            {
                "date": "Wed, 18 Jan 2023 00:00:00 GMT",
                "status": "Passed"
            }
        ],
        "device-0004a30b0021f62d": [
            {
                "date": "Wed, 18 Jan 2023 00:00:00 GMT",
                "status": "Failed"
            }
        ],
        "device-0004a30b0021f631": [
            {
                "date": "Wed, 18 Jan 2023 00:00:00 GMT",
                "status": "Passed"
            }
        ],
        "device-0004a30b00220a09": [
            {
                "date": "Wed, 18 Jan 2023 00:00:00 GMT",
                "status": "Passed"
            }
        ],
        "device-0004a30b00220bd4": [
            {
                "date": "Wed, 18 Jan 2023 00:00:00 GMT",
                "status": "Failed"
            }
        ],
        "device-0004a30b00220d4d": [
            {
                "date": "Wed, 18 Jan 2023 00:00:00 GMT",
                "status": "Failed"
            }
        ],
        "device-0004a30b002225fa": [
            {
                "date": "Wed, 18 Jan 2023 00:00:00 GMT",
                "status": "Passed"
            }
        ],
        "device-0004a30b002227ce": [
            {
                "date": "Wed, 18 Jan 2023 00:00:00 GMT",
                "status": "Failed"
            }
        ],
        "device-0004a30b002229f6": [
            {
                "date": "Wed, 18 Jan 2023 00:00:00 GMT",
                "status": "Passed"
            }
        ],
        "device-0004a30b00222c44": [
            {
                "date": "Wed, 18 Jan 2023 00:00:00 GMT",
                "status": "Failed"
            }
        ],
        "device-0004a30b0022438e": [
            {
                "date": "Wed, 18 Jan 2023 00:00:00 GMT",
                "status": "Failed"
            }
        ],
        "device-0004a30b002243c2": [
            {
                "date": "Wed, 18 Jan 2023 00:00:00 GMT",
                "status": "Passed"
            }
        ],
        "device-0004a30b0022448f": [
            {
                "date": "Wed, 18 Jan 2023 00:00:00 GMT",
                "status": "Failed"
            }
        ],
        "device-0004a30b002245fd": [
            {
                "date": "Wed, 18 Jan 2023 00:00:00 GMT",
                "status": "Passed"
            }
        ],
        "device-0004a30b002247ef": [
            {
                "date": "Wed, 18 Jan 2023 00:00:00 GMT",
                "status": "Passed"
            }
        ],
        "device-0004a30b002248f4": [
            {
                "date": "Wed, 18 Jan 2023 00:00:00 GMT",
                "status": "Passed"
            }
        ],
        "device-0004a30b0022657e": [
            {
                "date": "Wed, 18 Jan 2023 00:00:00 GMT",
                "status": "Failed"
            }
        ],
        "device-0004a30b0022673e": [
            {
                "date": "Wed, 18 Jan 2023 00:00:00 GMT",
                "status": "Passed"
            }
        ],
        "device-0004a30b0022673f": [
            {
                "date": "Wed, 18 Jan 2023 00:00:00 GMT",
                "status": "Passed"
            }
        ],
        "device-0004a30b002269ae": [
            {
                "date": "Wed, 18 Jan 2023 00:00:00 GMT",
                "status": "Passed"
            }
        ],
        "device-0004a30b00227fe9": [
            {
                "date": "Wed, 18 Jan 2023 00:00:00 GMT",
                "status": "Passed"
            }
        ],
        "device-0004a30b00227ff4": [
            {
                "date": "Wed, 18 Jan 2023 00:00:00 GMT",
                "status": "Passed"
            }
        ],
        "device-0004a30b0022835a": [
            {
                "date": "Wed, 18 Jan 2023 00:00:00 GMT",
                "status": "Passed"
            }
        ],
        "device-0004a30b00229a31": [
            {
                "date": "Wed, 18 Jan 2023 00:00:00 GMT",
                "status": "Failed"
            }
        ],
        "device-0004a30b00229ade": [
            {
                "date": "Wed, 18 Jan 2023 00:00:00 GMT",
                "status": "Passed"
            }
        ],
        "device-0004a30b0022a8c3": [
            {
                "date": "Wed, 18 Jan 2023 00:00:00 GMT",
                "status": "Passed"
            }
        ]
    },
    "weathermonitoring": {
        "device-ID0102E18005200070": [
            {
                "date": "Wed, 18 Jan 2023 00:00:00 GMT",
                "status": "Failed"
            }
        ],
        "device-ID0102E18005200071": [
            {
                "date": "Wed, 18 Jan 2023 00:00:00 GMT",
                "status": "Failed"
            }
        ],
        "device-ID0102E18005200072": [
            {
                "date": "Wed, 18 Jan 2023 00:00:00 GMT",
                "status": "Failed"
            }
        ]
    }
}