device,status,valores constantes,valores esperados,valores obtenidos,valores perdidos
device-ID0102E18005200070,Failed,"['pm2_5', 'air_temperature', 'atmospheric_pressure', 'humidity_sensor_temperature', 'precipitation', 'relative_humidity', 'solar_radiation', 'vapor_pressure', 'wind_direction', 'wind_speed']",275159.0,1606,0.0
device-ID0102E18005200071,Failed,"['pm2_5', 'vapor_pressure']",275159.0,3239,0.0
device-ID0102E18005200072,Failed,"['so2', 'precipitation']",275159.0,3202,0.0
