device,status,valores constantes,valores esperados,valores obtenidos,valores perdidos
device-powermeter-facultad-psicologia,Failed,None,144.0,17,0.0
device-powermeter-facultad-quimica,Failed,None,144.0,16,0.0
device-powermeter-facultad-veterinaria1,Failed,None,144.0,17,0.0
device-powermeter-facultad-veterinaria2,Failed,None,144.0,17,0.0
