device,status,valores constantes,valores esperados,valores obtenidos,valores perdidos
1,Passed,None,286.0,123,0.0
10,Passed,None,286.0,72,0.0
11,Passed,None,144.0,82,0.0
12,Passed,None,287.0,154,0.0
13,Passed,None,143.0,51,0.0
14,Passed,None,286.0,162,0.0
15,Failed,None,285.0,0,NaN
16,Failed,None,,0,NaN
17,Failed,None,,0,NaN
2,Passed,None,286.0,166,0.0
3,Passed,None,285.0,86,0.0
4,Passed,None,286.0,113,0.0
5,Passed,None,285.0,95,0.0
6,Passed,None,143.0,62,0.0
7,Failed,None,286.0,1,0.0
8,Passed,None,286.0,162,0.0
9,Failed,None,286.0,0,NaN
