,Dispositivo,Min
0,Apartamentos Campus 1,60
1,Apartamentos Campus 2,60
2,Aulario Giner Rios,60
3,Biblioteca General,60
4,Ceeim,60
5,Centro atención infancia,60
6,Correo almacén,60
7,Edificio C,60
8,Edificio Luis Vives,60
9,Facultad Informática,60
10,Facultad Química,60
11,Facultad de biología 1,60
12,Facultad de biología 2,60
13,Facultad de ciencias de trabajo,60
14,Facultad de económicas 1,60
15,Facultad de económicas 2,60
16,Facultad de educación,60
17,Facultad de medicina,60
18,Facultad de veterinaria,60
19,Hospital clínico veterinario 1,60
20,Hospital clínico veterinario 2,60
21,Hospital clínico veterinario 3,60
22,Instalaciones deportivas,60
23,Parking campus Espinardo zona norte,60
24,Pista de atletismo monte romero,60
25,Rector soler,60
26,Servicio experimentacion animal,60
