,id,ocb_id,time_instant,counter1,area_served,controlled_asset,Mes,Dia,Consumo
0,4411215,device-watermeter-facultad-veterinaria,2022-08-06 02:14:47+02:00,911319.2000000001,B1.-1.000,building-facultad-veterinaria,8,6,23.3
1,4411216,device-watermeter-facultad-veterinaria,2022-08-06 02:54:47+02:00,911319.5,B1.-1.000,building-facultad-veterinaria,8,6,0.2999999999301508
2,4411219,device-watermeter-facultad-veterinaria,2022-08-06 03:34:47+02:00,911319.6000000001,B1.-1.000,building-facultad-veterinaria,8,6,0.10000000009313226
3,4411222,device-watermeter-facultad-veterinaria,2022-08-06 04:04:47+02:00,911319.7000000001,B1.-1.000,building-facultad-veterinaria,8,6,0.09999999997671694
4,4411225,device-watermeter-facultad-veterinaria,2022-08-06 04:44:47+02:00,911319.9,B1.-1.000,building-facultad-veterinaria,8,6,0.19999999995343387
5,4411227,device-watermeter-facultad-veterinaria,2022-08-06 05:24:48+02:00,911320.1000000001,B1.-1.000,building-facultad-veterinaria,8,6,0.2000000000698492
6,4411232,device-watermeter-facultad-veterinaria,2022-08-06 06:04:48+02:00,911320.3,B1.-1.000,building-facultad-veterinaria,8,6,0.19999999995343387
7,4411234,device-watermeter-facultad-veterinaria,2022-08-06 06:34:48+02:00,911320.5,B1.-1.000,building-facultad-veterinaria,8,6,0.19999999995343387
8,4411237,device-watermeter-facultad-veterinaria,2022-08-06 07:14:48+02:00,911320.8,B1.-1.000,building-facultad-veterinaria,8,6,0.30000000004656613
9,4411239,device-watermeter-facultad-veterinaria,2022-08-06 07:54:48+02:00,911320.9,B1.-1.000,building-facultad-veterinaria,8,6,0.09999999997671694
10,4411242,device-watermeter-facultad-veterinaria,2022-08-06 08:24:49+02:00,911321.1000000001,B1.-1.000,building-facultad-veterinaria,8,6,0.2000000000698492
11,4411246,device-watermeter-facultad-veterinaria,2022-08-06 09:04:49+02:00,911321.7000000001,B1.-1.000,building-facultad-veterinaria,8,6,0.5999999999767169
12,4411249,device-watermeter-facultad-veterinaria,2022-08-06 10:14:49+02:00,911322.7000000001,B1.-1.000,building-facultad-veterinaria,8,6,1.0
13,4411251,device-watermeter-facultad-veterinaria,2022-08-06 10:54:49+02:00,911323.2000000001,B1.-1.000,building-facultad-veterinaria,8,6,0.5
14,4411254,device-watermeter-facultad-veterinaria,2022-08-06 11:34:50+02:00,911323.7000000001,B1.-1.000,building-facultad-veterinaria,8,6,0.5
15,4411257,device-watermeter-facultad-veterinaria,2022-08-06 14:44:50+02:00,911325.5,B1.-1.000,building-facultad-veterinaria,8,6,1.7999999999301508
16,4411261,device-watermeter-facultad-veterinaria,2022-08-06 15:24:51+02:00,911325.7000000001,B1.-1.000,building-facultad-veterinaria,8,6,0.2000000000698492
17,4411264,device-watermeter-facultad-veterinaria,2022-08-06 16:34:51+02:00,911326.1000000001,B1.-1.000,building-facultad-veterinaria,8,6,0.40000000002328306
18,4411265,device-watermeter-facultad-veterinaria,2022-08-06 17:14:51+02:00,911326.3,B1.-1.000,building-facultad-veterinaria,8,6,0.19999999995343387
19,4411269,device-watermeter-facultad-veterinaria,2022-08-06 17:54:51+02:00,911326.5,B1.-1.000,building-facultad-veterinaria,8,6,0.19999999995343387
20,4411271,device-watermeter-facultad-veterinaria,2022-08-06 19:44:52+02:00,911327.3,B1.-1.000,building-facultad-veterinaria,8,6,0.8000000000465661
21,4411274,device-watermeter-facultad-veterinaria,2022-08-06 20:24:52+02:00,911327.6000000001,B1.-1.000,building-facultad-veterinaria,8,6,0.30000000004656613
22,4411276,device-watermeter-facultad-veterinaria,2022-08-06 22:14:53+02:00,911328.5,B1.-1.000,building-facultad-veterinaria,8,6,0.8999999999068677
23,4411280,device-watermeter-facultad-veterinaria,2022-08-07 00:04:53+02:00,911329.1000000001,B1.-1.000,building-facultad-veterinaria,8,7,0.6000000000931323
24,4411283,device-watermeter-facultad-veterinaria,2022-08-07 05:14:55+02:00,911331.4,B1.-1.000,building-facultad-veterinaria,8,7,2.299999999930151
25,4411286,device-watermeter-facultad-veterinaria,2022-08-07 08:24:56+02:00,911332.9,B1.-1.000,building-facultad-veterinaria,8,7,1.5
26,4411290,device-watermeter-facultad-veterinaria,2022-08-07 10:54:57+02:00,911334.8,B1.-1.000,building-facultad-veterinaria,8,7,1.900000000023283
27,4411293,device-watermeter-facultad-veterinaria,2022-08-07 11:34:57+02:00,911335.3,B1.-1.000,building-facultad-veterinaria,8,7,0.5
28,4411296,device-watermeter-facultad-veterinaria,2022-08-10 14:35:19+02:00,911348.4,B1.-1.000,building-facultad-veterinaria,8,10,13.099999999976717
47,4411351,device-watermeter-facultad-veterinaria,2022-08-10 23:55:22+02:00,911348.5,B1.-1.000,building-facultad-veterinaria,8,10,0.09999999997671694
63,4411402,device-watermeter-facultad-veterinaria,2022-08-11 09:55:25+02:00,911348.5,B1.-1.000,building-facultad-veterinaria,8,11,0.0
82,4411459,device-watermeter-facultad-veterinaria,2022-08-11 23:25:29+02:00,911348.6000000001,B1.-1.000,building-facultad-veterinaria,8,11,0.10000000009313226
93,4411491,device-watermeter-facultad-veterinaria,2022-08-12 08:55:32+02:00,911348.6000000001,B1.-1.000,building-facultad-veterinaria,8,12,0.0
94,4411493,device-watermeter-facultad-veterinaria,2022-08-12 11:15:33+02:00,911349.0,B1.-1.000,building-facultad-veterinaria,8,12,0.39999999990686774
95,4411496,device-watermeter-facultad-veterinaria,2022-08-12 14:25:34+02:00,911350.1000000001,B1.-1.000,building-facultad-veterinaria,8,12,1.1000000000931323
96,4411500,device-watermeter-facultad-veterinaria,2022-08-13 01:55:37+02:00,911350.1000000001,B1.-1.000,building-facultad-veterinaria,8,13,0.0
147,4411652,device-watermeter-facultad-veterinaria,2022-08-15 23:55:58+02:00,911350.1000000001,B1.-1.000,building-facultad-veterinaria,8,15,0.0
170,4411718,device-watermeter-facultad-veterinaria,2022-08-16 10:36:01+02:00,911350.1000000001,B1.-1.000,building-facultad-veterinaria,8,16,0.0
171,4411723,device-watermeter-facultad-veterinaria,2022-08-16 11:16:01+02:00,911350.2000000001,B1.-1.000,building-facultad-veterinaria,8,16,0.09999999997671694
172,4411724,device-watermeter-facultad-veterinaria,2022-08-16 12:26:02+02:00,911351.2000000001,B1.-1.000,building-facultad-veterinaria,8,16,1.0
173,4411728,device-watermeter-facultad-veterinaria,2022-08-16 12:56:02+02:00,911351.5,B1.-1.000,building-facultad-veterinaria,8,16,0.2999999999301508
174,4411731,device-watermeter-facultad-veterinaria,2022-08-16 13:26:02+02:00,911351.6000000001,B1.-1.000,building-facultad-veterinaria,8,16,0.10000000009313226
175,4411733,device-watermeter-facultad-veterinaria,2022-08-16 13:56:02+02:00,911351.8,B1.-1.000,building-facultad-veterinaria,8,16,0.19999999995343387
177,4411741,device-watermeter-facultad-veterinaria,2022-08-16 15:06:02+02:00,911351.9,B1.-1.000,building-facultad-veterinaria,8,16,0.09999999997671694
180,4411748,device-watermeter-facultad-veterinaria,2022-08-16 16:56:03+02:00,911352.0,B1.-1.000,building-facultad-veterinaria,8,16,0.09999999997671694
194,4411790,device-watermeter-facultad-veterinaria,2022-08-16 23:46:05+02:00,911352.1000000001,B1.-1.000,building-facultad-veterinaria,8,16,0.10000000009313226
204,4411821,device-watermeter-facultad-veterinaria,2022-08-17 07:36:07+02:00,911352.1000000001,B1.-1.000,building-facultad-veterinaria,8,17,0.0
205,4411824,device-watermeter-facultad-veterinaria,2022-08-19 23:53:21+02:00,911355.3,B1.-1.000,building-facultad-veterinaria,8,19,3.199999999953434
206,4411827,device-watermeter-facultad-veterinaria,2022-08-20 08:13:23+02:00,911355.3,B1.-1.000,building-facultad-veterinaria,8,20,0.0
214,4411850,device-watermeter-facultad-veterinaria,2022-08-24 23:03:56+02:00,911356.8,B1.-1.000,building-facultad-veterinaria,8,24,1.5
218,4411861,device-watermeter-facultad-veterinaria,2022-08-25 13:14:01+02:00,911356.8,B1.-1.000,building-facultad-veterinaria,8,25,0.0
239,4411926,device-watermeter-facultad-veterinaria,2022-08-29 23:54:33+02:00,911356.8,B1.-1.000,building-facultad-veterinaria,8,29,0.0
244,4411941,device-watermeter-facultad-veterinaria,2022-08-30 18:34:39+02:00,911356.8,B1.-1.000,building-facultad-veterinaria,8,30,0.0
