absl-py==1.3.0
asttokens==2.0.8
astunparse==1.6.3
attrs==22.1.0
Automat==20.2.0
autopep8==2.0.1
backcall==0.2.0
Brotli==1.0.9
cachetools==5.2.0
certifi==2022.9.14
cffi==1.15.1
charset-normalizer==2.1.1
click==8.1.3
colorama==0.4.5
constantly==15.1.0
contourpy==1.0.5
cryptography==38.0.1
cssselect==1.1.0
cycler==0.11.0
dash==2.6.1
dash-bootstrap-components==1.2.1
dash-core-components==2.0.0
dash-html-components==2.0.0
dash-iconify==0.1.2
dash-table==5.0.0
debugpy==1.6.3
decorator==5.1.1
entrypoints==0.4
executing==1.1.0
filelock==3.8.0
Flask==2.2.2
Flask-APScheduler==1.12.4
Flask-Compress==1.12
flatbuffers==22.10.26
fonttools==4.38.0
gast==0.4.0
geojson==2.5.0
gmaps==0.9.0
google-auth==2.13.0
google-auth-oauthlib==0.4.6
google-pasta==0.2.0
greenlet==1.1.3
grpcio==1.50.0
h5py==3.7.0
hyperlink==21.0.0
idna==3.4
importlib-metadata==4.12.0
incremental==21.3.0
ipykernel==6.16.0
ipython==8.5.0
ipywidgets==8.0.2
itemadapter==0.7.0
itemloaders==1.0.6
itsdangerous==2.1.2
jedi==0.18.1
Jinja2==3.1.2
jmespath==1.0.1
joblib==1.2.0
jupyter-core==4.11.1
jupyter_client==7.3.5
jupyterlab-widgets==3.0.3
kiwisolver==1.4.4
libclang==14.0.6
lxml==4.9.1
Markdown==3.4.1
MarkupSafe==2.1.1
matplotlib==3.6.1
matplotlib-inline==0.1.6
nest-asyncio==1.5.6
numpy==1.23.3
oauthlib==3.2.2
opencv-python==4.6.0.66
opt-einsum==3.3.0
packaging==21.3
pandas==1.4.4
pandasql==0.7.3
parsel==1.6.0
parso==0.8.3
pickleshare==0.7.5
Pillow==9.3.0
plotly==5.10.0
prompt-toolkit==3.0.31
Protego==0.2.1
protobuf==3.19.6
psutil==5.9.2
psycopg2==2.9.3
pure-eval==0.2.2
py4j==0.10.9.5
pyasn1==0.4.8
pyasn1-modules==0.2.8
pycodestyle==2.10.0
pycparser==2.21
PyDispatcher==2.0.6
Pygments==2.13.0
pyOpenSSL==22.0.0
pyparsing==3.0.9
pyspark==3.3.1
python-aemet==0.4.0
python-dateutil==2.8.2
pytz==2022.2.1
pytz-deprecation-shim==0.1.0.post0
pywin32==304
pyzmq==24.0.1
queuelib==1.6.2
requests==2.28.1
requests-file==1.5.1
requests-oauthlib==1.3.1
rsa==4.9
scikit-learn==1.1.3
scipy==1.9.3
Scrapy==2.6.2
service-identity==21.1.0
six==1.16.0
sklearn==0.0
soupsieve==2.3.2.post1
SQLAlchemy==1.4.41
stack-data==0.5.1
tenacity==8.0.1
termcolor==2.0.1
threadpoolctl==3.1.0
tldextract==3.3.1
tomli==2.0.1
tornado==6.2
traitlets==5.4.0
Twisted==22.8.0
twisted-iocpsupport==1.0.2
typing_extensions==4.3.0
tzdata==2022.7
tzlocal==4.2
urllib3==1.26.12
w3lib==2.0.1
wcwidth==0.2.5
Werkzeug==2.2.2
wget==3.2
widgetsnbextension==4.0.3
wrapt==1.14.1
xmltodict==0.13.0
zipp==3.8.1
zope.interface==5.4.0
