plazas_libres,time_instant
33,2023-02-21 10:52:19.006381
27,2023-02-21 11:02:18.488787
43,2023-02-21 11:03:39.020350
30,2023-02-21 11:05:39.198824
30,2023-02-21 11:07:16.450160
41,2023-02-21 11:07:39.245277
42,2023-02-21 11:09:39.512884
25,2023-02-21 11:11:38.864260
26,2023-02-21 11:12:15.900754
37,2023-02-21 11:13:39.045684
24,2023-02-21 11:15:39.323917
24,2023-02-21 11:17:16.539167
34,2023-02-21 11:17:39.055091
34,2023-02-21 11:19:38.928367
23,2023-02-21 11:21:39.117822
23,2023-02-21 11:22:16.425605
32,2023-02-21 11:23:39.016812
30,2023-02-21 11:25:39.141748
30,2023-02-21 11:27:16.565248
32,2023-02-21 11:27:39.028623
33,2023-02-21 11:29:38.917006
21,2023-02-21 11:31:39.117759
21,2023-02-21 11:32:16.348371
21,2023-02-21 11:33:39.013883
26,2023-02-21 11:35:38.987792
26,2023-02-21 11:37:16.189584
30,2023-02-21 11:37:39.282360
25,2023-02-21 11:39:39.434430
28,2023-02-21 11:41:38.899116
32,2023-02-21 11:43:39.513067
20,2023-02-21 11:45:39.428947
20,2023-02-21 11:47:16.184559
32,2023-02-21 11:47:38.985562
32,2023-02-21 11:49:38.985032
27,2023-02-21 11:51:39.536675
27,2023-02-21 11:52:16.056501
32,2023-02-21 11:53:39.261088
26,2023-02-21 11:55:39.650669
26,2023-02-21 11:57:16.262106
24,2023-02-21 11:57:39.096173
24,2023-02-21 11:59:38.912066
33,2023-02-21 12:01:39.258562
33,2023-02-21 12:02:16.104585
35,2023-02-21 12:03:39.127337
32,2023-02-21 12:05:39.165623
35,2023-02-21 12:07:16.504499
32,2023-02-21 12:07:38.887161
33,2023-02-21 12:09:39.025598
39,2023-02-21 12:11:38.982650
39,2023-02-21 12:12:15.947755
48,2023-02-21 12:13:39.235401
43,2023-02-21 12:15:39.176844
43,2023-02-21 12:17:16.281416
37,2023-02-21 12:17:39.099245
38,2023-02-21 12:19:38.737176
42,2023-02-21 12:21:39.192543
42,2023-02-21 12:22:16.087629
43,2023-02-21 12:23:39.499769
66,2023-02-21 12:25:39.169381
66,2023-02-21 12:27:16.305120
51,2023-02-21 12:27:38.888633
75,2023-02-21 12:29:39.697919
65,2023-02-21 12:31:38.993015
65,2023-02-21 12:32:16.485975
61,2023-02-21 12:33:39.124024
77,2023-02-21 12:35:39.117182
78,2023-02-21 12:37:16.590135
62,2023-02-21 12:37:39.078596
62,2023-02-21 12:39:39.078734
83,2023-02-21 12:41:39.265269
83,2023-02-21 12:42:15.962949
71,2023-02-21 12:43:39.079221
81,2023-02-21 12:45:38.870483
89,2023-02-21 12:47:16.455641
85,2023-02-21 12:47:39.164253
77,2023-02-21 12:49:38.871582
81,2023-02-21 12:52:16.595308
82,2023-02-21 12:56:37.335199
82,2023-02-21 12:57:16.099017
93,2023-02-21 13:01:37.012030
93,2023-02-21 13:02:16.333504
80,2023-02-21 13:06:37.166355
80,2023-02-21 13:07:16.024708
84,2023-02-21 13:11:37.342369
84,2023-02-21 13:12:16.247769
83,2023-02-21 13:16:37.074621
83,2023-02-21 13:17:16.295844
70,2023-02-21 13:21:37.401399
70,2023-02-21 13:22:16.163932
85,2023-02-21 13:26:37.201134
85,2023-02-21 13:27:16.184664
70,2023-02-21 13:31:37.076042
92,2023-02-21 13:32:16.556272
82,2023-02-21 13:36:36.614250
82,2023-02-21 13:37:16.169747
92,2023-02-21 13:41:36.869845
92,2023-02-21 13:42:16.381115
102,2023-02-21 13:46:37.472357
102,2023-02-21 13:47:15.863763
108,2023-02-21 13:51:37.465191
108,2023-02-21 13:52:16.108669
110,2023-02-21 13:56:37.427663
110,2023-02-21 13:57:16.020853
122,2023-02-21 14:01:36.869333
116,2023-02-21 17:36:37.030344
116,2023-02-21 17:37:16.697707
118,2023-02-21 17:41:37.156547
118,2023-02-21 17:42:16.578356
117,2023-02-21 17:46:37.464778
117,2023-02-21 17:47:16.326521
120,2023-02-21 17:51:37.095568
121,2023-02-21 17:52:16.397198
120,2023-02-21 17:56:37.305978
120,2023-02-21 17:57:16.516973
123,2023-02-21 18:01:37.349777
123,2023-02-21 18:02:16.020080
123,2023-02-21 18:06:37.208291
123,2023-02-21 18:07:16.313752
126,2023-02-21 18:11:37.074173
126,2023-02-21 18:12:16.380277
129,2023-02-21 18:21:37.114363
129,2023-02-21 18:22:16.089516
132,2023-02-21 18:26:37.133521
132,2023-02-21 18:27:16.406305
128,2023-02-21 18:31:37.039481
128,2023-02-21 18:32:16.365259
127,2023-02-21 18:36:37.329356
127,2023-02-21 18:37:16.194371
126,2023-02-21 18:41:37.886110
126,2023-02-21 18:42:16.040542
131,2023-02-21 18:46:37.386130
131,2023-02-21 18:47:16.071509
135,2023-02-21 18:51:37.339380
135,2023-02-21 18:52:16.219158
130,2023-02-21 19:01:37.559616
130,2023-02-21 19:02:16.241330
138,2023-02-21 19:06:37.463744
138,2023-02-21 19:07:16.209548
138,2023-02-21 19:11:37.089320
138,2023-02-21 19:12:16.700151
128,2023-02-21 19:16:37.071413
128,2023-02-21 19:17:16.671149
134,2023-02-21 19:21:37.170240
134,2023-02-21 19:22:16.222758
137,2023-02-21 19:31:37.540913
137,2023-02-21 19:32:16.029615
133,2023-02-21 19:36:37.101266
133,2023-02-21 19:37:16.770327
160,2023-02-21 19:41:37.218936
160,2023-02-21 19:42:16.022290
169,2023-02-21 19:51:37.417153
169,2023-02-21 19:52:16.025919
161,2023-02-21 19:56:37.254180
175,2023-02-21 19:57:16.401573
169,2023-02-21 20:16:37.120457
174,2023-02-21 20:17:16.491971
197,2023-02-21 20:21:37.472711
195,2023-02-21 20:22:16.201151
202,2023-02-21 20:26:37.533305
201,2023-02-21 20:27:16.051297
208,2023-02-21 20:31:36.923656
205,2023-02-21 20:32:16.433823
214,2023-02-21 20:36:37.574715
209,2023-02-21 20:37:16.372131
