id,ocb_id,time_instant,counter1,area_served,controlled_asset,Mes,Dia,Hora,Consumo
4451872,device-watermeter-facultad-quimica,2023-02-03 05:58:43,86976.40000000001,B1.-1A.001,building-facultad-quimica,2,3,05:58:43,72.69999999999709
4451878,device-watermeter-facultad-quimica,2023-02-03 09:38:44,86976.6,B1.-1A.001,building-facultad-quimica,2,3,09:38:44,0.19999999999708962
4451881,device-watermeter-facultad-quimica,2023-02-03 11:08:45,86977.8,B1.-1A.001,building-facultad-quimica,2,3,11:08:45,1.1999999999970896
4451883,device-watermeter-facultad-quimica,2023-02-03 12:38:45,86979.1,B1.-1A.001,building-facultad-quimica,2,3,12:38:45,1.3000000000029104
4451886,device-watermeter-facultad-quimica,2023-02-03 14:08:46,86980.3,B1.-1A.001,building-facultad-quimica,2,3,14:08:46,1.1999999999970896
4451890,device-watermeter-facultad-quimica,2023-02-03 15:38:46,86981.40000000001,B1.-1A.001,building-facultad-quimica,2,3,15:38:46,1.1000000000058208
4451893,device-watermeter-facultad-quimica,2023-02-03 17:08:47,86982.20000000001,B1.-1A.001,building-facultad-quimica,2,3,17:08:47,0.8000000000029104
4451897,device-watermeter-facultad-quimica,2023-02-07 14:59:19,87016.8,B1.-1A.001,building-facultad-quimica,2,7,14:59:19,34.59999999999127
4451900,device-watermeter-facultad-quimica,2023-02-07 15:09:19,87017.0,B1.-1A.001,building-facultad-quimica,2,7,15:09:19,0.19999999999708962
4451903,device-watermeter-facultad-quimica,2023-02-07 16:29:19,87019.8,B1.-1A.001,building-facultad-quimica,2,7,16:29:19,2.8000000000029104
4451909,device-watermeter-facultad-quimica,2023-02-07 17:19:19,87021.0,B1.-1A.001,building-facultad-quimica,2,7,17:19:19,1.1999999999970896
4451912,device-watermeter-facultad-quimica,2023-02-07 17:59:20,87022.3,B1.-1A.001,building-facultad-quimica,2,7,17:59:20,1.3000000000029104
4451915,device-watermeter-facultad-quimica,2023-02-07 18:49:20,87023.0,B1.-1A.001,building-facultad-quimica,2,7,18:49:20,0.6999999999970896
4451918,device-watermeter-facultad-quimica,2023-02-07 19:29:20,87023.70000000001,B1.-1A.001,building-facultad-quimica,2,7,19:29:20,0.7000000000116415
4451921,device-watermeter-facultad-quimica,2023-02-07 20:19:20,87024.5,B1.-1A.001,building-facultad-quimica,2,7,20:19:20,0.7999999999883585
4451924,device-watermeter-facultad-quimica,2023-02-07 20:59:21,87024.8,B1.-1A.001,building-facultad-quimica,2,7,20:59:21,0.3000000000029104
4451927,device-watermeter-facultad-quimica,2023-02-07 21:39:21,87025.0,B1.-1A.001,building-facultad-quimica,2,7,21:39:21,0.19999999999708962
4451930,device-watermeter-facultad-quimica,2023-02-07 22:29:21,87025.40000000001,B1.-1A.001,building-facultad-quimica,2,7,22:29:21,0.40000000000873115
4451933,device-watermeter-facultad-quimica,2023-02-07 23:09:21,87025.70000000001,B1.-1A.001,building-facultad-quimica,2,7,23:09:21,0.3000000000029104
4451936,device-watermeter-facultad-quimica,2023-02-07 23:59:22,87026.0,B1.-1A.001,building-facultad-quimica,2,7,23:59:22,0.29999999998835847
4451939,device-watermeter-facultad-quimica,2023-02-08 00:39:22,87026.3,B1.-1A.001,building-facultad-quimica,2,8,00:39:22,0.3000000000029104
4451942,device-watermeter-facultad-quimica,2023-02-08 01:29:22,87026.90000000001,B1.-1A.001,building-facultad-quimica,2,8,01:29:22,0.6000000000058208
4451945,device-watermeter-facultad-quimica,2023-02-08 02:09:22,87027.20000000001,B1.-1A.001,building-facultad-quimica,2,8,02:09:22,0.3000000000029104
4451948,device-watermeter-facultad-quimica,2023-02-08 02:49:23,87027.5,B1.-1A.001,building-facultad-quimica,2,8,02:49:23,0.29999999998835847
4451951,device-watermeter-facultad-quimica,2023-02-08 03:39:23,87027.90000000001,B1.-1A.001,building-facultad-quimica,2,8,03:39:23,0.40000000000873115
4451955,device-watermeter-facultad-quimica,2023-02-08 05:09:23,87028.5,B1.-1A.001,building-facultad-quimica,2,8,05:09:23,0.5999999999912689
4451958,device-watermeter-facultad-quimica,2023-02-08 05:49:24,87028.8,B1.-1A.001,building-facultad-quimica,2,8,05:49:24,0.3000000000029104
4451961,device-watermeter-facultad-quimica,2023-02-08 06:39:24,87029.20000000001,B1.-1A.001,building-facultad-quimica,2,8,06:39:24,0.40000000000873115
4451964,device-watermeter-facultad-quimica,2023-02-08 08:49:25,87030.3,B1.-1A.001,building-facultad-quimica,2,8,08:49:25,1.0999999999912689
4451967,device-watermeter-facultad-quimica,2023-02-08 10:19:25,87032.0,B1.-1A.001,building-facultad-quimica,2,8,10:19:25,1.6999999999970896
4451970,device-watermeter-facultad-quimica,2023-02-08 10:59:25,87032.70000000001,B1.-1A.001,building-facultad-quimica,2,8,10:59:25,0.7000000000116415
4451973,device-watermeter-facultad-quimica,2023-02-08 11:49:26,87033.70000000001,B1.-1A.001,building-facultad-quimica,2,8,11:49:26,1.0
4451976,device-watermeter-facultad-quimica,2023-02-08 12:29:26,87034.8,B1.-1A.001,building-facultad-quimica,2,8,12:29:26,1.0999999999912689
4451979,device-watermeter-facultad-quimica,2023-02-08 13:59:26,87036.40000000001,B1.-1A.001,building-facultad-quimica,2,8,13:59:26,1.6000000000058208
4451982,device-watermeter-facultad-quimica,2023-02-08 15:29:27,87038.8,B1.-1A.001,building-facultad-quimica,2,8,15:29:27,2.3999999999941792
4451985,device-watermeter-facultad-quimica,2023-02-08 16:09:27,87040.40000000001,B1.-1A.001,building-facultad-quimica,2,8,16:09:27,1.6000000000058208
4451988,device-watermeter-facultad-quimica,2023-02-08 17:39:28,87044.0,B1.-1A.001,building-facultad-quimica,2,8,17:39:28,3.599999999991269
4451991,device-watermeter-facultad-quimica,2023-02-08 19:09:28,87045.70000000001,B1.-1A.001,building-facultad-quimica,2,8,19:09:28,1.7000000000116415
4451994,device-watermeter-facultad-quimica,2023-02-08 21:19:29,87045.90000000001,B1.-1A.001,building-facultad-quimica,2,8,21:19:29,0.19999999999708962
4451997,device-watermeter-facultad-quimica,2023-02-09 00:59:30,87046.0,B1.-1A.001,building-facultad-quimica,2,9,00:59:30,0.09999999999126885
4452000,device-watermeter-facultad-quimica,2023-02-09 01:39:30,87046.1,B1.-1A.001,building-facultad-quimica,2,9,01:39:30,0.10000000000582077
4452003,device-watermeter-facultad-quimica,2023-02-12 03:49:56,87057.3,B1.-1A.001,building-facultad-quimica,2,12,03:49:56,11.19999999999709
4452141,device-watermeter-facultad-quimica,2023-02-13 11:40:06,87057.6,B1.-1A.001,building-facultad-quimica,2,13,11:40:06,0.3000000000029104
4452144,device-watermeter-facultad-quimica,2023-02-13 12:20:07,87058.20000000001,B1.-1A.001,building-facultad-quimica,2,13,12:20:07,0.6000000000058208
4452147,device-watermeter-facultad-quimica,2023-02-13 13:00:07,87058.5,B1.-1A.001,building-facultad-quimica,2,13,13:00:07,0.29999999998835847
4452150,device-watermeter-facultad-quimica,2023-02-13 13:50:07,87059.1,B1.-1A.001,building-facultad-quimica,2,13,13:50:07,0.6000000000058208
4452153,device-watermeter-facultad-quimica,2023-02-13 14:30:07,87059.8,B1.-1A.001,building-facultad-quimica,2,13,14:30:07,0.6999999999970896
4452156,device-watermeter-facultad-quimica,2023-02-13 15:10:07,87060.70000000001,B1.-1A.001,building-facultad-quimica,2,13,15:10:07,0.9000000000087311
4452159,device-watermeter-facultad-quimica,2023-02-13 16:40:08,87062.40000000001,B1.-1A.001,building-facultad-quimica,2,13,16:40:08,1.6999999999970896
4452160,device-watermeter-facultad-quimica,2023-02-13 17:20:08,87062.90000000001,B1.-1A.001,building-facultad-quimica,2,13,17:20:08,0.5
4452165,device-watermeter-facultad-quimica,2023-02-13 18:50:09,87064.20000000001,B1.-1A.001,building-facultad-quimica,2,13,18:50:09,1.3000000000029104
4452168,device-watermeter-facultad-quimica,2023-02-13 19:30:09,87064.5,B1.-1A.001,building-facultad-quimica,2,13,19:30:09,0.29999999998835847
4452171,device-watermeter-facultad-quimica,2023-02-13 21:00:09,87064.90000000001,B1.-1A.001,building-facultad-quimica,2,13,21:00:09,0.40000000000873115
4452174,device-watermeter-facultad-quimica,2023-02-13 23:10:10,87065.0,B1.-1A.001,building-facultad-quimica,2,13,23:10:10,0.09999999999126885
4452180,device-watermeter-facultad-quimica,2023-02-14 02:40:11,87065.20000000001,B1.-1A.001,building-facultad-quimica,2,14,02:40:11,0.20000000001164153
4452186,device-watermeter-facultad-quimica,2023-02-14 12:00:15,87069.1,B1.-1A.001,building-facultad-quimica,2,14,12:00:15,3.8999999999941792
4452189,device-watermeter-facultad-quimica,2023-02-16 16:50:32,87092.70000000001,B1.-1A.001,building-facultad-quimica,2,16,16:50:32,23.60000000000582
4452192,device-watermeter-facultad-quimica,2023-02-16 17:20:33,87093.20000000001,B1.-1A.001,building-facultad-quimica,2,16,17:20:33,0.5
4452195,device-watermeter-facultad-quimica,2023-02-16 17:30:33,87093.3,B1.-1A.001,building-facultad-quimica,2,16,17:30:33,0.09999999999126885
4452198,device-watermeter-facultad-quimica,2023-02-16 18:00:33,87093.70000000001,B1.-1A.001,building-facultad-quimica,2,16,18:00:33,0.40000000000873115
4452204,device-watermeter-facultad-quimica,2023-02-16 18:50:33,87094.1,B1.-1A.001,building-facultad-quimica,2,16,18:50:33,0.39999999999417923
4452207,device-watermeter-facultad-quimica,2023-02-16 19:40:33,87094.40000000001,B1.-1A.001,building-facultad-quimica,2,16,19:40:33,0.3000000000029104
4452210,device-watermeter-facultad-quimica,2023-02-16 20:10:34,87094.5,B1.-1A.001,building-facultad-quimica,2,16,20:10:34,0.09999999999126885
4452218,device-watermeter-facultad-quimica,2023-02-16 21:00:34,87094.70000000001,B1.-1A.001,building-facultad-quimica,2,16,21:00:34,0.20000000001164153
4452222,device-watermeter-facultad-quimica,2023-02-16 21:10:34,87094.8,B1.-1A.001,building-facultad-quimica,2,16,21:10:34,0.09999999999126885
4452225,device-watermeter-facultad-quimica,2023-02-16 21:40:34,87095.1,B1.-1A.001,building-facultad-quimica,2,16,21:40:34,0.3000000000029104
4452228,device-watermeter-facultad-quimica,2023-02-16 21:50:34,87095.20000000001,B1.-1A.001,building-facultad-quimica,2,16,21:50:34,0.10000000000582077
4452231,device-watermeter-facultad-quimica,2023-02-16 22:30:34,87095.5,B1.-1A.001,building-facultad-quimica,2,16,22:30:34,0.29999999998835847
4452234,device-watermeter-facultad-quimica,2023-02-16 22:40:34,87095.6,B1.-1A.001,building-facultad-quimica,2,16,22:40:34,0.10000000000582077
4452236,device-watermeter-facultad-quimica,2023-02-16 23:10:35,87095.8,B1.-1A.001,building-facultad-quimica,2,16,23:10:35,0.19999999999708962
4452240,device-watermeter-facultad-quimica,2023-02-16 23:20:35,87095.90000000001,B1.-1A.001,building-facultad-quimica,2,16,23:20:35,0.10000000000582077
4452243,device-watermeter-facultad-quimica,2023-02-16 23:50:35,87096.20000000001,B1.-1A.001,building-facultad-quimica,2,16,23:50:35,0.3000000000029104
4452249,device-watermeter-facultad-quimica,2023-02-17 00:30:35,87096.5,B1.-1A.001,building-facultad-quimica,2,17,00:30:35,0.29999999998835847
4452252,device-watermeter-facultad-quimica,2023-02-17 00:40:35,87096.6,B1.-1A.001,building-facultad-quimica,2,17,00:40:35,0.10000000000582077
4452255,device-watermeter-facultad-quimica,2023-02-17 01:20:35,87097.1,B1.-1A.001,building-facultad-quimica,2,17,01:20:35,0.5
4452258,device-watermeter-facultad-quimica,2023-02-17 01:30:35,87097.20000000001,B1.-1A.001,building-facultad-quimica,2,17,01:30:35,0.10000000000582077
4452261,device-watermeter-facultad-quimica,2023-02-17 02:00:36,87097.40000000001,B1.-1A.001,building-facultad-quimica,2,17,02:00:36,0.19999999999708962
4452267,device-watermeter-facultad-quimica,2023-02-17 02:50:36,87097.70000000001,B1.-1A.001,building-facultad-quimica,2,17,02:50:36,0.3000000000029104
4452270,device-watermeter-facultad-quimica,2023-02-17 03:30:36,87098.0,B1.-1A.001,building-facultad-quimica,2,17,03:30:36,0.29999999998835847
4452273,device-watermeter-facultad-quimica,2023-02-17 03:40:36,87098.1,B1.-1A.001,building-facultad-quimica,2,17,03:40:36,0.10000000000582077
4452276,device-watermeter-facultad-quimica,2023-02-17 04:10:36,87098.3,B1.-1A.001,building-facultad-quimica,2,17,04:10:36,0.19999999999708962
4452278,device-watermeter-facultad-quimica,2023-02-17 04:20:36,87098.40000000001,B1.-1A.001,building-facultad-quimica,2,17,04:20:36,0.10000000000582077
4452282,device-watermeter-facultad-quimica,2023-02-17 05:00:37,87098.70000000001,B1.-1A.001,building-facultad-quimica,2,17,05:00:37,0.3000000000029104
4452285,device-watermeter-facultad-quimica,2023-02-17 05:40:37,87099.0,B1.-1A.001,building-facultad-quimica,2,17,05:40:37,0.29999999998835847
4452291,device-watermeter-facultad-quimica,2023-02-17 06:30:37,87099.3,B1.-1A.001,building-facultad-quimica,2,17,06:30:37,0.3000000000029104
4452294,device-watermeter-facultad-quimica,2023-02-17 07:00:37,87099.5,B1.-1A.001,building-facultad-quimica,2,17,07:00:37,0.19999999999708962
4452297,device-watermeter-facultad-quimica,2023-02-17 07:10:37,87099.6,B1.-1A.001,building-facultad-quimica,2,17,07:10:37,0.10000000000582077
4452300,device-watermeter-facultad-quimica,2023-02-17 07:50:38,87099.90000000001,B1.-1A.001,building-facultad-quimica,2,17,07:50:38,0.3000000000029104
4452303,device-watermeter-facultad-quimica,2023-02-17 08:00:38,87100.0,B1.-1A.001,building-facultad-quimica,2,17,08:00:38,0.09999999999126885
4452306,device-watermeter-facultad-quimica,2023-02-17 08:30:38,87100.3,B1.-1A.001,building-facultad-quimica,2,17,08:30:38,0.3000000000029104
4452309,device-watermeter-facultad-quimica,2023-02-17 08:40:38,87100.40000000001,B1.-1A.001,building-facultad-quimica,2,17,08:40:38,0.10000000000582077
4452312,device-watermeter-facultad-quimica,2023-02-17 09:20:38,87100.90000000001,B1.-1A.001,building-facultad-quimica,2,17,09:20:38,0.5
4452314,device-watermeter-facultad-quimica,2023-02-17 10:00:38,87101.40000000001,B1.-1A.001,building-facultad-quimica,2,17,10:00:38,0.5
4452318,device-watermeter-facultad-quimica,2023-02-17 10:10:38,87101.6,B1.-1A.001,building-facultad-quimica,2,17,10:10:38,0.19999999999708962
4452321,device-watermeter-facultad-quimica,2023-02-17 10:40:38,87102.1,B1.-1A.001,building-facultad-quimica,2,17,10:40:38,0.5
4452324,device-watermeter-facultad-quimica,2023-02-17 10:50:39,87102.40000000001,B1.-1A.001,building-facultad-quimica,2,17,10:50:39,0.3000000000029104
4452327,device-watermeter-facultad-quimica,2023-02-17 11:20:39,87103.3,B1.-1A.001,building-facultad-quimica,2,17,11:20:39,0.8999999999941792
4452330,device-watermeter-facultad-quimica,2023-02-17 11:30:39,87103.5,B1.-1A.001,building-facultad-quimica,2,17,11:30:39,0.19999999999708962
4452333,device-watermeter-facultad-quimica,2023-02-17 12:10:39,87104.40000000001,B1.-1A.001,building-facultad-quimica,2,17,12:10:39,0.9000000000087311
4452336,device-watermeter-facultad-quimica,2023-02-17 12:50:39,87105.1,B1.-1A.001,building-facultad-quimica,2,17,12:50:39,0.6999999999970896
4452339,device-watermeter-facultad-quimica,2023-02-17 13:00:39,87105.20000000001,B1.-1A.001,building-facultad-quimica,2,17,13:00:39,0.10000000000582077
4452342,device-watermeter-facultad-quimica,2023-02-17 13:30:39,87105.6,B1.-1A.001,building-facultad-quimica,2,17,13:30:39,0.39999999999417923
4452345,device-watermeter-facultad-quimica,2023-02-17 13:40:39,87105.70000000001,B1.-1A.001,building-facultad-quimica,2,17,13:40:39,0.10000000000582077
4452348,device-watermeter-facultad-quimica,2023-02-17 14:20:40,87106.3,B1.-1A.001,building-facultad-quimica,2,17,14:20:40,0.5999999999912689
4452350,device-watermeter-facultad-quimica,2023-02-17 15:00:40,87106.8,B1.-1A.001,building-facultad-quimica,2,17,15:00:40,0.5
4452354,device-watermeter-facultad-quimica,2023-02-17 15:40:40,87107.20000000001,B1.-1A.001,building-facultad-quimica,2,17,15:40:40,0.40000000000873115
4452357,device-watermeter-facultad-quimica,2023-02-17 15:50:40,87107.3,B1.-1A.001,building-facultad-quimica,2,17,15:50:40,0.09999999999126885
4452360,device-watermeter-facultad-quimica,2023-02-17 16:20:40,87107.6,B1.-1A.001,building-facultad-quimica,2,17,16:20:40,0.3000000000029104
4452363,device-watermeter-facultad-quimica,2023-02-17 16:30:40,87107.70000000001,B1.-1A.001,building-facultad-quimica,2,17,16:30:40,0.10000000000582077
4452366,device-watermeter-facultad-quimica,2023-02-17 17:10:41,87107.90000000001,B1.-1A.001,building-facultad-quimica,2,17,17:10:41,0.19999999999708962
4452369,device-watermeter-facultad-quimica,2023-02-17 17:50:41,87108.20000000001,B1.-1A.001,building-facultad-quimica,2,17,17:50:41,0.3000000000029104
4452372,device-watermeter-facultad-quimica,2023-02-17 18:00:41,87108.3,B1.-1A.001,building-facultad-quimica,2,17,18:00:41,0.09999999999126885
4452375,device-watermeter-facultad-quimica,2023-02-17 18:40:41,87108.6,B1.-1A.001,building-facultad-quimica,2,17,18:40:41,0.3000000000029104
4452378,device-watermeter-facultad-quimica,2023-02-17 19:20:41,87108.8,B1.-1A.001,building-facultad-quimica,2,17,19:20:41,0.19999999999708962
4452381,device-watermeter-facultad-quimica,2023-02-17 20:00:42,87108.90000000001,B1.-1A.001,building-facultad-quimica,2,17,20:00:42,0.10000000000582077
4452384,device-watermeter-facultad-quimica,2023-02-17 20:10:42,87109.0,B1.-1A.001,building-facultad-quimica,2,17,20:10:42,0.09999999999126885
4452393,device-watermeter-facultad-quimica,2023-02-17 21:30:42,87109.1,B1.-1A.001,building-facultad-quimica,2,17,21:30:42,0.10000000000582077
4452399,device-watermeter-facultad-quimica,2023-02-17 22:50:43,87109.20000000001,B1.-1A.001,building-facultad-quimica,2,17,22:50:43,0.10000000000582077
4452410,device-watermeter-facultad-quimica,2023-02-18 00:20:43,87109.3,B1.-1A.001,building-facultad-quimica,2,18,00:20:43,0.09999999999126885
4452415,device-watermeter-facultad-quimica,2023-02-18 01:40:44,87109.5,B1.-1A.001,building-facultad-quimica,2,18,01:40:44,0.19999999999708962
4452421,device-watermeter-facultad-quimica,2023-02-18 02:30:44,87109.6,B1.-1A.001,building-facultad-quimica,2,18,02:30:44,0.10000000000582077
4452430,device-watermeter-facultad-quimica,2023-02-18 04:40:45,87109.70000000001,B1.-1A.001,building-facultad-quimica,2,18,04:40:45,0.10000000000582077
4452436,device-watermeter-facultad-quimica,2023-02-18 06:00:45,87109.8,B1.-1A.001,building-facultad-quimica,2,18,06:00:45,0.09999999999126885
4452442,device-watermeter-facultad-quimica,2023-02-18 07:30:46,87109.90000000001,B1.-1A.001,building-facultad-quimica,2,18,07:30:46,0.10000000000582077
4452451,device-watermeter-facultad-quimica,2023-02-18 09:40:46,87110.0,B1.-1A.001,building-facultad-quimica,2,18,09:40:46,0.09999999999126885
4452457,device-watermeter-facultad-quimica,2023-02-18 11:10:47,87110.1,B1.-1A.001,building-facultad-quimica,2,18,11:10:47,0.10000000000582077
4452460,device-watermeter-facultad-quimica,2023-02-18 11:50:47,87110.20000000001,B1.-1A.001,building-facultad-quimica,2,18,11:50:47,0.10000000000582077
4452466,device-watermeter-facultad-quimica,2023-02-18 13:20:47,87110.3,B1.-1A.001,building-facultad-quimica,2,18,13:20:47,0.09999999999126885
4452475,device-watermeter-facultad-quimica,2023-02-18 15:30:48,87110.40000000001,B1.-1A.001,building-facultad-quimica,2,18,15:30:48,0.10000000000582077
4452478,device-watermeter-facultad-quimica,2023-02-18 16:10:48,87110.5,B1.-1A.001,building-facultad-quimica,2,18,16:10:48,0.09999999999126885
4452484,device-watermeter-facultad-quimica,2023-02-18 18:20:49,87110.6,B1.-1A.001,building-facultad-quimica,2,18,18:20:49,0.10000000000582077
4452487,device-watermeter-facultad-quimica,2023-02-18 19:50:50,87110.70000000001,B1.-1A.001,building-facultad-quimica,2,18,19:50:50,0.10000000000582077
4452492,device-watermeter-facultad-quimica,2023-02-18 22:00:50,87110.8,B1.-1A.001,building-facultad-quimica,2,18,22:00:50,0.09999999999126885
4452496,device-watermeter-facultad-quimica,2023-02-19 00:10:51,87110.90000000001,B1.-1A.001,building-facultad-quimica,2,19,00:10:51,0.10000000000582077
4452499,device-watermeter-facultad-quimica,2023-02-19 03:50:52,87111.20000000001,B1.-1A.001,building-facultad-quimica,2,19,03:50:52,0.3000000000029104
4452520,device-watermeter-facultad-quimica,2023-02-19 12:30:55,87111.3,B1.-1A.001,building-facultad-quimica,2,19,12:30:55,0.09999999999126885
4452523,device-watermeter-facultad-quimica,2023-02-19 22:40:59,87111.6,B1.-1A.001,building-facultad-quimica,2,19,22:40:59,0.3000000000029104
4452526,device-watermeter-facultad-quimica,2023-02-21 04:21:09,87121.1,B1.-1A.001,building-facultad-quimica,2,21,04:21:09,9.5
4452547,device-watermeter-facultad-quimica,2023-02-21 06:21:09,87121.20000000001,B1.-1A.001,building-facultad-quimica,2,21,06:21:09,0.10000000000582077
4452565,device-watermeter-facultad-quimica,2023-02-21 07:41:10,87121.3,B1.-1A.001,building-facultad-quimica,2,21,07:41:10,0.09999999999126885
4452574,device-watermeter-facultad-quimica,2023-02-21 08:31:10,87121.6,B1.-1A.001,building-facultad-quimica,2,21,08:31:10,0.3000000000029104
4452580,device-watermeter-facultad-quimica,2023-02-21 09:11:10,87121.90000000001,B1.-1A.001,building-facultad-quimica,2,21,09:11:10,0.3000000000029104
4452583,device-watermeter-facultad-quimica,2023-02-21 09:21:10,87122.0,B1.-1A.001,building-facultad-quimica,2,21,09:21:10,0.09999999999126885
4452589,device-watermeter-facultad-quimica,2023-02-21 09:51:11,87122.3,B1.-1A.001,building-facultad-quimica,2,21,09:51:11,0.3000000000029104
4452592,device-watermeter-facultad-quimica,2023-02-21 10:01:11,87122.40000000001,B1.-1A.001,building-facultad-quimica,2,21,10:01:11,0.10000000000582077
4452595,device-watermeter-facultad-quimica,2023-02-21 10:11:11,87122.5,B1.-1A.001,building-facultad-quimica,2,21,10:11:11,0.09999999999126885
4452598,device-watermeter-facultad-quimica,2023-02-21 10:41:11,87123.0,B1.-1A.001,building-facultad-quimica,2,21,10:41:11,0.5
4452601,device-watermeter-facultad-quimica,2023-02-21 10:51:11,87123.20000000001,B1.-1A.001,building-facultad-quimica,2,21,10:51:11,0.20000000001164153
4452604,device-watermeter-facultad-quimica,2023-02-21 11:21:11,87123.70000000001,B1.-1A.001,building-facultad-quimica,2,21,11:21:11,0.5
4452607,device-watermeter-facultad-quimica,2023-02-21 11:31:11,87123.8,B1.-1A.001,building-facultad-quimica,2,21,11:31:11,0.09999999999126885
4452610,device-watermeter-facultad-quimica,2023-02-21 12:01:11,87124.3,B1.-1A.001,building-facultad-quimica,2,21,12:01:11,0.5
4452613,device-watermeter-facultad-quimica,2023-02-21 12:11:11,87124.5,B1.-1A.001,building-facultad-quimica,2,21,12:11:11,0.19999999999708962
4452616,device-watermeter-facultad-quimica,2023-02-21 12:21:11,87124.70000000001,B1.-1A.001,building-facultad-quimica,2,21,12:21:11,0.20000000001164153
4452619,device-watermeter-facultad-quimica,2023-02-21 12:41:12,87125.0,B1.-1A.001,building-facultad-quimica,2,21,12:41:12,0.29999999998835847
4452622,device-watermeter-facultad-quimica,2023-02-21 12:51:12,87125.3,B1.-1A.001,building-facultad-quimica,2,21,12:51:12,0.3000000000029104
4452625,device-watermeter-facultad-quimica,2023-02-21 13:01:12,87125.5,B1.-1A.001,building-facultad-quimica,2,21,13:01:12,0.19999999999708962
4452630,device-watermeter-facultad-quimica,2023-02-21 13:31:12,87126.0,B1.-1A.001,building-facultad-quimica,2,21,13:31:12,0.5
4452633,device-watermeter-facultad-quimica,2023-02-21 13:41:12,87126.1,B1.-1A.001,building-facultad-quimica,2,21,13:41:12,0.10000000000582077
4452636,device-watermeter-facultad-quimica,2023-02-21 14:11:12,87126.70000000001,B1.-1A.001,building-facultad-quimica,2,21,14:11:12,0.6000000000058208
4452639,device-watermeter-facultad-quimica,2023-02-21 14:21:12,87126.8,B1.-1A.001,building-facultad-quimica,2,21,14:21:12,0.09999999999126885
4452642,device-watermeter-facultad-quimica,2023-02-21 14:51:12,87127.3,B1.-1A.001,building-facultad-quimica,2,21,14:51:12,0.5
4452645,device-watermeter-facultad-quimica,2023-02-21 15:01:12,87127.6,B1.-1A.001,building-facultad-quimica,2,21,15:01:12,0.3000000000029104
4452648,device-watermeter-facultad-quimica,2023-02-21 15:11:12,87127.8,B1.-1A.001,building-facultad-quimica,2,21,15:11:12,0.19999999999708962
4452651,device-watermeter-facultad-quimica,2023-02-21 15:41:13,87128.20000000001,B1.-1A.001,building-facultad-quimica,2,21,15:41:13,0.40000000000873115
4452654,device-watermeter-facultad-quimica,2023-02-21 15:51:13,87128.40000000001,B1.-1A.001,building-facultad-quimica,2,21,15:51:13,0.19999999999708962
4452657,device-watermeter-facultad-quimica,2023-02-21 16:21:13,87128.90000000001,B1.-1A.001,building-facultad-quimica,2,21,16:21:13,0.5
4452660,device-watermeter-facultad-quimica,2023-02-21 16:31:13,87129.1,B1.-1A.001,building-facultad-quimica,2,21,16:31:13,0.19999999999708962
4452663,device-watermeter-facultad-quimica,2023-02-21 17:01:13,87129.6,B1.-1A.001,building-facultad-quimica,2,21,17:01:13,0.5
4452666,device-watermeter-facultad-quimica,2023-02-21 17:11:13,87129.8,B1.-1A.001,building-facultad-quimica,2,21,17:11:13,0.19999999999708962
4452669,device-watermeter-facultad-quimica,2023-02-21 17:21:13,87130.1,B1.-1A.001,building-facultad-quimica,2,21,17:21:13,0.3000000000029104
4452672,device-watermeter-facultad-quimica,2023-02-21 17:51:13,87130.5,B1.-1A.001,building-facultad-quimica,2,21,17:51:13,0.39999999999417923
4452675,device-watermeter-facultad-quimica,2023-02-21 18:01:13,87130.6,B1.-1A.001,building-facultad-quimica,2,21,18:01:13,0.10000000000582077
4452678,device-watermeter-facultad-quimica,2023-02-21 18:31:14,87130.90000000001,B1.-1A.001,building-facultad-quimica,2,21,18:31:14,0.3000000000029104
4452680,device-watermeter-facultad-quimica,2023-02-21 18:41:14,87131.0,B1.-1A.001,building-facultad-quimica,2,21,18:41:14,0.09999999999126885
4452684,device-watermeter-facultad-quimica,2023-02-21 19:11:14,87131.3,B1.-1A.001,building-facultad-quimica,2,21,19:11:14,0.3000000000029104
4452687,device-watermeter-facultad-quimica,2023-02-21 19:21:14,87131.40000000001,B1.-1A.001,building-facultad-quimica,2,21,19:21:14,0.10000000000582077
4452693,device-watermeter-facultad-quimica,2023-02-21 20:01:14,87131.6,B1.-1A.001,building-facultad-quimica,2,21,20:01:14,0.19999999999708962
4452699,device-watermeter-facultad-quimica,2023-02-21 20:41:14,87131.70000000001,B1.-1A.001,building-facultad-quimica,2,21,20:41:14,0.10000000000582077
4452711,device-watermeter-facultad-quimica,2023-02-21 22:01:15,87131.8,B1.-1A.001,building-facultad-quimica,2,21,22:01:15,0.09999999999126885
4452732,device-watermeter-facultad-quimica,2023-02-22 00:11:15,87131.90000000001,B1.-1A.001,building-facultad-quimica,2,22,00:11:15,0.10000000000582077
4452741,device-watermeter-facultad-quimica,2023-02-22 01:11:16,87132.0,B1.-1A.001,building-facultad-quimica,2,22,01:11:16,0.09999999999126885
4452762,device-watermeter-facultad-quimica,2023-02-22 03:51:17,87132.1,B1.-1A.001,building-facultad-quimica,2,22,03:51:17,0.10000000000582077
4452791,device-watermeter-facultad-quimica,2023-02-22 07:21:18,87132.20000000001,B1.-1A.001,building-facultad-quimica,2,22,07:21:18,0.10000000000582077
4452801,device-watermeter-facultad-quimica,2023-02-22 08:11:18,87132.3,B1.-1A.001,building-facultad-quimica,2,22,08:11:18,0.09999999999126885
4452803,device-watermeter-facultad-quimica,2023-02-22 08:51:18,87132.5,B1.-1A.001,building-facultad-quimica,2,22,08:51:18,0.19999999999708962
4452807,device-watermeter-facultad-quimica,2023-02-22 09:31:19,87132.8,B1.-1A.001,building-facultad-quimica,2,22,09:31:19,0.3000000000029104
4452810,device-watermeter-facultad-quimica,2023-02-22 09:41:19,87132.90000000001,B1.-1A.001,building-facultad-quimica,2,22,09:41:19,0.10000000000582077
4452813,device-watermeter-facultad-quimica,2023-02-22 10:11:19,87133.20000000001,B1.-1A.001,building-facultad-quimica,2,22,10:11:19,0.3000000000029104
4452816,device-watermeter-facultad-quimica,2023-02-22 10:21:19,87133.3,B1.-1A.001,building-facultad-quimica,2,22,10:21:19,0.09999999999126885
4452819,device-watermeter-facultad-quimica,2023-02-22 10:51:19,87133.70000000001,B1.-1A.001,building-facultad-quimica,2,22,10:51:19,0.40000000000873115
4452822,device-watermeter-facultad-quimica,2023-02-22 11:01:19,87133.90000000001,B1.-1A.001,building-facultad-quimica,2,22,11:01:19,0.19999999999708962
4452825,device-watermeter-facultad-quimica,2023-02-22 11:41:19,87134.6,B1.-1A.001,building-facultad-quimica,2,22,11:41:19,0.6999999999970896
4452828,device-watermeter-facultad-quimica,2023-02-22 11:51:19,87134.8,B1.-1A.001,building-facultad-quimica,2,22,11:51:19,0.19999999999708962
4452830,device-watermeter-facultad-quimica,2023-02-22 12:21:20,87135.40000000001,B1.-1A.001,building-facultad-quimica,2,22,12:21:20,0.6000000000058208
4452834,device-watermeter-facultad-quimica,2023-02-22 12:31:20,87135.5,B1.-1A.001,building-facultad-quimica,2,22,12:31:20,0.09999999999126885
4452837,device-watermeter-facultad-quimica,2023-02-22 13:01:20,87136.1,B1.-1A.001,building-facultad-quimica,2,22,13:01:20,0.6000000000058208
4452839,device-watermeter-facultad-quimica,2023-02-22 13:11:20,87136.3,B1.-1A.001,building-facultad-quimica,2,22,13:11:20,0.19999999999708962
4452843,device-watermeter-facultad-quimica,2023-02-22 13:51:20,87137.1,B1.-1A.001,building-facultad-quimica,2,22,13:51:20,0.8000000000029104
4452846,device-watermeter-facultad-quimica,2023-02-22 14:31:20,87138.0,B1.-1A.001,building-facultad-quimica,2,22,14:31:20,0.8999999999941792
4452849,device-watermeter-facultad-quimica,2023-02-22 14:41:20,87138.20000000001,B1.-1A.001,building-facultad-quimica,2,22,14:41:20,0.20000000001164153
4452852,device-watermeter-facultad-quimica,2023-02-22 15:11:21,87138.70000000001,B1.-1A.001,building-facultad-quimica,2,22,15:11:21,0.5
4452855,device-watermeter-facultad-quimica,2023-02-22 15:21:21,87138.90000000001,B1.-1A.001,building-facultad-quimica,2,22,15:21:21,0.19999999999708962
4452858,device-watermeter-facultad-quimica,2023-02-22 15:51:21,87139.40000000001,B1.-1A.001,building-facultad-quimica,2,22,15:51:21,0.5
4452861,device-watermeter-facultad-quimica,2023-02-22 16:01:21,87139.6,B1.-1A.001,building-facultad-quimica,2,22,16:01:21,0.19999999999708962
4452864,device-watermeter-facultad-quimica,2023-02-22 16:41:21,87140.90000000001,B1.-1A.001,building-facultad-quimica,2,22,16:41:21,1.3000000000029104
4452867,device-watermeter-facultad-quimica,2023-02-22 17:21:21,87142.3,B1.-1A.001,building-facultad-quimica,2,22,17:21:21,1.3999999999941792
4452870,device-watermeter-facultad-quimica,2023-02-22 17:31:21,87142.6,B1.-1A.001,building-facultad-quimica,2,22,17:31:21,0.3000000000029104
4452873,device-watermeter-facultad-quimica,2023-02-22 18:01:21,87143.70000000001,B1.-1A.001,building-facultad-quimica,2,22,18:01:21,1.1000000000058208
4452876,device-watermeter-facultad-quimica,2023-02-22 18:11:22,87143.8,B1.-1A.001,building-facultad-quimica,2,22,18:11:22,0.09999999999126885
4452879,device-watermeter-facultad-quimica,2023-02-22 18:41:22,87144.0,B1.-1A.001,building-facultad-quimica,2,22,18:41:22,0.19999999999708962
4452882,device-watermeter-facultad-quimica,2023-02-22 18:51:22,87144.40000000001,B1.-1A.001,building-facultad-quimica,2,22,18:51:22,0.40000000000873115
4452963,device-watermeter-facultad-quimica,2023-02-23 10:31:27,87145.0,B1.-1A.001,building-facultad-quimica,2,23,10:31:27,0.5999999999912689
4452966,device-watermeter-facultad-quimica,2023-02-23 11:11:27,87145.8,B1.-1A.001,building-facultad-quimica,2,23,11:11:27,0.8000000000029104
4452969,device-watermeter-facultad-quimica,2023-02-23 11:51:27,87146.3,B1.-1A.001,building-facultad-quimica,2,23,11:51:27,0.5
4452972,device-watermeter-facultad-quimica,2023-02-23 12:31:28,87147.3,B1.-1A.001,building-facultad-quimica,2,23,12:31:28,1.0
4452975,device-watermeter-facultad-quimica,2023-02-23 12:41:28,87147.5,B1.-1A.001,building-facultad-quimica,2,23,12:41:28,0.19999999999708962
4452978,device-watermeter-facultad-quimica,2023-02-23 13:21:28,87148.40000000001,B1.-1A.001,building-facultad-quimica,2,23,13:21:28,0.9000000000087311
4452981,device-watermeter-facultad-quimica,2023-02-23 14:01:28,87148.90000000001,B1.-1A.001,building-facultad-quimica,2,23,14:01:28,0.5
4452984,device-watermeter-facultad-quimica,2023-02-23 14:41:28,87149.8,B1.-1A.001,building-facultad-quimica,2,23,14:41:28,0.8999999999941792
4452987,device-watermeter-facultad-quimica,2023-02-23 15:31:29,87151.0,B1.-1A.001,building-facultad-quimica,2,23,15:31:29,1.1999999999970896
4452990,device-watermeter-facultad-quimica,2023-02-23 16:11:29,87151.70000000001,B1.-1A.001,building-facultad-quimica,2,23,16:11:29,0.7000000000116415
4452993,device-watermeter-facultad-quimica,2023-02-23 16:51:29,87152.70000000001,B1.-1A.001,building-facultad-quimica,2,23,16:51:29,1.0
4452996,device-watermeter-facultad-quimica,2023-02-23 18:21:30,87154.1,B1.-1A.001,building-facultad-quimica,2,23,18:21:30,1.3999999999941792
4452999,device-watermeter-facultad-quimica,2023-02-23 19:01:30,87154.40000000001,B1.-1A.001,building-facultad-quimica,2,23,19:01:30,0.3000000000029104
4453002,device-watermeter-facultad-quimica,2023-02-23 20:31:30,87154.70000000001,B1.-1A.001,building-facultad-quimica,2,23,20:31:30,0.3000000000029104
4453005,device-watermeter-facultad-quimica,2023-02-23 21:11:31,87154.8,B1.-1A.001,building-facultad-quimica,2,23,21:11:31,0.09999999999126885
4453011,device-watermeter-facultad-quimica,2023-02-23 23:21:31,87154.90000000001,B1.-1A.001,building-facultad-quimica,2,23,23:21:31,0.10000000000582077
4453026,device-watermeter-facultad-quimica,2023-02-24 09:11:35,87155.40000000001,B1.-1A.001,building-facultad-quimica,2,24,09:11:35,0.5
4453029,device-watermeter-facultad-quimica,2023-02-24 12:01:36,87158.20000000001,B1.-1A.001,building-facultad-quimica,2,24,12:01:36,2.8000000000029104
4453031,device-watermeter-facultad-quimica,2023-02-24 14:11:36,87159.40000000001,B1.-1A.001,building-facultad-quimica,2,24,14:11:36,1.1999999999970896
4453035,device-watermeter-facultad-quimica,2023-02-24 17:01:37,87164.6,B1.-1A.001,building-facultad-quimica,2,24,17:01:37,5.19999999999709
4453038,device-watermeter-facultad-quimica,2023-02-25 08:21:42,87166.6,B1.-1A.001,building-facultad-quimica,2,25,08:21:42,2.0
4453071,device-watermeter-facultad-quimica,2023-02-25 12:21:44,87166.70000000001,B1.-1A.001,building-facultad-quimica,2,25,12:21:44,0.10000000000582077
4453142,device-watermeter-facultad-quimica,2023-02-25 17:31:46,87166.8,B1.-1A.001,building-facultad-quimica,2,25,17:31:46,0.09999999999126885
4453218,device-watermeter-facultad-quimica,2023-02-25 23:41:48,87166.90000000001,B1.-1A.001,building-facultad-quimica,2,25,23:41:48,0.10000000000582077
4453233,device-watermeter-facultad-quimica,2023-02-26 01:11:48,87167.0,B1.-1A.001,building-facultad-quimica,2,26,01:11:48,0.09999999999126885
4453290,device-watermeter-facultad-quimica,2023-02-26 06:11:50,87167.1,B1.-1A.001,building-facultad-quimica,2,26,06:11:50,0.10000000000582077
4453368,device-watermeter-facultad-quimica,2023-02-26 14:01:52,87167.20000000001,B1.-1A.001,building-facultad-quimica,2,26,14:01:52,0.10000000000582077
4453435,device-watermeter-facultad-quimica,2023-02-26 21:01:55,87167.3,B1.-1A.001,building-facultad-quimica,2,26,21:01:55,0.09999999999126885
4453471,device-watermeter-facultad-quimica,2023-02-27 01:21:56,87167.40000000001,B1.-1A.001,building-facultad-quimica,2,27,01:21:56,0.10000000000582077
4453519,device-watermeter-facultad-quimica,2023-02-27 06:51:58,87167.5,B1.-1A.001,building-facultad-quimica,2,27,06:51:58,0.09999999999126885
4453531,device-watermeter-facultad-quimica,2023-02-27 08:11:59,87167.6,B1.-1A.001,building-facultad-quimica,2,27,08:11:59,0.10000000000582077
4453536,device-watermeter-facultad-quimica,2023-02-27 09:01:59,87167.70000000001,B1.-1A.001,building-facultad-quimica,2,27,09:01:59,0.10000000000582077
4453540,device-watermeter-facultad-quimica,2023-02-27 09:41:59,87168.0,B1.-1A.001,building-facultad-quimica,2,27,09:41:59,0.29999999998835847
4453543,device-watermeter-facultad-quimica,2023-02-27 09:51:59,87168.1,B1.-1A.001,building-facultad-quimica,2,27,09:51:59,0.10000000000582077
4453546,device-watermeter-facultad-quimica,2023-02-27 10:21:59,87168.5,B1.-1A.001,building-facultad-quimica,2,27,10:21:59,0.39999999999417923
4453549,device-watermeter-facultad-quimica,2023-02-27 10:31:59,87168.6,B1.-1A.001,building-facultad-quimica,2,27,10:31:59,0.10000000000582077
4453552,device-watermeter-facultad-quimica,2023-02-27 11:12:00,87169.0,B1.-1A.001,building-facultad-quimica,2,27,11:12:00,0.39999999999417923
4453558,device-watermeter-facultad-quimica,2023-02-27 12:02:00,87169.20000000001,B1.-1A.001,building-facultad-quimica,2,27,12:02:00,0.20000000001164153
