id,ocb_id,time_instant,counter1,area_served,controlled_asset,Mes,Dia,Hora,Consumo
4441528,device-watermeter-facultad-psicologia,2023-01-01 05:34:43,9692.0,B1.0.016,building-facultad-psicologia,1,1,05:34:43,0.0
4442873,device-watermeter-facultad-psicologia,2023-01-02 19:44:56,9692.0,B1.0.016,building-facultad-psicologia,1,2,19:44:56,0.0
4443666,device-watermeter-facultad-psicologia,2023-01-03 13:25:02,9692.0,B1.0.016,building-facultad-psicologia,1,3,13:25:02,0.0
4445055,device-watermeter-facultad-psicologia,2023-01-04 23:05:13,9692.0,B1.0.016,building-facultad-psicologia,1,4,23:05:13,0.0
4445888,device-watermeter-facultad-psicologia,2023-01-05 21:25:21,9692.0,B1.0.016,building-facultad-psicologia,1,5,21:25:21,0.0
4446817,device-watermeter-facultad-psicologia,2023-01-06 23:45:29,9692.0,B1.0.016,building-facultad-psicologia,1,6,23:45:29,0.0
4447952,device-watermeter-facultad-psicologia,2023-01-07 23:35:38,9692.0,B1.0.016,building-facultad-psicologia,1,7,23:35:38,0.0
4448909,device-watermeter-facultad-psicologia,2023-01-08 20:45:45,9692.0,B1.0.016,building-facultad-psicologia,1,8,20:45:45,0.0
4449292,device-watermeter-facultad-psicologia,2023-01-09 05:45:48,9692.0,B1.0.016,building-facultad-psicologia,1,9,05:45:48,0.0
4450045,device-watermeter-facultad-psicologia,2023-01-09 23:55:54,9693.0,B1.0.016,building-facultad-psicologia,1,9,23:55:54,0.0
4450060,device-watermeter-facultad-psicologia,2023-01-10 00:15:54,9693.0,B1.0.016,building-facultad-psicologia,1,10,00:15:54,0.0
4450950,device-watermeter-facultad-psicologia,2023-01-10 23:26:02,9694.0,B1.0.016,building-facultad-psicologia,1,10,23:26:02,1.0
4451655,device-watermeter-facultad-psicologia,2023-01-11 16:06:07,9694.0,B1.0.016,building-facultad-psicologia,1,11,16:06:07,0.0
4451781,device-watermeter-facultad-psicologia,2023-01-11 18:36:08,9695.0,B1.0.016,building-facultad-psicologia,1,11,18:36:08,1.0
4451805,device-watermeter-facultad-psicologia,2023-01-12 08:26:13,9695.0,B1.0.016,building-facultad-psicologia,1,12,08:26:13,3.0
4451811,device-watermeter-facultad-psicologia,2023-01-14 02:10:09,9696.0,B1.0.016,building-facultad-psicologia,1,14,02:10:09,1.0
4451838,device-watermeter-facultad-psicologia,2023-01-18 11:40:44,9698.0,B1.0.016,building-facultad-psicologia,1,18,11:40:44,2.0
4451865,device-watermeter-facultad-psicologia,2023-01-18 23:50:48,9699.0,B1.0.016,building-facultad-psicologia,1,18,23:50:48,4.0
4451867,device-watermeter-facultad-psicologia,2023-01-19 01:20:49,9699.0,B1.0.016,building-facultad-psicologia,1,19,01:20:49,0.0
