id,ocb_id,time_instant,counter1,area_served,controlled_asset,Mes,Dia,Hora,Consumo
4451870,device-watermeter-facultad-psicologia,2023-02-03 05:58:43,9714.0,B1.0.016,building-facultad-psicologia,2,3,05:58:43,15.0
4451895,device-watermeter-facultad-psicologia,2023-02-07 14:59:19,9717.0,B1.0.016,building-facultad-psicologia,2,7,14:59:19,3.0
4451962,device-watermeter-facultad-psicologia,2023-02-08 08:49:25,9718.0,B1.0.016,building-facultad-psicologia,2,8,08:49:25,1.0
4452001,device-watermeter-facultad-psicologia,2023-02-12 03:49:56,9720.0,B1.0.016,building-facultad-psicologia,2,12,03:49:56,2.0
4452106,device-watermeter-facultad-psicologia,2023-02-13 03:10:03,9721.0,B1.0.016,building-facultad-psicologia,2,13,03:10:03,1.0
4452161,device-watermeter-facultad-psicologia,2023-02-13 17:20:08,9722.0,B1.0.016,building-facultad-psicologia,2,13,17:20:08,1.0
4452187,device-watermeter-facultad-psicologia,2023-02-16 16:50:32,9725.0,B1.0.016,building-facultad-psicologia,2,16,16:50:32,3.0
4452208,device-watermeter-facultad-psicologia,2023-02-16 20:10:34,9726.0,B1.0.016,building-facultad-psicologia,2,16,20:10:34,1.0
4452524,device-watermeter-facultad-psicologia,2023-02-21 04:21:09,9727.0,B1.0.016,building-facultad-psicologia,2,21,04:21:09,1.0
4452608,device-watermeter-facultad-psicologia,2023-02-21 12:01:11,9728.0,B1.0.016,building-facultad-psicologia,2,21,12:01:11,1.0
4452676,device-watermeter-facultad-psicologia,2023-02-21 18:31:14,9729.0,B1.0.016,building-facultad-psicologia,2,21,18:31:14,1.0
4452841,device-watermeter-facultad-psicologia,2023-02-22 13:51:20,9730.0,B1.0.016,building-facultad-psicologia,2,22,13:51:20,1.0
4452970,device-watermeter-facultad-psicologia,2023-02-23 12:31:28,9731.0,B1.0.016,building-facultad-psicologia,2,23,12:31:28,1.0
4453027,device-watermeter-facultad-psicologia,2023-02-24 12:01:36,9732.0,B1.0.016,building-facultad-psicologia,2,24,12:01:36,1.0
4453072,device-watermeter-facultad-psicologia,2023-02-25 12:31:44,9733.0,B1.0.016,building-facultad-psicologia,2,25,12:31:44,1.0
4453555,device-watermeter-facultad-psicologia,2023-02-27 11:52:00,9734.0,B1.0.016,building-facultad-psicologia,2,27,11:52:00,1.0
