,id,ocb_id,time_instant,counter1,area_served,controlled_asset,Mes,Dia,Consumo
3815,1615346,device-watermeter-facultad-psicologia,2020-02-01 23:54:45+01:00,8982.0,B1.0.016,building-facultad-psicologia,2,1,0.0
3840,1615375,device-watermeter-facultad-psicologia,2020-02-02 23:54:53+01:00,8982.0,B1.0.016,building-facultad-psicologia,2,2,0.0
28,1595739,device-watermeter-facultad-psicologia,2020-02-03 08:54:56+01:00,8982.0,B1.0.016,building-facultad-psicologia,2,3,0.0
4064,1615599,device-watermeter-facultad-psicologia,2020-02-03 12:34:57+01:00,8983.0,B1.0.016,building-facultad-psicologia,2,3,1.0
4031,1615566,device-watermeter-facultad-psicologia,2020-02-03 18:04:59+01:00,8984.0,B1.0.016,building-facultad-psicologia,2,3,1.0
4007,1615542,device-watermeter-facultad-psicologia,2020-02-03 23:55:01+01:00,8985.0,B1.0.016,building-facultad-psicologia,2,3,1.0
106,1595817,device-watermeter-facultad-psicologia,2020-02-04 10:05:04+01:00,8985.0,B1.0.016,building-facultad-psicologia,2,4,0.0
129,1595840,device-watermeter-facultad-psicologia,2020-02-04 12:55:05+01:00,8986.0,B1.0.016,building-facultad-psicologia,2,4,1.0
145,1595856,device-watermeter-facultad-psicologia,2020-02-04 16:55:07+01:00,8987.0,B1.0.016,building-facultad-psicologia,2,4,1.0
17,1595728,device-watermeter-facultad-psicologia,2020-02-04 23:55:09+01:00,8988.0,B1.0.016,building-facultad-psicologia,2,4,1.0
56,1595767,device-watermeter-facultad-psicologia,2020-02-05 09:15:12+01:00,8988.0,B1.0.016,building-facultad-psicologia,2,5,0.0
75,1595786,device-watermeter-facultad-psicologia,2020-02-05 13:25:13+01:00,8989.0,B1.0.016,building-facultad-psicologia,2,5,1.0
271,1595982,device-watermeter-facultad-psicologia,2020-02-05 18:45:15+01:00,8990.0,B1.0.016,building-facultad-psicologia,2,5,1.0
205,1595916,device-watermeter-facultad-psicologia,2020-02-05 20:05:16+01:00,8991.0,B1.0.016,building-facultad-psicologia,2,5,1.0
141,1595852,device-watermeter-facultad-psicologia,2020-02-05 23:55:17+01:00,8992.0,B1.0.016,building-facultad-psicologia,2,5,1.0
371,1596082,device-watermeter-facultad-psicologia,2020-02-06 11:25:21+01:00,8992.0,B1.0.016,building-facultad-psicologia,2,6,0.0
326,1596037,device-watermeter-facultad-psicologia,2020-02-06 14:05:22+01:00,8993.0,B1.0.016,building-facultad-psicologia,2,6,1.0
331,1596042,device-watermeter-facultad-psicologia,2020-02-06 18:05:23+01:00,8994.0,B1.0.016,building-facultad-psicologia,2,6,1.0
358,1596069,device-watermeter-facultad-psicologia,2020-02-06 23:55:25+01:00,8995.0,B1.0.016,building-facultad-psicologia,2,6,1.0
522,1596233,device-watermeter-facultad-psicologia,2020-02-07 11:35:29+01:00,8995.0,B1.0.016,building-facultad-psicologia,2,7,0.0
507,1596218,device-watermeter-facultad-psicologia,2020-02-07 17:25:31+01:00,8996.0,B1.0.016,building-facultad-psicologia,2,7,1.0
493,1596204,device-watermeter-facultad-psicologia,2020-02-07 23:55:33+01:00,8997.0,B1.0.016,building-facultad-psicologia,2,7,1.0
579,1596290,device-watermeter-facultad-psicologia,2020-02-08 23:55:41+01:00,8997.0,B1.0.016,building-facultad-psicologia,2,8,0.0
695,1596406,device-watermeter-facultad-psicologia,2020-02-09 23:55:49+01:00,8997.0,B1.0.016,building-facultad-psicologia,2,9,0.0
843,1596554,device-watermeter-facultad-psicologia,2020-02-10 11:15:53+01:00,8997.0,B1.0.016,building-facultad-psicologia,2,10,0.0
960,1596671,device-watermeter-facultad-psicologia,2020-02-10 13:35:54+01:00,8998.0,B1.0.016,building-facultad-psicologia,2,10,1.0
918,1596629,device-watermeter-facultad-psicologia,2020-02-10 17:05:55+01:00,8999.0,B1.0.016,building-facultad-psicologia,2,10,1.0
955,1596666,device-watermeter-facultad-psicologia,2020-02-10 23:52:44+01:00,9000.0,B1.0.016,building-facultad-psicologia,2,10,1.0
1067,1596778,device-watermeter-facultad-psicologia,2020-02-11 09:12:47+01:00,9000.0,B1.0.016,building-facultad-psicologia,2,11,0.0
1026,1596737,device-watermeter-facultad-psicologia,2020-02-11 12:52:48+01:00,9001.0,B1.0.016,building-facultad-psicologia,2,11,1.0
987,1596698,device-watermeter-facultad-psicologia,2020-02-11 16:32:50+01:00,9002.0,B1.0.016,building-facultad-psicologia,2,11,1.0
994,1596705,device-watermeter-facultad-psicologia,2020-02-11 23:52:52+01:00,9003.0,B1.0.016,building-facultad-psicologia,2,11,1.0
1236,1596947,device-watermeter-facultad-psicologia,2020-02-12 08:52:55+01:00,9003.0,B1.0.016,building-facultad-psicologia,2,12,0.0
1297,1597008,device-watermeter-facultad-psicologia,2020-02-12 12:52:56+01:00,9004.0,B1.0.016,building-facultad-psicologia,2,12,1.0
1164,1596875,device-watermeter-facultad-psicologia,2020-02-12 17:32:58+01:00,9005.0,B1.0.016,building-facultad-psicologia,2,12,1.0
1211,1596922,device-watermeter-facultad-psicologia,2020-02-12 23:53:00+01:00,9006.0,B1.0.016,building-facultad-psicologia,2,12,1.0
1353,1597064,device-watermeter-facultad-psicologia,2020-02-13 09:43:03+01:00,9006.0,B1.0.016,building-facultad-psicologia,2,13,0.0
1370,1597081,device-watermeter-facultad-psicologia,2020-02-13 13:03:04+01:00,9007.0,B1.0.016,building-facultad-psicologia,2,13,1.0
1401,1597112,device-watermeter-facultad-psicologia,2020-02-13 16:23:06+01:00,9008.0,B1.0.016,building-facultad-psicologia,2,13,1.0
1314,1597025,device-watermeter-facultad-psicologia,2020-02-13 23:53:08+01:00,9009.0,B1.0.016,building-facultad-psicologia,2,13,1.0
1509,1597220,device-watermeter-facultad-psicologia,2020-02-14 12:03:12+01:00,9009.0,B1.0.016,building-facultad-psicologia,2,14,0.0
1428,1597139,device-watermeter-facultad-psicologia,2020-02-14 18:33:14+01:00,9010.0,B1.0.016,building-facultad-psicologia,2,14,1.0
1449,1597160,device-watermeter-facultad-psicologia,2020-02-14 23:53:16+01:00,9011.0,B1.0.016,building-facultad-psicologia,2,14,1.0
1604,1597315,device-watermeter-facultad-psicologia,2020-02-15 23:53:24+01:00,9011.0,B1.0.016,building-facultad-psicologia,2,15,0.0
1818,1597529,device-watermeter-facultad-psicologia,2020-02-16 23:53:32+01:00,9011.0,B1.0.016,building-facultad-psicologia,2,16,0.0
1905,1597616,device-watermeter-facultad-psicologia,2020-02-17 11:43:36+01:00,9011.0,B1.0.016,building-facultad-psicologia,2,17,0.0
1911,1597622,device-watermeter-facultad-psicologia,2020-02-17 14:03:37+01:00,9012.0,B1.0.016,building-facultad-psicologia,2,17,1.0
1987,1597698,device-watermeter-facultad-psicologia,2020-02-17 16:43:38+01:00,9013.0,B1.0.016,building-facultad-psicologia,2,17,1.0
1877,1597588,device-watermeter-facultad-psicologia,2020-02-17 19:53:39+01:00,9014.0,B1.0.016,building-facultad-psicologia,2,17,1.0
1953,1597664,device-watermeter-facultad-psicologia,2020-02-17 23:53:40+01:00,9015.0,B1.0.016,building-facultad-psicologia,2,17,1.0
2033,1597744,device-watermeter-facultad-psicologia,2020-02-18 11:33:44+01:00,9015.0,B1.0.016,building-facultad-psicologia,2,18,0.0
2125,1597836,device-watermeter-facultad-psicologia,2020-02-18 15:13:45+01:00,9016.0,B1.0.016,building-facultad-psicologia,2,18,1.0
2027,1597738,device-watermeter-facultad-psicologia,2020-02-18 18:43:46+01:00,9017.0,B1.0.016,building-facultad-psicologia,2,18,1.0
2104,1597815,device-watermeter-facultad-psicologia,2020-02-18 23:53:48+01:00,9018.0,B1.0.016,building-facultad-psicologia,2,18,1.0
2275,1597986,device-watermeter-facultad-psicologia,2020-02-19 11:43:52+01:00,9018.0,B1.0.016,building-facultad-psicologia,2,19,0.0
2150,1597861,device-watermeter-facultad-psicologia,2020-02-19 14:03:53+01:00,9019.0,B1.0.016,building-facultad-psicologia,2,19,1.0
2198,1597909,device-watermeter-facultad-psicologia,2020-02-19 18:03:54+01:00,9020.0,B1.0.016,building-facultad-psicologia,2,19,1.0
2135,1597846,device-watermeter-facultad-psicologia,2020-02-19 23:53:56+01:00,9021.0,B1.0.016,building-facultad-psicologia,2,19,1.0
2334,1598045,device-watermeter-facultad-psicologia,2020-02-20 10:54:00+01:00,9021.0,B1.0.016,building-facultad-psicologia,2,20,0.0
2370,1598081,device-watermeter-facultad-psicologia,2020-02-20 13:14:01+01:00,9022.0,B1.0.016,building-facultad-psicologia,2,20,1.0
2299,1598010,device-watermeter-facultad-psicologia,2020-02-20 15:54:01+01:00,9023.0,B1.0.016,building-facultad-psicologia,2,20,1.0
2374,1598085,device-watermeter-facultad-psicologia,2020-02-20 23:54:04+01:00,9024.0,B1.0.016,building-facultad-psicologia,2,20,1.0
2498,1598209,device-watermeter-facultad-psicologia,2020-02-21 23:54:12+01:00,9024.0,B1.0.016,building-facultad-psicologia,2,21,0.0
2601,1598312,device-watermeter-facultad-psicologia,2020-02-22 23:54:20+01:00,9024.0,B1.0.016,building-facultad-psicologia,2,22,0.0
2829,1598540,device-watermeter-facultad-psicologia,2020-02-23 23:54:28+01:00,9024.0,B1.0.016,building-facultad-psicologia,2,23,0.0
2973,1598684,device-watermeter-facultad-psicologia,2020-02-24 09:34:32+01:00,9024.0,B1.0.016,building-facultad-psicologia,2,24,0.0
2946,1598657,device-watermeter-facultad-psicologia,2020-02-24 12:24:33+01:00,9025.0,B1.0.016,building-facultad-psicologia,2,24,1.0
2891,1598602,device-watermeter-facultad-psicologia,2020-02-24 15:34:34+01:00,9026.0,B1.0.016,building-facultad-psicologia,2,24,1.0
2901,1598612,device-watermeter-facultad-psicologia,2020-02-24 18:24:35+01:00,9027.0,B1.0.016,building-facultad-psicologia,2,24,1.0
2914,1598625,device-watermeter-facultad-psicologia,2020-02-24 23:54:36+01:00,9028.0,B1.0.016,building-facultad-psicologia,2,24,1.0
3036,1598747,device-watermeter-facultad-psicologia,2020-02-25 10:04:40+01:00,9028.0,B1.0.016,building-facultad-psicologia,2,25,0.0
3140,1598851,device-watermeter-facultad-psicologia,2020-02-25 12:44:41+01:00,9029.0,B1.0.016,building-facultad-psicologia,2,25,1.0
3195,1598906,device-watermeter-facultad-psicologia,2020-02-25 16:24:42+01:00,9030.0,B1.0.016,building-facultad-psicologia,2,25,1.0
3110,1598821,device-watermeter-facultad-psicologia,2020-02-25 19:34:43+01:00,9031.0,B1.0.016,building-facultad-psicologia,2,25,1.0
3001,1598712,device-watermeter-facultad-psicologia,2020-02-25 23:54:44+01:00,9032.0,B1.0.016,building-facultad-psicologia,2,25,1.0
3231,1598942,device-watermeter-facultad-psicologia,2020-02-26 11:54:48+01:00,9032.0,B1.0.016,building-facultad-psicologia,2,26,0.0
3118,1598829,device-watermeter-facultad-psicologia,2020-02-26 14:44:49+01:00,9033.0,B1.0.016,building-facultad-psicologia,2,26,1.0
3235,1598946,device-watermeter-facultad-psicologia,2020-02-26 18:14:50+01:00,9034.0,B1.0.016,building-facultad-psicologia,2,26,1.0
3145,1598856,device-watermeter-facultad-psicologia,2020-02-26 23:54:52+01:00,9035.0,B1.0.016,building-facultad-psicologia,2,26,1.0
3314,1599025,device-watermeter-facultad-psicologia,2020-02-27 10:44:56+01:00,9035.0,B1.0.016,building-facultad-psicologia,2,27,0.0
3380,1599091,device-watermeter-facultad-psicologia,2020-02-27 12:44:57+01:00,9036.0,B1.0.016,building-facultad-psicologia,2,27,1.0
3353,1599064,device-watermeter-facultad-psicologia,2020-02-27 16:44:58+01:00,9037.0,B1.0.016,building-facultad-psicologia,2,27,1.0
3405,1599116,device-watermeter-facultad-psicologia,2020-02-27 23:55:00+01:00,9038.0,B1.0.016,building-facultad-psicologia,2,27,1.0
3454,1599165,device-watermeter-facultad-psicologia,2020-02-28 10:55:04+01:00,9038.0,B1.0.016,building-facultad-psicologia,2,28,0.0
3562,1599273,device-watermeter-facultad-psicologia,2020-02-28 15:45:06+01:00,9039.0,B1.0.016,building-facultad-psicologia,2,28,1.0
3476,1599187,device-watermeter-facultad-psicologia,2020-02-28 23:55:08+01:00,9040.0,B1.0.016,building-facultad-psicologia,2,28,1.0
3672,1599424,device-watermeter-facultad-psicologia,2020-02-29 23:55:16+01:00,9040.0,B1.0.016,building-facultad-psicologia,2,29,0.0
