,id,ocb_id,time_instant,counter1,area_served,controlled_asset,Mes,Dia,Consumo
47,1599481,device-watermeter-facultad-psicologia,2020-03-01 23:55:24+01:00,9040.0,B1.0.016,building-facultad-psicologia,3,1,0.0
4045,1599653,device-watermeter-facultad-psicologia,2020-03-02 09:55:28+01:00,9040.0,B1.0.016,building-facultad-psicologia,3,2,0.0
4073,1599681,device-watermeter-facultad-psicologia,2020-03-02 12:05:28+01:00,9041.0,B1.0.016,building-facultad-psicologia,3,2,1.0
151,1599707,device-watermeter-facultad-psicologia,2020-03-02 14:35:29+01:00,9042.0,B1.0.016,building-facultad-psicologia,3,2,1.0
100,1599595,device-watermeter-facultad-psicologia,2020-03-02 18:05:30+01:00,9043.0,B1.0.016,building-facultad-psicologia,3,2,1.0
117,1599612,device-watermeter-facultad-psicologia,2020-03-02 23:55:32+01:00,9044.0,B1.0.016,building-facultad-psicologia,3,2,1.0
4130,1599799,device-watermeter-facultad-psicologia,2020-03-03 09:45:36+01:00,9044.0,B1.0.016,building-facultad-psicologia,3,3,0.0
4111,1599780,device-watermeter-facultad-psicologia,2020-03-03 12:05:36+01:00,9045.0,B1.0.016,building-facultad-psicologia,3,3,1.0
4121,1599790,device-watermeter-facultad-psicologia,2020-03-03 14:25:37+01:00,9046.0,B1.0.016,building-facultad-psicologia,3,3,1.0
207,1599824,device-watermeter-facultad-psicologia,2020-03-03 18:05:38+01:00,9047.0,B1.0.016,building-facultad-psicologia,3,3,1.0
209,1599826,device-watermeter-facultad-psicologia,2020-03-03 23:55:40+01:00,9048.0,B1.0.016,building-facultad-psicologia,3,3,1.0
272,1599950,device-watermeter-facultad-psicologia,2020-03-04 10:35:44+01:00,9048.0,B1.0.016,building-facultad-psicologia,3,4,0.0
4169,1599899,device-watermeter-facultad-psicologia,2020-03-04 13:15:45+01:00,9049.0,B1.0.016,building-facultad-psicologia,3,4,1.0
4197,1599927,device-watermeter-facultad-psicologia,2020-03-04 16:25:46+01:00,9050.0,B1.0.016,building-facultad-psicologia,3,4,1.0
4161,1599891,device-watermeter-facultad-psicologia,2020-03-04 19:25:47+01:00,9051.0,B1.0.016,building-facultad-psicologia,3,4,1.0
4196,1599926,device-watermeter-facultad-psicologia,2020-03-04 23:55:48+01:00,9052.0,B1.0.016,building-facultad-psicologia,3,4,1.0
346,1600085,device-watermeter-facultad-psicologia,2020-03-05 11:55:52+01:00,9052.0,B1.0.016,building-facultad-psicologia,3,5,0.0
325,1600064,device-watermeter-facultad-psicologia,2020-03-05 13:55:53+01:00,9053.0,B1.0.016,building-facultad-psicologia,3,5,1.0
348,1600087,device-watermeter-facultad-psicologia,2020-03-05 17:25:54+01:00,9054.0,B1.0.016,building-facultad-psicologia,3,5,1.0
363,1600102,device-watermeter-facultad-psicologia,2020-03-05 23:55:56+01:00,9055.0,B1.0.016,building-facultad-psicologia,3,5,1.0
396,1600196,device-watermeter-facultad-psicologia,2020-03-06 09:56:00+01:00,9055.0,B1.0.016,building-facultad-psicologia,3,6,0.0
4298,1600150,device-watermeter-facultad-psicologia,2020-03-06 13:16:01+01:00,9056.0,B1.0.016,building-facultad-psicologia,3,6,1.0
4330,1600243,device-watermeter-facultad-psicologia,2020-03-06 18:36:03+01:00,9057.0,B1.0.016,building-facultad-psicologia,3,6,1.0
4375,1600288,device-watermeter-facultad-psicologia,2020-03-06 23:56:04+01:00,9058.0,B1.0.016,building-facultad-psicologia,3,6,1.0
4399,1600373,device-watermeter-facultad-psicologia,2020-03-07 23:56:12+01:00,9058.0,B1.0.016,building-facultad-psicologia,3,7,0.0
596,1600518,device-watermeter-facultad-psicologia,2020-03-08 23:56:20+01:00,9058.0,B1.0.016,building-facultad-psicologia,3,8,0.0
692,1600614,device-watermeter-facultad-psicologia,2020-03-09 10:56:24+01:00,9058.0,B1.0.016,building-facultad-psicologia,3,9,0.0
745,1600667,device-watermeter-facultad-psicologia,2020-03-09 12:56:25+01:00,9059.0,B1.0.016,building-facultad-psicologia,3,9,1.0
662,1600584,device-watermeter-facultad-psicologia,2020-03-09 16:16:26+01:00,9060.0,B1.0.016,building-facultad-psicologia,3,9,1.0
776,1600698,device-watermeter-facultad-psicologia,2020-03-09 20:06:27+01:00,9061.0,B1.0.016,building-facultad-psicologia,3,9,1.0
682,1600604,device-watermeter-facultad-psicologia,2020-03-09 23:56:28+01:00,9062.0,B1.0.016,building-facultad-psicologia,3,9,1.0
828,1600750,device-watermeter-facultad-psicologia,2020-03-10 11:56:32+01:00,9062.0,B1.0.016,building-facultad-psicologia,3,10,0.0
875,1600797,device-watermeter-facultad-psicologia,2020-03-10 13:56:33+01:00,9063.0,B1.0.016,building-facultad-psicologia,3,10,1.0
866,1600788,device-watermeter-facultad-psicologia,2020-03-10 17:06:34+01:00,9064.0,B1.0.016,building-facultad-psicologia,3,10,1.0
917,1600839,device-watermeter-facultad-psicologia,2020-03-10 20:26:35+01:00,9065.0,B1.0.016,building-facultad-psicologia,3,10,1.0
898,1600820,device-watermeter-facultad-psicologia,2020-03-10 23:56:36+01:00,9066.0,B1.0.016,building-facultad-psicologia,3,10,1.0
962,1600884,device-watermeter-facultad-psicologia,2020-03-11 12:16:40+01:00,9066.0,B1.0.016,building-facultad-psicologia,3,11,0.0
955,1600877,device-watermeter-facultad-psicologia,2020-03-11 16:16:42+01:00,9067.0,B1.0.016,building-facultad-psicologia,3,11,1.0
1066,1600988,device-watermeter-facultad-psicologia,2020-03-11 20:06:43+01:00,9068.0,B1.0.016,building-facultad-psicologia,3,11,1.0
996,1600918,device-watermeter-facultad-psicologia,2020-03-11 23:56:44+01:00,9069.0,B1.0.016,building-facultad-psicologia,3,11,1.0
1164,1601086,device-watermeter-facultad-psicologia,2020-03-12 11:46:48+01:00,9069.0,B1.0.016,building-facultad-psicologia,3,12,0.0
1110,1601032,device-watermeter-facultad-psicologia,2020-03-12 14:16:49+01:00,9070.0,B1.0.016,building-facultad-psicologia,3,12,1.0
1162,1601084,device-watermeter-facultad-psicologia,2020-03-12 23:56:52+01:00,9071.0,B1.0.016,building-facultad-psicologia,3,12,1.0
1259,1601181,device-watermeter-facultad-psicologia,2020-03-13 12:56:57+01:00,9071.0,B1.0.016,building-facultad-psicologia,3,13,0.0
1329,1601251,device-watermeter-facultad-psicologia,2020-03-13 23:57:00+01:00,9072.0,B1.0.016,building-facultad-psicologia,3,13,1.0
1505,1601427,device-watermeter-facultad-psicologia,2020-03-14 23:57:08+01:00,9072.0,B1.0.016,building-facultad-psicologia,3,14,0.0
1772,1601694,device-watermeter-facultad-psicologia,2020-03-15 23:57:16+01:00,9072.0,B1.0.016,building-facultad-psicologia,3,15,0.0
1714,1601636,device-watermeter-facultad-psicologia,2020-03-16 23:57:24+01:00,9072.0,B1.0.016,building-facultad-psicologia,3,16,0.0
1820,1601742,device-watermeter-facultad-psicologia,2020-03-17 23:57:32+01:00,9072.0,B1.0.016,building-facultad-psicologia,3,17,0.0
2036,1601958,device-watermeter-facultad-psicologia,2020-03-18 23:57:40+01:00,9072.0,B1.0.016,building-facultad-psicologia,3,18,0.0
2176,1602098,device-watermeter-facultad-psicologia,2020-03-19 23:57:48+01:00,9072.0,B1.0.016,building-facultad-psicologia,3,19,0.0
2306,1602228,device-watermeter-facultad-psicologia,2020-03-20 23:57:56+01:00,9072.0,B1.0.016,building-facultad-psicologia,3,20,0.0
2384,1602306,device-watermeter-facultad-psicologia,2020-03-21 23:58:04+01:00,9072.0,B1.0.016,building-facultad-psicologia,3,21,0.0
2584,1602506,device-watermeter-facultad-psicologia,2020-03-22 23:58:12+01:00,9072.0,B1.0.016,building-facultad-psicologia,3,22,0.0
2698,1602620,device-watermeter-facultad-psicologia,2020-03-23 23:58:20+01:00,9072.0,B1.0.016,building-facultad-psicologia,3,23,0.0
2895,1602817,device-watermeter-facultad-psicologia,2020-03-24 23:58:28+01:00,9072.0,B1.0.016,building-facultad-psicologia,3,24,0.0
2985,1602907,device-watermeter-facultad-psicologia,2020-03-25 23:58:36+01:00,9072.0,B1.0.016,building-facultad-psicologia,3,25,0.0
3224,1603146,device-watermeter-facultad-psicologia,2020-03-26 23:58:44+01:00,9072.0,B1.0.016,building-facultad-psicologia,3,26,0.0
3369,1603291,device-watermeter-facultad-psicologia,2020-03-27 23:58:52+01:00,9072.0,B1.0.016,building-facultad-psicologia,3,27,0.0
3464,1603386,device-watermeter-facultad-psicologia,2020-03-28 23:59:00+01:00,9072.0,B1.0.016,building-facultad-psicologia,3,28,0.0
3626,1603548,device-watermeter-facultad-psicologia,2020-03-29 23:59:08+02:00,9072.0,B1.0.016,building-facultad-psicologia,3,29,0.0
3777,1603699,device-watermeter-facultad-psicologia,2020-03-30 23:59:16+02:00,9072.0,B1.0.016,building-facultad-psicologia,3,30,0.0
3864,1603801,device-watermeter-facultad-psicologia,2020-03-31 23:59:24+02:00,9072.0,B1.0.016,building-facultad-psicologia,3,31,0.0
